%!PS-Adobe-3.0 EPSF-3.0
%%DocumentNeededResources: font Helvetica
%%+ font Helvetica-Bold
%%+ font Helvetica-Oblique
%%+ font Helvetica-BoldOblique
%%+ font Symbol
%%Title: R Graphics Output
%%Creator: R Software
%%Pages: (atend)
%%BoundingBox: 18 133 577 709
%%EndComments
%%BeginProlog
/bp  { gs sRGB gs } def
% begin .ps.prolog
/gs  { gsave } bind def
/gr  { grestore } bind def
/ep  { showpage gr gr } bind def
/m   { moveto } bind def
/l  { rlineto } bind def
/np  { newpath } bind def
/cp  { closepath } bind def
/f   { fill } bind def
/o   { stroke } bind def
/c   { newpath 0 360 arc } bind def
/r   { 4 2 roll moveto 1 copy 3 -1 roll exch 0 exch rlineto 0 rlineto -1 mul 0 exch rlineto closepath } bind def
/p1  { stroke } bind def
/p2  { gsave bg fill grestore newpath } bind def
/p3  { gsave bg fill grestore stroke } bind def
/p6  { gsave bg eofill grestore newpath } bind def
/p7  { gsave bg eofill grestore stroke } bind def
/t   { 5 -2 roll moveto gsave rotate
       1 index stringwidth pop
       mul neg 0 rmoveto show grestore } bind def
/ta  { 4 -2 roll moveto gsave rotate show } bind def
/tb  { 2 -1 roll 0 rmoveto show } bind def
/cl  { grestore gsave newpath 3 index 3 index moveto 1 index
       4 -1 roll lineto  exch 1 index lineto lineto
       closepath clip newpath } bind def
/rgb { setrgbcolor } bind def
/s   { scalefont setfont } bind def
% end   .ps.prolog
/sRGB { [ /CIEBasedABC
          << /DecodeLMN
               [ { dup 0.03928 le
                        {12.92321 div}
                        {0.055 add 1.055 div 2.4 exp }
                     ifelse
                 } bind dup dup
               ]
             /MatrixLMN [0.412457 0.212673 0.019334
                         0.357576 0.715152 0.119192
                         0.180437 0.072175 0.950301]
             /WhitePoint [0.9505 1.0 1.0890]
           >>
         ] setcolorspace } bind def
/srgb { setcolor } bind def
%%IncludeResource: font Helvetica
/Helvetica findfont
dup length dict begin
  {1 index /FID ne {def} {pop pop} ifelse} forall
  /Encoding ISOLatin1Encoding def
  currentdict
  end
/Font1 exch definefont pop
%%IncludeResource: font Helvetica-Bold
/Helvetica-Bold findfont
dup length dict begin
  {1 index /FID ne {def} {pop pop} ifelse} forall
  /Encoding ISOLatin1Encoding def
  currentdict
  end
/Font2 exch definefont pop
%%IncludeResource: font Helvetica-Oblique
/Helvetica-Oblique findfont
dup length dict begin
  {1 index /FID ne {def} {pop pop} ifelse} forall
  /Encoding ISOLatin1Encoding def
  currentdict
  end
/Font3 exch definefont pop
%%IncludeResource: font Helvetica-BoldOblique
/Helvetica-BoldOblique findfont
dup length dict begin
  {1 index /FID ne {def} {pop pop} ifelse} forall
  /Encoding ISOLatin1Encoding def
  currentdict
  end
/Font4 exch definefont pop
%%IncludeResource: font Symbol
/Symbol findfont
dup length dict begin
  {1 index /FID ne {def} {pop pop} ifelse} forall
  currentdict
  end
/Font5 exch definefont pop
%%EndProlog
%%Page: 1 1
bp
67.20 194.14 552.08 659.74 cl
0 0 0 srgb
2.25 setlinewidth
[] 0 setdash
0 setlinecap
1 setlinejoin
10.00 setmiterlimit
np
118.83 519.00 m
44.90 0 l
o
0.75 setlinewidth
[ 2.25 3.75] 0 setdash
1 setlinecap
np
141.28 435.57 m
0 56.56 l
o
np
141.28 591.69 m
0 -55.86 l
o
0.75 setlinewidth
[] 0 setdash
np
118.83 435.57 m
44.90 0 l
o
np
118.83 591.69 m
44.90 0 l
o
np
96.38 492.13 m
89.79 0 l
0 11.43 l
-22.44 15.44 l
22.44 15.44 l
0 1.39 l
-89.79 0 l
0 -1.39 l
22.45 -15.44 l
-22.45 -15.44 l
0 -11.43 l
o
2.25 setlinewidth
[] 0 setdash
0 setlinecap
np
231.07 508.00 m
44.90 0 l
o
0.75 setlinewidth
[ 2.25 3.75] 0 setdash
1 setlinecap
np
253.52 454.61 m
0 21.71 l
o
np
253.52 546.14 m
0 -16.09 l
o
0.75 setlinewidth
[] 0 setdash
np
231.07 454.61 m
44.90 0 l
o
np
231.07 546.14 m
44.90 0 l
o
np
208.62 476.32 m
89.79 0 l
0 12.70 l
-22.44 18.98 l
22.44 18.98 l
0 3.07 l
-89.79 0 l
0 -3.07 l
22.45 -18.98 l
-22.45 -18.98 l
0 -12.70 l
o
2.25 setlinewidth
[] 0 setdash
0 setlinecap
np
343.31 585.61 m
44.90 0 l
o
0.75 setlinewidth
[ 2.25 3.75] 0 setdash
1 setlinecap
np
365.76 504.49 m
0 62.59 l
o
np
365.76 642.50 m
0 -32.42 l
o
0.75 setlinewidth
[] 0 setdash
np
343.31 504.49 m
44.90 0 l
o
np
343.31 642.50 m
44.90 0 l
o
np
320.86 567.08 m
89.79 0 l
0 3.34 l
-22.44 15.19 l
22.44 15.19 l
0 9.28 l
-89.79 0 l
0 -9.28 l
22.45 -15.19 l
-22.45 -15.19 l
0 -3.34 l
o
2.25 setlinewidth
[] 0 setdash
0 setlinecap
np
455.55 281.97 m
44.90 0 l
o
0.75 setlinewidth
[ 2.25 3.75] 0 setdash
1 setlinecap
np
478.00 211.39 m
0 40.93 l
o
np
478.00 363.55 m
0 -64.92 l
o
0.75 setlinewidth
[] 0 setdash
np
455.55 211.39 m
44.90 0 l
o
np
455.55 363.55 m
44.90 0 l
o
np
433.10 252.32 m
89.79 0 l
0 13.29 l
-22.44 16.36 l
22.44 16.37 l
0 0.29 l
-89.79 0 l
0 -0.29 l
22.45 -16.37 l
-22.45 -16.36 l
0 -13.29 l
o
18.00 132.94 577.28 708.94 cl
0 0 0 srgb
0.75 setlinewidth
[] 0 setdash
1 setlinecap
1 setlinejoin
10.00 setmiterlimit
np
141.28 194.14 m
336.72 0 l
o
np
141.28 194.14 m
0 -6.00 l
o
np
253.52 194.14 m
0 -6.00 l
o
np
365.76 194.14 m
0 -6.00 l
o
np
478.00 194.14 m
0 -6.00 l
o
/Font1 findfont 10 s
141.28 172.54 (NSGAII) .5 0 t
253.52 172.54 (MOEAD) .5 0 t
365.76 172.54 (MOCELL) .5 0 t
464.66 172.54 (P) 0 ta
-1.200 (AES) tb gr
np
67.20 225.63 m
0 429.63 l
o
np
67.20 225.63 m
-6.00 0 l
o
np
67.20 287.01 m
-6.00 0 l
o
np
67.20 348.38 m
-6.00 0 l
o
np
67.20 409.76 m
-6.00 0 l
o
np
67.20 471.13 m
-6.00 0 l
o
np
67.20 532.51 m
-6.00 0 l
o
np
67.20 593.88 m
-6.00 0 l
o
np
67.20 655.26 m
-6.00 0 l
o
52.80 225.63 (0.50) .5 90 t
52.80 287.01 (0.55) .5 90 t
52.80 348.38 (0.60) .5 90 t
52.80 409.76 (0.65) .5 90 t
52.80 471.13 (0.70) .5 90 t
52.80 532.51 (0.75) .5 90 t
52.80 593.88 (0.80) .5 90 t
52.80 655.26 (0.85) .5 90 t
np
67.20 194.14 m
484.88 0 l
0 465.60 l
-484.88 0 l
0 -465.60 l
o
18.00 132.94 577.28 708.94 cl
/Font2 findfont 12 s
0 0 0 srgb
271.30 680.04 (HV) 0 ta
-0.480 (:kr) tb
-0.240 (oAB200) tb gr
ep
%%Trailer
%%Pages: 1
%%EOF
