%!PS-Adobe-3.0 EPSF-3.0
%%DocumentNeededResources: font Helvetica
%%+ font Helvetica-Bold
%%+ font Helvetica-Oblique
%%+ font Helvetica-BoldOblique
%%+ font Symbol
%%Title: R Graphics Output
%%Creator: R Software
%%Pages: (atend)
%%BoundingBox: 18 133 577 709
%%EndComments
%%BeginProlog
/bp  { gs sRGB gs } def
% begin .ps.prolog
/gs  { gsave } bind def
/gr  { grestore } bind def
/ep  { showpage gr gr } bind def
/m   { moveto } bind def
/l  { rlineto } bind def
/np  { newpath } bind def
/cp  { closepath } bind def
/f   { fill } bind def
/o   { stroke } bind def
/c   { newpath 0 360 arc } bind def
/r   { 4 2 roll moveto 1 copy 3 -1 roll exch 0 exch rlineto 0 rlineto -1 mul 0 exch rlineto closepath } bind def
/p1  { stroke } bind def
/p2  { gsave bg fill grestore newpath } bind def
/p3  { gsave bg fill grestore stroke } bind def
/p6  { gsave bg eofill grestore newpath } bind def
/p7  { gsave bg eofill grestore stroke } bind def
/t   { 5 -2 roll moveto gsave rotate
       1 index stringwidth pop
       mul neg 0 rmoveto show grestore } bind def
/ta  { 4 -2 roll moveto gsave rotate show } bind def
/tb  { 2 -1 roll 0 rmoveto show } bind def
/cl  { grestore gsave newpath 3 index 3 index moveto 1 index
       4 -1 roll lineto  exch 1 index lineto lineto
       closepath clip newpath } bind def
/rgb { setrgbcolor } bind def
/s   { scalefont setfont } bind def
% end   .ps.prolog
/sRGB { [ /CIEBasedABC
          << /DecodeLMN
               [ { dup 0.03928 le
                        {12.92321 div}
                        {0.055 add 1.055 div 2.4 exp }
                     ifelse
                 } bind dup dup
               ]
             /MatrixLMN [0.412457 0.212673 0.019334
                         0.357576 0.715152 0.119192
                         0.180437 0.072175 0.950301]
             /WhitePoint [0.9505 1.0 1.0890]
           >>
         ] setcolorspace } bind def
/srgb { setcolor } bind def
%%IncludeResource: font Helvetica
/Helvetica findfont
dup length dict begin
  {1 index /FID ne {def} {pop pop} ifelse} forall
  /Encoding ISOLatin1Encoding def
  currentdict
  end
/Font1 exch definefont pop
%%IncludeResource: font Helvetica-Bold
/Helvetica-Bold findfont
dup length dict begin
  {1 index /FID ne {def} {pop pop} ifelse} forall
  /Encoding ISOLatin1Encoding def
  currentdict
  end
/Font2 exch definefont pop
%%IncludeResource: font Helvetica-Oblique
/Helvetica-Oblique findfont
dup length dict begin
  {1 index /FID ne {def} {pop pop} ifelse} forall
  /Encoding ISOLatin1Encoding def
  currentdict
  end
/Font3 exch definefont pop
%%IncludeResource: font Helvetica-BoldOblique
/Helvetica-BoldOblique findfont
dup length dict begin
  {1 index /FID ne {def} {pop pop} ifelse} forall
  /Encoding ISOLatin1Encoding def
  currentdict
  end
/Font4 exch definefont pop
%%IncludeResource: font Symbol
/Symbol findfont
dup length dict begin
  {1 index /FID ne {def} {pop pop} ifelse} forall
  currentdict
  end
/Font5 exch definefont pop
%%EndProlog
%%Page: 1 1
bp
67.20 194.14 552.08 659.74 cl
0 0 0 srgb
2.25 setlinewidth
[] 0 setdash
0 setlinecap
1 setlinejoin
10.00 setmiterlimit
np
118.83 436.83 m
44.90 0 l
o
0.75 setlinewidth
[ 2.25 3.75] 0 setdash
1 setlinecap
np
141.28 360.41 m
0 49.03 l
o
np
141.28 535.91 m
0 -75.19 l
o
0.75 setlinewidth
[] 0 setdash
np
118.83 360.41 m
44.90 0 l
o
np
118.83 535.91 m
44.90 0 l
o
np
96.38 409.44 m
89.79 0 l
0 9.27 l
-22.44 18.12 l
22.44 18.12 l
0 5.77 l
-89.79 0 l
0 -5.77 l
22.45 -18.12 l
-22.45 -18.12 l
0 -9.27 l
o
141.28 332.14 2.25 c p1
2.25 setlinewidth
[] 0 setdash
0 setlinecap
np
231.07 559.20 m
44.90 0 l
o
0.75 setlinewidth
[ 2.25 3.75] 0 setdash
1 setlinecap
np
253.52 479.24 m
0 28.96 l
o
np
253.52 642.50 m
0 -67.19 l
o
0.75 setlinewidth
[] 0 setdash
np
231.07 479.24 m
44.90 0 l
o
np
231.07 642.50 m
44.90 0 l
o
np
208.62 508.20 m
89.79 0 l
0 27.29 l
-22.44 23.71 l
22.44 23.71 l
0 -7.60 l
-89.79 0 l
0 7.60 l
22.45 -23.71 l
-22.45 -23.71 l
0 -27.29 l
o
2.25 setlinewidth
[] 0 setdash
0 setlinecap
np
343.31 283.52 m
44.90 0 l
o
0.75 setlinewidth
[ 2.25 3.75] 0 setdash
1 setlinecap
np
365.76 211.39 m
0 52.27 l
o
np
365.76 337.75 m
0 -35.81 l
o
0.75 setlinewidth
[] 0 setdash
np
343.31 211.39 m
44.90 0 l
o
np
343.31 337.75 m
44.90 0 l
o
np
320.86 263.66 m
89.79 0 l
0 6.34 l
-22.44 13.52 l
22.44 13.53 l
0 4.89 l
-89.79 0 l
0 -4.89 l
22.45 -13.53 l
-22.45 -13.52 l
0 -6.34 l
o
2.25 setlinewidth
[] 0 setdash
0 setlinecap
np
455.55 258.27 m
44.90 0 l
o
0.75 setlinewidth
[ 2.25 3.75] 0 setdash
1 setlinecap
np
478.00 213.64 m
0 33.45 l
o
np
478.00 296.03 m
0 -18.05 l
o
0.75 setlinewidth
[] 0 setdash
np
455.55 213.64 m
44.90 0 l
o
np
455.55 296.03 m
44.90 0 l
o
np
433.10 247.09 m
89.79 0 l
0 0.26 l
-22.44 10.92 l
22.44 10.92 l
0 8.79 l
-89.79 0 l
0 -8.79 l
22.45 -10.92 l
-22.45 -10.92 l
0 -0.26 l
o
18.00 132.94 577.28 708.94 cl
0 0 0 srgb
0.75 setlinewidth
[] 0 setdash
1 setlinecap
1 setlinejoin
10.00 setmiterlimit
np
141.28 194.14 m
336.72 0 l
o
np
141.28 194.14 m
0 -6.00 l
o
np
253.52 194.14 m
0 -6.00 l
o
np
365.76 194.14 m
0 -6.00 l
o
np
478.00 194.14 m
0 -6.00 l
o
/Font1 findfont 10 s
141.28 172.54 (NSGAII) .5 0 t
253.52 172.54 (MOEAD) .5 0 t
365.76 172.54 (MOCELL) .5 0 t
464.66 172.54 (P) 0 ta
-1.200 (AES) tb gr
np
67.20 229.92 m
0 426.88 l
o
np
67.20 229.92 m
-6.00 0 l
o
np
67.20 290.91 m
-6.00 0 l
o
np
67.20 351.89 m
-6.00 0 l
o
np
67.20 412.87 m
-6.00 0 l
o
np
67.20 473.85 m
-6.00 0 l
o
np
67.20 534.83 m
-6.00 0 l
o
np
67.20 595.82 m
-6.00 0 l
o
np
67.20 656.80 m
-6.00 0 l
o
52.80 229.92 (0.35) .5 90 t
52.80 290.91 (0.40) .5 90 t
52.80 351.89 (0.45) .5 90 t
52.80 412.87 (0.50) .5 90 t
52.80 473.85 (0.55) .5 90 t
52.80 534.83 (0.60) .5 90 t
52.80 595.82 (0.65) .5 90 t
52.80 656.80 (0.70) .5 90 t
np
67.20 194.14 m
484.88 0 l
0 465.60 l
-484.88 0 l
0 -465.60 l
o
18.00 132.94 577.28 708.94 cl
/Font2 findfont 12 s
0 0 0 srgb
264.30 680.04 (HV) 0 ta
-0.480 (:euc) tb
-0.240 (lABC300) tb gr
ep
%%Trailer
%%Pages: 1
%%EOF
