%!PS-Adobe-3.0 EPSF-3.0
%%DocumentNeededResources: font Helvetica
%%+ font Helvetica-Bold
%%+ font Helvetica-Oblique
%%+ font Helvetica-BoldOblique
%%+ font Symbol
%%Title: R Graphics Output
%%Creator: R Software
%%Pages: (atend)
%%BoundingBox: 18 133 577 709
%%EndComments
%%BeginProlog
/bp  { gs sRGB gs } def
% begin .ps.prolog
/gs  { gsave } bind def
/gr  { grestore } bind def
/ep  { showpage gr gr } bind def
/m   { moveto } bind def
/l  { rlineto } bind def
/np  { newpath } bind def
/cp  { closepath } bind def
/f   { fill } bind def
/o   { stroke } bind def
/c   { newpath 0 360 arc } bind def
/r   { 4 2 roll moveto 1 copy 3 -1 roll exch 0 exch rlineto 0 rlineto -1 mul 0 exch rlineto closepath } bind def
/p1  { stroke } bind def
/p2  { gsave bg fill grestore newpath } bind def
/p3  { gsave bg fill grestore stroke } bind def
/p6  { gsave bg eofill grestore newpath } bind def
/p7  { gsave bg eofill grestore stroke } bind def
/t   { 5 -2 roll moveto gsave rotate
       1 index stringwidth pop
       mul neg 0 rmoveto show grestore } bind def
/ta  { 4 -2 roll moveto gsave rotate show } bind def
/tb  { 2 -1 roll 0 rmoveto show } bind def
/cl  { grestore gsave newpath 3 index 3 index moveto 1 index
       4 -1 roll lineto  exch 1 index lineto lineto
       closepath clip newpath } bind def
/rgb { setrgbcolor } bind def
/s   { scalefont setfont } bind def
% end   .ps.prolog
/sRGB { [ /CIEBasedABC
          << /DecodeLMN
               [ { dup 0.03928 le
                        {12.92321 div}
                        {0.055 add 1.055 div 2.4 exp }
                     ifelse
                 } bind dup dup
               ]
             /MatrixLMN [0.412457 0.212673 0.019334
                         0.357576 0.715152 0.119192
                         0.180437 0.072175 0.950301]
             /WhitePoint [0.9505 1.0 1.0890]
           >>
         ] setcolorspace } bind def
/srgb { setcolor } bind def
%%IncludeResource: font Helvetica
/Helvetica findfont
dup length dict begin
  {1 index /FID ne {def} {pop pop} ifelse} forall
  /Encoding ISOLatin1Encoding def
  currentdict
  end
/Font1 exch definefont pop
%%IncludeResource: font Helvetica-Bold
/Helvetica-Bold findfont
dup length dict begin
  {1 index /FID ne {def} {pop pop} ifelse} forall
  /Encoding ISOLatin1Encoding def
  currentdict
  end
/Font2 exch definefont pop
%%IncludeResource: font Helvetica-Oblique
/Helvetica-Oblique findfont
dup length dict begin
  {1 index /FID ne {def} {pop pop} ifelse} forall
  /Encoding ISOLatin1Encoding def
  currentdict
  end
/Font3 exch definefont pop
%%IncludeResource: font Helvetica-BoldOblique
/Helvetica-BoldOblique findfont
dup length dict begin
  {1 index /FID ne {def} {pop pop} ifelse} forall
  /Encoding ISOLatin1Encoding def
  currentdict
  end
/Font4 exch definefont pop
%%IncludeResource: font Symbol
/Symbol findfont
dup length dict begin
  {1 index /FID ne {def} {pop pop} ifelse} forall
  currentdict
  end
/Font5 exch definefont pop
%%EndProlog
%%Page: 1 1
bp
67.20 194.14 552.08 659.74 cl
0 0 0 srgb
2.25 setlinewidth
[] 0 setdash
0 setlinecap
1 setlinejoin
10.00 setmiterlimit
np
118.83 583.58 m
44.90 0 l
o
0.75 setlinewidth
[ 2.25 3.75] 0 setdash
1 setlinecap
np
141.28 560.23 m
0 12.55 l
o
np
141.28 630.03 m
0 -30.42 l
o
0.75 setlinewidth
[] 0 setdash
np
118.83 560.23 m
44.90 0 l
o
np
118.83 630.03 m
44.90 0 l
o
np
96.38 572.78 m
89.79 0 l
0 1.32 l
-22.44 9.48 l
22.44 9.48 l
0 6.55 l
-89.79 0 l
0 -6.55 l
22.45 -9.48 l
-22.45 -9.48 l
0 -1.32 l
o
141.28 530.47 2.25 c p1
141.28 642.50 2.25 c p1
2.25 setlinewidth
[] 0 setdash
0 setlinecap
np
231.07 608.23 m
44.90 0 l
o
0.75 setlinewidth
[ 2.25 3.75] 0 setdash
1 setlinecap
np
253.52 575.22 m
0 10.92 l
o
np
253.52 636.98 m
0 -10.35 l
o
0.75 setlinewidth
[] 0 setdash
np
231.07 575.22 m
44.90 0 l
o
np
231.07 636.98 m
44.90 0 l
o
np
208.62 586.14 m
89.79 0 l
0 7.78 l
-22.44 14.31 l
22.44 14.30 l
0 4.10 l
-89.79 0 l
0 -4.10 l
22.45 -14.30 l
-22.45 -14.31 l
0 -7.78 l
o
2.25 setlinewidth
[] 0 setdash
0 setlinecap
np
343.31 500.18 m
44.90 0 l
o
0.75 setlinewidth
[ 2.25 3.75] 0 setdash
1 setlinecap
np
365.76 465.94 m
0 13.35 l
o
np
365.76 536.88 m
0 -17.25 l
o
0.75 setlinewidth
[] 0 setdash
np
343.31 465.94 m
44.90 0 l
o
np
343.31 536.88 m
44.90 0 l
o
np
320.86 479.29 m
89.79 0 l
0 6.63 l
-22.44 14.26 l
22.44 14.25 l
0 5.20 l
-89.79 0 l
0 -5.20 l
22.45 -14.25 l
-22.45 -14.26 l
0 -6.63 l
o
2.25 setlinewidth
[] 0 setdash
0 setlinecap
np
455.55 243.24 m
44.90 0 l
o
0.75 setlinewidth
[ 2.25 3.75] 0 setdash
1 setlinecap
np
478.00 222.66 m
0 13.39 l
o
np
478.00 272.67 m
0 -21.38 l
o
0.75 setlinewidth
[] 0 setdash
np
455.55 222.66 m
44.90 0 l
o
np
455.55 272.67 m
44.90 0 l
o
np
433.10 236.05 m
89.79 0 l
0 1.81 l
-22.44 5.38 l
22.44 5.38 l
0 2.67 l
-89.79 0 l
0 -2.67 l
22.45 -5.38 l
-22.45 -5.38 l
0 -1.81 l
o
478.00 211.39 2.25 c p1
478.00 275.76 2.25 c p1
18.00 132.94 577.28 708.94 cl
0 0 0 srgb
0.75 setlinewidth
[] 0 setdash
1 setlinecap
1 setlinejoin
10.00 setmiterlimit
np
141.28 194.14 m
336.72 0 l
o
np
141.28 194.14 m
0 -6.00 l
o
np
253.52 194.14 m
0 -6.00 l
o
np
365.76 194.14 m
0 -6.00 l
o
np
478.00 194.14 m
0 -6.00 l
o
/Font1 findfont 10 s
141.28 172.54 (NSGAII) .5 0 t
253.52 172.54 (MOEAD) .5 0 t
365.76 172.54 (MOCELL) .5 0 t
464.66 172.54 (P) 0 ta
-1.200 (AES) tb gr
np
67.20 224.67 m
0 364.39 l
o
np
67.20 224.67 m
-6.00 0 l
o
np
67.20 315.77 m
-6.00 0 l
o
np
67.20 406.86 m
-6.00 0 l
o
np
67.20 497.96 m
-6.00 0 l
o
np
67.20 589.06 m
-6.00 0 l
o
52.80 224.67 (0.2) .5 90 t
52.80 315.77 (0.3) .5 90 t
52.80 406.86 (0.4) .5 90 t
52.80 497.96 (0.5) .5 90 t
52.80 589.06 (0.6) .5 90 t
np
67.20 194.14 m
484.88 0 l
0 465.60 l
-484.88 0 l
0 -465.60 l
o
18.00 132.94 577.28 708.94 cl
/Font2 findfont 12 s
0 0 0 srgb
266.97 680.04 (HV) 0 ta
-0.480 (:kr) tb
-0.240 (oABD100) tb gr
ep
%%Trailer
%%Pages: 1
%%EOF
