MOEAD 		euclDEF100		run11		165362
MOEAD 		euclDEF100		run16		167005
MOEAD 		euclDEF100		run19		168659
MOEAD 		euclDEF100		run6		171918
NSGAII 		euclDEF100		run13		229121
NSGAII 		euclDEF100		run18		232496
MOCELL 		euclDEF100		run17		341143
MOEAD 		euclDEF100		run13		160284
MOEAD 		euclDEF100		run18		158733
PAES 		euclDEF100		run17		60269
PAES 		euclDEF100		run18		52744
MOCELL 		euclDEF100		run6		335928
MOCELL 		euclDEF100		run16		374530
MOCELL 		euclDEF100		run11		380598
MOCELL 		euclDEF100		run19		388182
PAES 		euclDEF100		run6		56679
PAES 		euclDEF100		run16		55743
PAES 		euclDEF100		run11		56576
PAES 		euclDEF100		run19		55337
NSGAII 		euclDEF100		run19		230062
MOCELL 		euclDEF100		run18		367191
MOCELL 		euclDEF100		run13		380438
NSGAII 		euclDEF100		run7		228045
NSGAII 		euclDEF100		run17		227568
NSGAII 		euclDEF100		run12		230898
NSGAII 		euclDEF100		run3		227069
MOEAD 		euclDEF100		run1		162312
MOEAD 		euclDEF100		run14		172911
MOEAD 		euclDEF100		run7		172898
MOEAD 		euclDEF100		run17		172994
MOEAD 		euclDEF100		run12		175145
MOEAD 		euclDEF100		run3		171012
MOCELL 		euclDEF100		run12		371153
PAES 		euclDEF100		run12		56023
MOCELL 		euclDEF100		run1		366068
PAES 		euclDEF100		run1		48367
MOCELL 		euclDEF100		run3		297043
MOCELL 		euclDEF100		run5		351411
MOCELL 		euclDEF100		run14		387526
MOCELL 		euclDEF100		run15		349968
PAES 		euclDEF100		run5		47775
PAES 		euclDEF100		run14		48384
MOCELL 		euclDEF100		run10		370524
PAES 		euclDEF100		run15		47483
PAES 		euclDEF100		run13		47747
PAES 		euclDEF100		run10		47793
NSGAII 		euclDEF100		run2		200306
NSGAII 		euclDEF100		run6		195077
NSGAII 		euclDEF100		run16		195339
MOEAD 		euclDEF100		run2		132951
MOCELL 		euclDEF100		run2		301292
NSGAII 		euclDEF100		run14		195395
NSGAII 		euclDEF100		run11		195752
PAES 		euclDEF100		run2		47781
PAES 		euclDEF100		run8		47750
NSGAII 		euclDEF100		run5		201961
NSGAII 		euclDEF100		run15		196025
MOEAD 		euclDEF100		run4		135097
NSGAII 		euclDEF100		run10		194493
NSGAII 		euclDEF100		run9		194825
MOEAD 		euclDEF100		run5		143562
MOCELL 		euclDEF100		run0		318831
MOEAD 		euclDEF100		run15		144968
PAES 		euclDEF100		run0		47601
MOEAD 		euclDEF100		run10		143706
PAES 		euclDEF100		run3		47912
MOEAD 		euclDEF100		run9		142569
NSGAII 		euclDEF100		run8		199014
MOCELL 		euclDEF100		run4		320584
NSGAII 		euclDEF100		run1		199283
PAES 		euclDEF100		run4		47953
NSGAII 		euclDEF100		run4		198193
MOEAD 		euclDEF100		run8		131883
MOCELL 		euclDEF100		run7		289046
PAES 		euclDEF100		run7		46245
MOCELL 		euclDEF100		run9		307375
PAES 		euclDEF100		run9		45397
NSGAII 		euclDEF100		run0		195426
MOEAD 		euclDEF100		run0		126499
MOCELL 		euclDEF100		run8		278305
