%!PS-Adobe-3.0 EPSF-3.0
%%DocumentNeededResources: font Helvetica
%%+ font Helvetica-Bold
%%+ font Helvetica-Oblique
%%+ font Helvetica-BoldOblique
%%+ font Symbol
%%Title: R Graphics Output
%%Creator: R Software
%%Pages: (atend)
%%BoundingBox: 18 133 577 709
%%EndComments
%%BeginProlog
/bp  { gs sRGB gs } def
% begin .ps.prolog
/gs  { gsave } bind def
/gr  { grestore } bind def
/ep  { showpage gr gr } bind def
/m   { moveto } bind def
/l  { rlineto } bind def
/np  { newpath } bind def
/cp  { closepath } bind def
/f   { fill } bind def
/o   { stroke } bind def
/c   { newpath 0 360 arc } bind def
/r   { 4 2 roll moveto 1 copy 3 -1 roll exch 0 exch rlineto 0 rlineto -1 mul 0 exch rlineto closepath } bind def
/p1  { stroke } bind def
/p2  { gsave bg fill grestore newpath } bind def
/p3  { gsave bg fill grestore stroke } bind def
/p6  { gsave bg eofill grestore newpath } bind def
/p7  { gsave bg eofill grestore stroke } bind def
/t   { 5 -2 roll moveto gsave rotate
       1 index stringwidth pop
       mul neg 0 rmoveto show grestore } bind def
/ta  { 4 -2 roll moveto gsave rotate show } bind def
/tb  { 2 -1 roll 0 rmoveto show } bind def
/cl  { grestore gsave newpath 3 index 3 index moveto 1 index
       4 -1 roll lineto  exch 1 index lineto lineto
       closepath clip newpath } bind def
/rgb { setrgbcolor } bind def
/s   { scalefont setfont } bind def
% end   .ps.prolog
/sRGB { [ /CIEBasedABC
          << /DecodeLMN
               [ { dup 0.03928 le
                        {12.92321 div}
                        {0.055 add 1.055 div 2.4 exp }
                     ifelse
                 } bind dup dup
               ]
             /MatrixLMN [0.412457 0.212673 0.019334
                         0.357576 0.715152 0.119192
                         0.180437 0.072175 0.950301]
             /WhitePoint [0.9505 1.0 1.0890]
           >>
         ] setcolorspace } bind def
/srgb { setcolor } bind def
%%IncludeResource: font Helvetica
/Helvetica findfont
dup length dict begin
  {1 index /FID ne {def} {pop pop} ifelse} forall
  /Encoding ISOLatin1Encoding def
  currentdict
  end
/Font1 exch definefont pop
%%IncludeResource: font Helvetica-Bold
/Helvetica-Bold findfont
dup length dict begin
  {1 index /FID ne {def} {pop pop} ifelse} forall
  /Encoding ISOLatin1Encoding def
  currentdict
  end
/Font2 exch definefont pop
%%IncludeResource: font Helvetica-Oblique
/Helvetica-Oblique findfont
dup length dict begin
  {1 index /FID ne {def} {pop pop} ifelse} forall
  /Encoding ISOLatin1Encoding def
  currentdict
  end
/Font3 exch definefont pop
%%IncludeResource: font Helvetica-BoldOblique
/Helvetica-BoldOblique findfont
dup length dict begin
  {1 index /FID ne {def} {pop pop} ifelse} forall
  /Encoding ISOLatin1Encoding def
  currentdict
  end
/Font4 exch definefont pop
%%IncludeResource: font Symbol
/Symbol findfont
dup length dict begin
  {1 index /FID ne {def} {pop pop} ifelse} forall
  currentdict
  end
/Font5 exch definefont pop
%%EndProlog
%%Page: 1 1
bp
67.20 194.14 552.08 659.74 cl
0 0 0 srgb
2.25 setlinewidth
[] 0 setdash
0 setlinecap
1 setlinejoin
10.00 setmiterlimit
np
118.83 482.89 m
44.90 0 l
o
0.75 setlinewidth
[ 2.25 3.75] 0 setdash
1 setlinecap
np
141.28 406.74 m
0 41.07 l
o
np
141.28 560.08 m
0 -31.95 l
o
0.75 setlinewidth
[] 0 setdash
np
118.83 406.74 m
44.90 0 l
o
np
118.83 560.08 m
44.90 0 l
o
np
96.38 447.81 m
89.79 0 l
0 6.70 l
-22.44 28.38 l
22.44 28.37 l
0 16.87 l
-89.79 0 l
0 -16.87 l
22.45 -28.37 l
-22.45 -28.38 l
0 -6.70 l
o
2.25 setlinewidth
[] 0 setdash
0 setlinecap
np
231.07 565.61 m
44.90 0 l
o
0.75 setlinewidth
[ 2.25 3.75] 0 setdash
1 setlinecap
np
253.52 487.15 m
0 52.49 l
o
np
253.52 642.50 m
0 -57.88 l
o
0.75 setlinewidth
[] 0 setdash
np
231.07 487.15 m
44.90 0 l
o
np
231.07 642.50 m
44.90 0 l
o
np
208.62 539.64 m
89.79 0 l
0 10.08 l
-22.44 15.89 l
22.44 15.89 l
0 3.12 l
-89.79 0 l
0 -3.12 l
22.45 -15.89 l
-22.45 -15.89 l
0 -10.08 l
o
253.52 452.21 2.25 c p1
253.52 459.88 2.25 c p1
2.25 setlinewidth
[] 0 setdash
0 setlinecap
np
343.31 464.00 m
44.90 0 l
o
0.75 setlinewidth
[ 2.25 3.75] 0 setdash
1 setlinecap
np
365.76 370.01 m
0 55.05 l
o
np
365.76 600.97 m
0 -97.62 l
o
0.75 setlinewidth
[] 0 setdash
np
343.31 370.01 m
44.90 0 l
o
np
343.31 600.97 m
44.90 0 l
o
np
320.86 425.06 m
89.79 0 l
0 11.29 l
-22.44 27.65 l
22.44 27.66 l
0 11.69 l
-89.79 0 l
0 -11.69 l
22.45 -27.66 l
-22.45 -27.65 l
0 -11.29 l
o
2.25 setlinewidth
[] 0 setdash
0 setlinecap
np
455.55 253.28 m
44.90 0 l
o
0.75 setlinewidth
[ 2.25 3.75] 0 setdash
1 setlinecap
np
478.00 211.39 m
0 15.11 l
o
np
478.00 342.69 m
0 -62.84 l
o
0.75 setlinewidth
[] 0 setdash
np
455.55 211.39 m
44.90 0 l
o
np
455.55 342.69 m
44.90 0 l
o
np
433.10 226.50 m
89.79 0 l
0 7.93 l
-22.44 18.85 l
22.44 18.85 l
0 7.72 l
-89.79 0 l
0 -7.72 l
22.45 -18.85 l
-22.45 -18.85 l
0 -7.93 l
o
18.00 132.94 577.28 708.94 cl
0 0 0 srgb
0.75 setlinewidth
[] 0 setdash
1 setlinecap
1 setlinejoin
10.00 setmiterlimit
np
141.28 194.14 m
336.72 0 l
o
np
141.28 194.14 m
0 -6.00 l
o
np
253.52 194.14 m
0 -6.00 l
o
np
365.76 194.14 m
0 -6.00 l
o
np
478.00 194.14 m
0 -6.00 l
o
/Font1 findfont 10 s
141.28 172.54 (NSGAII) .5 0 t
253.52 172.54 (MOEAD) .5 0 t
365.76 172.54 (MOCELL) .5 0 t
464.66 172.54 (P) 0 ta
-1.200 (AES) tb gr
np
67.20 232.19 m
0 365.28 l
o
np
67.20 232.19 m
-6.00 0 l
o
np
67.20 323.51 m
-6.00 0 l
o
np
67.20 414.83 m
-6.00 0 l
o
np
67.20 506.15 m
-6.00 0 l
o
np
67.20 597.47 m
-6.00 0 l
o
52.80 232.19 (0.60) .5 90 t
52.80 323.51 (0.65) .5 90 t
52.80 414.83 (0.70) .5 90 t
52.80 506.15 (0.75) .5 90 t
52.80 597.47 (0.80) .5 90 t
np
67.20 194.14 m
484.88 0 l
0 465.60 l
-484.88 0 l
0 -465.60 l
o
18.00 132.94 577.28 708.94 cl
/Font2 findfont 12 s
0 0 0 srgb
271.30 680.04 (HV) 0 ta
-0.480 (:kr) tb
-0.240 (oAB400) tb gr
ep
%%Trailer
%%Pages: 1
%%EOF
