%!PS-Adobe-3.0 EPSF-3.0
%%DocumentNeededResources: font Helvetica
%%+ font Helvetica-Bold
%%+ font Helvetica-Oblique
%%+ font Helvetica-BoldOblique
%%+ font Symbol
%%Title: R Graphics Output
%%Creator: R Software
%%Pages: (atend)
%%BoundingBox: 18 133 577 709
%%EndComments
%%BeginProlog
/bp  { gs sRGB gs } def
% begin .ps.prolog
/gs  { gsave } bind def
/gr  { grestore } bind def
/ep  { showpage gr gr } bind def
/m   { moveto } bind def
/l  { rlineto } bind def
/np  { newpath } bind def
/cp  { closepath } bind def
/f   { fill } bind def
/o   { stroke } bind def
/c   { newpath 0 360 arc } bind def
/r   { 4 2 roll moveto 1 copy 3 -1 roll exch 0 exch rlineto 0 rlineto -1 mul 0 exch rlineto closepath } bind def
/p1  { stroke } bind def
/p2  { gsave bg fill grestore newpath } bind def
/p3  { gsave bg fill grestore stroke } bind def
/p6  { gsave bg eofill grestore newpath } bind def
/p7  { gsave bg eofill grestore stroke } bind def
/t   { 5 -2 roll moveto gsave rotate
       1 index stringwidth pop
       mul neg 0 rmoveto show grestore } bind def
/ta  { 4 -2 roll moveto gsave rotate show } bind def
/tb  { 2 -1 roll 0 rmoveto show } bind def
/cl  { grestore gsave newpath 3 index 3 index moveto 1 index
       4 -1 roll lineto  exch 1 index lineto lineto
       closepath clip newpath } bind def
/rgb { setrgbcolor } bind def
/s   { scalefont setfont } bind def
% end   .ps.prolog
/sRGB { [ /CIEBasedABC
          << /DecodeLMN
               [ { dup 0.03928 le
                        {12.92321 div}
                        {0.055 add 1.055 div 2.4 exp }
                     ifelse
                 } bind dup dup
               ]
             /MatrixLMN [0.412457 0.212673 0.019334
                         0.357576 0.715152 0.119192
                         0.180437 0.072175 0.950301]
             /WhitePoint [0.9505 1.0 1.0890]
           >>
         ] setcolorspace } bind def
/srgb { setcolor } bind def
%%IncludeResource: font Helvetica
/Helvetica findfont
dup length dict begin
  {1 index /FID ne {def} {pop pop} ifelse} forall
  /Encoding ISOLatin1Encoding def
  currentdict
  end
/Font1 exch definefont pop
%%IncludeResource: font Helvetica-Bold
/Helvetica-Bold findfont
dup length dict begin
  {1 index /FID ne {def} {pop pop} ifelse} forall
  /Encoding ISOLatin1Encoding def
  currentdict
  end
/Font2 exch definefont pop
%%IncludeResource: font Helvetica-Oblique
/Helvetica-Oblique findfont
dup length dict begin
  {1 index /FID ne {def} {pop pop} ifelse} forall
  /Encoding ISOLatin1Encoding def
  currentdict
  end
/Font3 exch definefont pop
%%IncludeResource: font Helvetica-BoldOblique
/Helvetica-BoldOblique findfont
dup length dict begin
  {1 index /FID ne {def} {pop pop} ifelse} forall
  /Encoding ISOLatin1Encoding def
  currentdict
  end
/Font4 exch definefont pop
%%IncludeResource: font Symbol
/Symbol findfont
dup length dict begin
  {1 index /FID ne {def} {pop pop} ifelse} forall
  currentdict
  end
/Font5 exch definefont pop
%%EndProlog
%%Page: 1 1
bp
67.20 194.14 552.08 659.74 cl
0 0 0 srgb
2.25 setlinewidth
[] 0 setdash
0 setlinecap
1 setlinejoin
10.00 setmiterlimit
np
118.83 520.12 m
44.90 0 l
o
0.75 setlinewidth
[ 2.25 3.75] 0 setdash
1 setlinecap
np
141.28 461.57 m
0 30.52 l
o
np
141.28 584.59 m
0 -32.77 l
o
0.75 setlinewidth
[] 0 setdash
np
118.83 461.57 m
44.90 0 l
o
np
118.83 584.59 m
44.90 0 l
o
np
96.38 492.09 m
89.79 0 l
0 6.92 l
-22.44 21.11 l
22.44 21.10 l
0 10.60 l
-89.79 0 l
0 -10.60 l
22.45 -21.10 l
-22.45 -21.11 l
0 -6.92 l
o
141.28 642.50 2.25 c p1
2.25 setlinewidth
[] 0 setdash
0 setlinecap
np
231.07 546.28 m
44.90 0 l
o
0.75 setlinewidth
[ 2.25 3.75] 0 setdash
1 setlinecap
np
253.52 502.95 m
0 31.69 l
o
np
253.52 621.80 m
0 -49.64 l
o
0.75 setlinewidth
[] 0 setdash
np
231.07 502.95 m
44.90 0 l
o
np
231.07 621.80 m
44.90 0 l
o
np
208.62 534.64 m
89.79 0 l
0 -1.62 l
-22.44 13.26 l
22.44 13.26 l
0 12.62 l
-89.79 0 l
0 -12.62 l
22.45 -13.26 l
-22.45 -13.26 l
0 1.62 l
o
2.25 setlinewidth
[] 0 setdash
0 setlinecap
np
343.31 389.76 m
44.90 0 l
o
0.75 setlinewidth
[ 2.25 3.75] 0 setdash
1 setlinecap
np
365.76 330.44 m
0 36.55 l
o
np
365.76 499.33 m
0 -44.81 l
o
0.75 setlinewidth
[] 0 setdash
np
343.31 330.44 m
44.90 0 l
o
np
343.31 499.33 m
44.90 0 l
o
np
320.86 366.99 m
89.79 0 l
0 -8.15 l
-22.44 30.92 l
22.44 30.92 l
0 33.84 l
-89.79 0 l
0 -33.84 l
22.45 -30.92 l
-22.45 -30.92 l
0 8.15 l
o
2.25 setlinewidth
[] 0 setdash
0 setlinecap
np
455.55 281.22 m
44.90 0 l
o
0.75 setlinewidth
[ 2.25 3.75] 0 setdash
1 setlinecap
np
478.00 211.39 m
0 41.18 l
o
np
478.00 353.07 m
0 -42.35 l
o
0.75 setlinewidth
[] 0 setdash
np
455.55 211.39 m
44.90 0 l
o
np
455.55 353.07 m
44.90 0 l
o
np
433.10 252.57 m
89.79 0 l
0 8.10 l
-22.44 20.55 l
22.44 20.54 l
0 8.96 l
-89.79 0 l
0 -8.96 l
22.45 -20.54 l
-22.45 -20.55 l
0 -8.10 l
o
478.00 407.89 2.25 c p1
18.00 132.94 577.28 708.94 cl
0 0 0 srgb
0.75 setlinewidth
[] 0 setdash
1 setlinecap
1 setlinejoin
10.00 setmiterlimit
np
141.28 194.14 m
336.72 0 l
o
np
141.28 194.14 m
0 -6.00 l
o
np
253.52 194.14 m
0 -6.00 l
o
np
365.76 194.14 m
0 -6.00 l
o
np
478.00 194.14 m
0 -6.00 l
o
/Font1 findfont 10 s
141.28 172.54 (NSGAII) .5 0 t
253.52 172.54 (MOEAD) .5 0 t
365.76 172.54 (MOCELL) .5 0 t
464.66 172.54 (P) 0 ta
-1.200 (AES) tb gr
np
67.20 271.18 m
0 377.34 l
o
np
67.20 271.18 m
-6.00 0 l
o
np
67.20 365.52 m
-6.00 0 l
o
np
67.20 459.85 m
-6.00 0 l
o
np
67.20 554.19 m
-6.00 0 l
o
np
67.20 648.52 m
-6.00 0 l
o
52.80 271.18 (0.65) .5 90 t
52.80 365.52 (0.70) .5 90 t
52.80 459.85 (0.75) .5 90 t
52.80 554.19 (0.80) .5 90 t
52.80 648.52 (0.85) .5 90 t
np
67.20 194.14 m
484.88 0 l
0 465.60 l
-484.88 0 l
0 -465.60 l
o
18.00 132.94 577.28 708.94 cl
/Font2 findfont 12 s
0 0 0 srgb
268.63 680.04 (HV) 0 ta
-0.480 (:c) tb
-0.240 (lusAB500) tb gr
ep
%%Trailer
%%Pages: 1
%%EOF
