%!PS-Adobe-3.0 EPSF-3.0
%%DocumentNeededResources: font Helvetica
%%+ font Helvetica-Bold
%%+ font Helvetica-Oblique
%%+ font Helvetica-BoldOblique
%%+ font Symbol
%%Title: R Graphics Output
%%Creator: R Software
%%Pages: (atend)
%%BoundingBox: 18 133 577 709
%%EndComments
%%BeginProlog
/bp  { gs sRGB gs } def
% begin .ps.prolog
/gs  { gsave } bind def
/gr  { grestore } bind def
/ep  { showpage gr gr } bind def
/m   { moveto } bind def
/l  { rlineto } bind def
/np  { newpath } bind def
/cp  { closepath } bind def
/f   { fill } bind def
/o   { stroke } bind def
/c   { newpath 0 360 arc } bind def
/r   { 4 2 roll moveto 1 copy 3 -1 roll exch 0 exch rlineto 0 rlineto -1 mul 0 exch rlineto closepath } bind def
/p1  { stroke } bind def
/p2  { gsave bg fill grestore newpath } bind def
/p3  { gsave bg fill grestore stroke } bind def
/p6  { gsave bg eofill grestore newpath } bind def
/p7  { gsave bg eofill grestore stroke } bind def
/t   { 5 -2 roll moveto gsave rotate
       1 index stringwidth pop
       mul neg 0 rmoveto show grestore } bind def
/ta  { 4 -2 roll moveto gsave rotate show } bind def
/tb  { 2 -1 roll 0 rmoveto show } bind def
/cl  { grestore gsave newpath 3 index 3 index moveto 1 index
       4 -1 roll lineto  exch 1 index lineto lineto
       closepath clip newpath } bind def
/rgb { setrgbcolor } bind def
/s   { scalefont setfont } bind def
% end   .ps.prolog
/sRGB { [ /CIEBasedABC
          << /DecodeLMN
               [ { dup 0.03928 le
                        {12.92321 div}
                        {0.055 add 1.055 div 2.4 exp }
                     ifelse
                 } bind dup dup
               ]
             /MatrixLMN [0.412457 0.212673 0.019334
                         0.357576 0.715152 0.119192
                         0.180437 0.072175 0.950301]
             /WhitePoint [0.9505 1.0 1.0890]
           >>
         ] setcolorspace } bind def
/srgb { setcolor } bind def
%%IncludeResource: font Helvetica
/Helvetica findfont
dup length dict begin
  {1 index /FID ne {def} {pop pop} ifelse} forall
  /Encoding ISOLatin1Encoding def
  currentdict
  end
/Font1 exch definefont pop
%%IncludeResource: font Helvetica-Bold
/Helvetica-Bold findfont
dup length dict begin
  {1 index /FID ne {def} {pop pop} ifelse} forall
  /Encoding ISOLatin1Encoding def
  currentdict
  end
/Font2 exch definefont pop
%%IncludeResource: font Helvetica-Oblique
/Helvetica-Oblique findfont
dup length dict begin
  {1 index /FID ne {def} {pop pop} ifelse} forall
  /Encoding ISOLatin1Encoding def
  currentdict
  end
/Font3 exch definefont pop
%%IncludeResource: font Helvetica-BoldOblique
/Helvetica-BoldOblique findfont
dup length dict begin
  {1 index /FID ne {def} {pop pop} ifelse} forall
  /Encoding ISOLatin1Encoding def
  currentdict
  end
/Font4 exch definefont pop
%%IncludeResource: font Symbol
/Symbol findfont
dup length dict begin
  {1 index /FID ne {def} {pop pop} ifelse} forall
  currentdict
  end
/Font5 exch definefont pop
%%EndProlog
%%Page: 1 1
bp
67.20 194.14 552.08 659.74 cl
0 0 0 srgb
2.25 setlinewidth
[] 0 setdash
0 setlinecap
1 setlinejoin
10.00 setmiterlimit
np
118.83 459.71 m
44.90 0 l
o
0.75 setlinewidth
[ 2.25 3.75] 0 setdash
1 setlinecap
np
141.28 377.20 m
0 45.69 l
o
np
141.28 533.00 m
0 -60.47 l
o
0.75 setlinewidth
[] 0 setdash
np
118.83 377.20 m
44.90 0 l
o
np
118.83 533.00 m
44.90 0 l
o
np
96.38 422.89 m
89.79 0 l
0 19.29 l
-22.44 17.53 l
22.44 17.54 l
0 -4.72 l
-89.79 0 l
0 4.72 l
22.45 -17.54 l
-22.45 -17.53 l
0 -19.29 l
o
2.25 setlinewidth
[] 0 setdash
0 setlinecap
np
231.07 600.48 m
44.90 0 l
o
0.75 setlinewidth
[ 2.25 3.75] 0 setdash
1 setlinecap
np
253.52 568.43 m
0 20.97 l
o
np
253.52 634.41 m
0 -24.38 l
o
0.75 setlinewidth
[] 0 setdash
np
231.07 568.43 m
44.90 0 l
o
np
231.07 634.41 m
44.90 0 l
o
np
208.62 589.40 m
89.79 0 l
0 3.80 l
-22.44 7.28 l
22.44 7.29 l
0 2.26 l
-89.79 0 l
0 -2.26 l
22.45 -7.29 l
-22.45 -7.28 l
0 -3.80 l
o
253.52 642.50 2.25 c p1
2.25 setlinewidth
[] 0 setdash
0 setlinecap
np
343.31 281.93 m
44.90 0 l
o
0.75 setlinewidth
[ 2.25 3.75] 0 setdash
1 setlinecap
np
365.76 211.39 m
0 60.72 l
o
np
365.76 367.96 m
0 -50.60 l
o
0.75 setlinewidth
[] 0 setdash
np
343.31 211.39 m
44.90 0 l
o
np
343.31 367.96 m
44.90 0 l
o
np
320.86 272.11 m
89.79 0 l
0 -6.16 l
-22.44 15.98 l
22.44 15.99 l
0 19.44 l
-89.79 0 l
0 -19.44 l
22.45 -15.99 l
-22.45 -15.98 l
0 6.16 l
o
2.25 setlinewidth
[] 0 setdash
0 setlinecap
np
455.55 448.25 m
44.90 0 l
o
0.75 setlinewidth
[ 2.25 3.75] 0 setdash
1 setlinecap
np
478.00 417.13 m
0 14.94 l
o
np
478.00 476.45 m
0 -20.74 l
o
0.75 setlinewidth
[] 0 setdash
np
455.55 417.13 m
44.90 0 l
o
np
455.55 476.45 m
44.90 0 l
o
np
433.10 432.07 m
89.79 0 l
0 7.83 l
-22.44 8.35 l
22.44 8.35 l
0 -0.89 l
-89.79 0 l
0 0.89 l
22.45 -8.35 l
-22.45 -8.35 l
0 -7.83 l
o
18.00 132.94 577.28 708.94 cl
0 0 0 srgb
0.75 setlinewidth
[] 0 setdash
1 setlinecap
1 setlinejoin
10.00 setmiterlimit
np
141.28 194.14 m
336.72 0 l
o
np
141.28 194.14 m
0 -6.00 l
o
np
253.52 194.14 m
0 -6.00 l
o
np
365.76 194.14 m
0 -6.00 l
o
np
478.00 194.14 m
0 -6.00 l
o
/Font1 findfont 10 s
141.28 172.54 (NSGAII) .5 0 t
253.52 172.54 (MOEAD) .5 0 t
365.76 172.54 (MOCELL) .5 0 t
464.66 172.54 (P) 0 ta
-1.200 (AES) tb gr
np
67.20 198.55 m
0 433.06 l
o
np
67.20 198.55 m
-6.00 0 l
o
np
67.20 306.82 m
-6.00 0 l
o
np
67.20 415.08 m
-6.00 0 l
o
np
67.20 523.35 m
-6.00 0 l
o
np
67.20 631.61 m
-6.00 0 l
o
52.80 198.55 (0.2) .5 90 t
52.80 306.82 (0.3) .5 90 t
52.80 415.08 (0.4) .5 90 t
52.80 523.35 (0.5) .5 90 t
52.80 631.61 (0.6) .5 90 t
np
67.20 194.14 m
484.88 0 l
0 465.60 l
-484.88 0 l
0 -465.60 l
o
18.00 132.94 577.28 708.94 cl
/Font2 findfont 12 s
0 0 0 srgb
264.30 680.04 (HV) 0 ta
-0.480 (:euc) tb
-0.240 (lABC500) tb gr
ep
%%Trailer
%%Pages: 1
%%EOF
