<?xml version="1.0" encoding="UTF-8" standalone="no"?>
<!DOCTYPE log SYSTEM "logger.dtd">
<log>
<record>
  <date>2021-12-10T16:09:34.117102536Z</date>
  <millis>1639152574117</millis>
  <nanos>102536</nanos>
  <sequence>0</sequence>
  <logger>org.uma.jmetal.util.JMetalLogger</logger>
  <level>INFO</level>
  <class>org.uma.jmetal.util.JMetalLogger</class>
  <method>configureLoggers</method>
  <thread>1</thread>
  <message>Loggers configured with null</message>
</record>
<record>
  <date>2021-12-10T16:09:34.195041831Z</date>
  <millis>1639152574195</millis>
  <nanos>41831</nanos>
  <sequence>1</sequence>
  <logger>org.uma.jmetal.util.JMetalLogger</logger>
  <level>INFO</level>
  <class>org.uma.jmetal.util.experiment.component.ExecuteAlgorithms</class>
  <method>run</method>
  <thread>1</thread>
  <message>ExecuteAlgorithms: Preparing output directory</message>
</record>
<record>
  <date>2021-12-10T16:09:34.221469637Z</date>
  <millis>1639152574221</millis>
  <nanos>469637</nanos>
  <sequence>2</sequence>
  <logger>org.uma.jmetal.util.JMetalLogger</logger>
  <level>INFO</level>
  <class>org.uma.jmetal.util.experiment.util.ExperimentAlgorithm</class>
  <method>runAlgorithm</method>
  <thread>16</thread>
  <message> Running algorithm: NSGAII, problem: kroABC100_2, run: 3, funFile: ExperimentosFinal/TSP/MultiObjective/kroABC100_2/data/NSGAII/FUN3.tsv</message>
</record>
<record>
  <date>2021-12-10T16:09:34.230383121Z</date>
  <millis>1639152574230</millis>
  <nanos>383121</nanos>
  <sequence>3</sequence>
  <logger>org.uma.jmetal.util.JMetalLogger</logger>
  <level>INFO</level>
  <class>org.uma.jmetal.util.experiment.util.ExperimentAlgorithm</class>
  <method>runAlgorithm</method>
  <thread>1</thread>
  <message> Running algorithm: NSGAII, problem: kroABC100_2, run: 13, funFile: ExperimentosFinal/TSP/MultiObjective/kroABC100_2/data/NSGAII/FUN13.tsv</message>
</record>
<record>
  <date>2021-12-10T16:09:34.235467238Z</date>
  <millis>1639152574235</millis>
  <nanos>467238</nanos>
  <sequence>4</sequence>
  <logger>org.uma.jmetal.util.JMetalLogger</logger>
  <level>INFO</level>
  <class>org.uma.jmetal.util.experiment.util.ExperimentAlgorithm</class>
  <method>runAlgorithm</method>
  <thread>17</thread>
  <message> Running algorithm: MOEAD, problem: kroABC100_2, run: 1, funFile: ExperimentosFinal/TSP/MultiObjective/kroABC100_2/data/MOEAD/FUN1.tsv</message>
</record>
<record>
  <date>2021-12-10T16:09:34.238447662Z</date>
  <millis>1639152574238</millis>
  <nanos>447662</nanos>
  <sequence>5</sequence>
  <logger>org.uma.jmetal.util.JMetalLogger</logger>
  <level>INFO</level>
  <class>org.uma.jmetal.util.experiment.util.ExperimentAlgorithm</class>
  <method>runAlgorithm</method>
  <thread>15</thread>
  <message> Running algorithm: NSGAII, problem: kroABC100_2, run: 18, funFile: ExperimentosFinal/TSP/MultiObjective/kroABC100_2/data/NSGAII/FUN18.tsv</message>
</record>
<record>
  <date>2021-12-10T16:09:34.238503348Z</date>
  <millis>1639152574238</millis>
  <nanos>503348</nanos>
  <sequence>6</sequence>
  <logger>org.uma.jmetal.util.JMetalLogger</logger>
  <level>INFO</level>
  <class>org.uma.jmetal.util.experiment.util.ExperimentAlgorithm</class>
  <method>runAlgorithm</method>
  <thread>18</thread>
  <message> Running algorithm: MOEAD, problem: kroABC100_2, run: 11, funFile: ExperimentosFinal/TSP/MultiObjective/kroABC100_2/data/MOEAD/FUN11.tsv</message>
</record>
<record>
  <date>2021-12-10T16:09:34.258393892Z</date>
  <millis>1639152574258</millis>
  <nanos>393892</nanos>
  <sequence>7</sequence>
  <logger>org.uma.jmetal.util.JMetalLogger</logger>
  <level>INFO</level>
  <class>org.uma.jmetal.util.experiment.util.ExperimentAlgorithm</class>
  <method>runAlgorithm</method>
  <thread>14</thread>
  <message> Running algorithm: MOEAD, problem: kroABC100_2, run: 6, funFile: ExperimentosFinal/TSP/MultiObjective/kroABC100_2/data/MOEAD/FUN6.tsv</message>
</record>
<record>
  <date>2021-12-10T16:09:34.259028081Z</date>
  <millis>1639152574259</millis>
  <nanos>28081</nanos>
  <sequence>8</sequence>
  <logger>org.uma.jmetal.util.JMetalLogger</logger>
  <level>INFO</level>
  <class>org.uma.jmetal.util.experiment.util.ExperimentAlgorithm</class>
  <method>runAlgorithm</method>
  <thread>19</thread>
  <message> Running algorithm: MOCELL, problem: kroABC100_2, run: 10, funFile: ExperimentosFinal/TSP/MultiObjective/kroABC100_2/data/MOCELL/FUN10.tsv</message>
</record>
<record>
  <date>2021-12-10T16:09:34.286539812Z</date>
  <millis>1639152574286</millis>
  <nanos>539812</nanos>
  <sequence>9</sequence>
  <logger>org.uma.jmetal.util.JMetalLogger</logger>
  <level>INFO</level>
  <class>org.uma.jmetal.util.experiment.util.ExperimentAlgorithm</class>
  <method>runAlgorithm</method>
  <thread>19</thread>
  <message> Running algorithm: NSGAII, problem: kroABC100_2, run: 10, funFile: ExperimentosFinal/TSP/MultiObjective/kroABC100_2/data/NSGAII/FUN10.tsv</message>
</record>
<record>
  <date>2021-12-10T16:16:24.529555865Z</date>
  <millis>1639152984529</millis>
  <nanos>555865</nanos>
  <sequence>10</sequence>
  <logger>org.uma.jmetal.util.JMetalLogger</logger>
  <level>INFO</level>
  <class>org.uma.jmetal.util.experiment.util.ExperimentAlgorithm</class>
  <method>runAlgorithm</method>
  <thread>15</thread>
  <message>Execution time: algorithm Name[NSGAII_kroABC100_2_run18] | Total time: [410291ms]</message>
</record>
<record>
  <date>2021-12-10T16:16:24.574441523Z</date>
  <millis>1639152984574</millis>
  <nanos>441523</nanos>
  <sequence>11</sequence>
  <logger>org.uma.jmetal.util.JMetalLogger</logger>
  <level>INFO</level>
  <class>org.uma.jmetal.util.experiment.util.ExperimentAlgorithm</class>
  <method>runAlgorithm</method>
  <thread>15</thread>
  <message> Running algorithm: MOEAD, problem: kroABC100_2, run: 18, funFile: ExperimentosFinal/TSP/MultiObjective/kroABC100_2/data/MOEAD/FUN18.tsv</message>
</record>
<record>
  <date>2021-12-10T16:16:27.286614016Z</date>
  <millis>1639152987286</millis>
  <nanos>614016</nanos>
  <sequence>12</sequence>
  <logger>org.uma.jmetal.util.JMetalLogger</logger>
  <level>INFO</level>
  <class>org.uma.jmetal.util.experiment.util.ExperimentAlgorithm</class>
  <method>runAlgorithm</method>
  <thread>16</thread>
  <message>Execution time: algorithm Name[NSGAII_kroABC100_2_run3] | Total time: [413064ms]</message>
</record>
<record>
  <date>2021-12-10T16:16:27.302233548Z</date>
  <millis>1639152987302</millis>
  <nanos>233548</nanos>
  <sequence>13</sequence>
  <logger>org.uma.jmetal.util.JMetalLogger</logger>
  <level>INFO</level>
  <class>org.uma.jmetal.util.experiment.util.ExperimentAlgorithm</class>
  <method>runAlgorithm</method>
  <thread>16</thread>
  <message> Running algorithm: MOEAD, problem: kroABC100_2, run: 3, funFile: ExperimentosFinal/TSP/MultiObjective/kroABC100_2/data/MOEAD/FUN3.tsv</message>
</record>
<record>
  <date>2021-12-10T16:16:29.804760704Z</date>
  <millis>1639152989804</millis>
  <nanos>760704</nanos>
  <sequence>14</sequence>
  <logger>org.uma.jmetal.util.JMetalLogger</logger>
  <level>INFO</level>
  <class>org.uma.jmetal.util.experiment.util.ExperimentAlgorithm</class>
  <method>runAlgorithm</method>
  <thread>19</thread>
  <message>Execution time: algorithm Name[NSGAII_kroABC100_2_run10] | Total time: [415517ms]</message>
</record>
<record>
  <date>2021-12-10T16:16:29.822806359Z</date>
  <millis>1639152989822</millis>
  <nanos>806359</nanos>
  <sequence>15</sequence>
  <logger>org.uma.jmetal.util.JMetalLogger</logger>
  <level>INFO</level>
  <class>org.uma.jmetal.util.experiment.util.ExperimentAlgorithm</class>
  <method>runAlgorithm</method>
  <thread>19</thread>
  <message> Running algorithm: MOEAD, problem: kroABC100_2, run: 10, funFile: ExperimentosFinal/TSP/MultiObjective/kroABC100_2/data/MOEAD/FUN10.tsv</message>
</record>
<record>
  <date>2021-12-10T16:16:30.240641448Z</date>
  <millis>1639152990240</millis>
  <nanos>641448</nanos>
  <sequence>16</sequence>
  <logger>org.uma.jmetal.util.JMetalLogger</logger>
  <level>INFO</level>
  <class>org.uma.jmetal.util.experiment.util.ExperimentAlgorithm</class>
  <method>runAlgorithm</method>
  <thread>1</thread>
  <message>Execution time: algorithm Name[NSGAII_kroABC100_2_run13] | Total time: [416010ms]</message>
</record>
<record>
  <date>2021-12-10T16:16:30.260844734Z</date>
  <millis>1639152990260</millis>
  <nanos>844734</nanos>
  <sequence>17</sequence>
  <logger>org.uma.jmetal.util.JMetalLogger</logger>
  <level>INFO</level>
  <class>org.uma.jmetal.util.experiment.util.ExperimentAlgorithm</class>
  <method>runAlgorithm</method>
  <thread>1</thread>
  <message> Running algorithm: MOEAD, problem: kroABC100_2, run: 13, funFile: ExperimentosFinal/TSP/MultiObjective/kroABC100_2/data/MOEAD/FUN13.tsv</message>
</record>
<record>
  <date>2021-12-10T16:16:50.194569290Z</date>
  <millis>1639153010194</millis>
  <nanos>569290</nanos>
  <sequence>18</sequence>
  <logger>org.uma.jmetal.util.JMetalLogger</logger>
  <level>INFO</level>
  <class>org.uma.jmetal.util.experiment.util.ExperimentAlgorithm</class>
  <method>runAlgorithm</method>
  <thread>14</thread>
  <message>Execution time: algorithm Name[MOEAD_kroABC100_2_run6] | Total time: [435936ms]</message>
</record>
<record>
  <date>2021-12-10T16:16:50.227512408Z</date>
  <millis>1639153010227</millis>
  <nanos>512408</nanos>
  <sequence>19</sequence>
  <logger>org.uma.jmetal.util.JMetalLogger</logger>
  <level>INFO</level>
  <class>org.uma.jmetal.util.experiment.util.ExperimentAlgorithm</class>
  <method>runAlgorithm</method>
  <thread>14</thread>
  <message> Running algorithm: MOCELL, problem: kroABC100_2, run: 6, funFile: ExperimentosFinal/TSP/MultiObjective/kroABC100_2/data/MOCELL/FUN6.tsv</message>
</record>
<record>
  <date>2021-12-10T16:16:50.232541992Z</date>
  <millis>1639153010232</millis>
  <nanos>541992</nanos>
  <sequence>20</sequence>
  <logger>org.uma.jmetal.util.JMetalLogger</logger>
  <level>INFO</level>
  <class>org.uma.jmetal.util.experiment.util.ExperimentAlgorithm</class>
  <method>runAlgorithm</method>
  <thread>14</thread>
  <message> Running algorithm: PAES, problem: kroABC100_2, run: 6, funFile: ExperimentosFinal/TSP/MultiObjective/kroABC100_2/data/PAES/FUN6.tsv</message>
</record>
<record>
  <date>2021-12-10T16:17:00.229687362Z</date>
  <millis>1639153020229</millis>
  <nanos>687362</nanos>
  <sequence>21</sequence>
  <logger>org.uma.jmetal.util.JMetalLogger</logger>
  <level>INFO</level>
  <class>org.uma.jmetal.util.experiment.util.ExperimentAlgorithm</class>
  <method>runAlgorithm</method>
  <thread>18</thread>
  <message>Execution time: algorithm Name[MOEAD_kroABC100_2_run11] | Total time: [445988ms]</message>
</record>
<record>
  <date>2021-12-10T16:17:00.263827382Z</date>
  <millis>1639153020263</millis>
  <nanos>827382</nanos>
  <sequence>22</sequence>
  <logger>org.uma.jmetal.util.JMetalLogger</logger>
  <level>INFO</level>
  <class>org.uma.jmetal.util.experiment.util.ExperimentAlgorithm</class>
  <method>runAlgorithm</method>
  <thread>18</thread>
  <message> Running algorithm: MOCELL, problem: kroABC100_2, run: 11, funFile: ExperimentosFinal/TSP/MultiObjective/kroABC100_2/data/MOCELL/FUN11.tsv</message>
</record>
<record>
  <date>2021-12-10T16:17:00.266949058Z</date>
  <millis>1639153020266</millis>
  <nanos>949058</nanos>
  <sequence>23</sequence>
  <logger>org.uma.jmetal.util.JMetalLogger</logger>
  <level>INFO</level>
  <class>org.uma.jmetal.util.experiment.util.ExperimentAlgorithm</class>
  <method>runAlgorithm</method>
  <thread>18</thread>
  <message> Running algorithm: MOCELL, problem: kroABC100_2, run: 12, funFile: ExperimentosFinal/TSP/MultiObjective/kroABC100_2/data/MOCELL/FUN12.tsv</message>
</record>
<record>
  <date>2021-12-10T16:17:00.278156181Z</date>
  <millis>1639153020278</millis>
  <nanos>156181</nanos>
  <sequence>24</sequence>
  <logger>org.uma.jmetal.util.JMetalLogger</logger>
  <level>INFO</level>
  <class>org.uma.jmetal.util.experiment.util.ExperimentAlgorithm</class>
  <method>runAlgorithm</method>
  <thread>18</thread>
  <message> Running algorithm: MOEAD, problem: kroABC100_2, run: 16, funFile: ExperimentosFinal/TSP/MultiObjective/kroABC100_2/data/MOEAD/FUN16.tsv</message>
</record>
<record>
  <date>2021-12-10T16:17:02.327718143Z</date>
  <millis>1639153022327</millis>
  <nanos>718143</nanos>
  <sequence>25</sequence>
  <logger>org.uma.jmetal.util.JMetalLogger</logger>
  <level>INFO</level>
  <class>org.uma.jmetal.util.experiment.util.ExperimentAlgorithm</class>
  <method>runAlgorithm</method>
  <thread>17</thread>
  <message>Execution time: algorithm Name[MOEAD_kroABC100_2_run1] | Total time: [448091ms]</message>
</record>
<record>
  <date>2021-12-10T16:17:02.341588643Z</date>
  <millis>1639153022341</millis>
  <nanos>588643</nanos>
  <sequence>26</sequence>
  <logger>org.uma.jmetal.util.JMetalLogger</logger>
  <level>INFO</level>
  <class>org.uma.jmetal.util.experiment.util.ExperimentAlgorithm</class>
  <method>runAlgorithm</method>
  <thread>17</thread>
  <message> Running algorithm: MOCELL, problem: kroABC100_2, run: 1, funFile: ExperimentosFinal/TSP/MultiObjective/kroABC100_2/data/MOCELL/FUN1.tsv</message>
</record>
<record>
  <date>2021-12-10T16:17:02.350382080Z</date>
  <millis>1639153022350</millis>
  <nanos>382080</nanos>
  <sequence>27</sequence>
  <logger>org.uma.jmetal.util.JMetalLogger</logger>
  <level>INFO</level>
  <class>org.uma.jmetal.util.experiment.util.ExperimentAlgorithm</class>
  <method>runAlgorithm</method>
  <thread>17</thread>
  <message> Running algorithm: MOCELL, problem: kroABC100_2, run: 0, funFile: ExperimentosFinal/TSP/MultiObjective/kroABC100_2/data/MOCELL/FUN0.tsv</message>
</record>
<record>
  <date>2021-12-10T16:17:02.354921290Z</date>
  <millis>1639153022354</millis>
  <nanos>921290</nanos>
  <sequence>28</sequence>
  <logger>org.uma.jmetal.util.JMetalLogger</logger>
  <level>INFO</level>
  <class>org.uma.jmetal.util.experiment.util.ExperimentAlgorithm</class>
  <method>runAlgorithm</method>
  <thread>17</thread>
  <message> Running algorithm: NSGAII, problem: kroABC100_2, run: 0, funFile: ExperimentosFinal/TSP/MultiObjective/kroABC100_2/data/NSGAII/FUN0.tsv</message>
</record>
<record>
  <date>2021-12-10T16:18:43.245343834Z</date>
  <millis>1639153123245</millis>
  <nanos>343834</nanos>
  <sequence>29</sequence>
  <logger>org.uma.jmetal.util.JMetalLogger</logger>
  <level>INFO</level>
  <class>org.uma.jmetal.util.experiment.util.ExperimentAlgorithm</class>
  <method>runAlgorithm</method>
  <thread>14</thread>
  <message>Execution time: algorithm Name[PAES_kroABC100_2_run6] | Total time: [113013ms]</message>
</record>
<record>
  <date>2021-12-10T16:18:43.284338156Z</date>
  <millis>1639153123284</millis>
  <nanos>338156</nanos>
  <sequence>30</sequence>
  <logger>org.uma.jmetal.util.JMetalLogger</logger>
  <level>INFO</level>
  <class>org.uma.jmetal.util.experiment.util.ExperimentAlgorithm</class>
  <method>runAlgorithm</method>
  <thread>14</thread>
  <message> Running algorithm: NSGAII, problem: kroABC100_2, run: 7, funFile: ExperimentosFinal/TSP/MultiObjective/kroABC100_2/data/NSGAII/FUN7.tsv</message>
</record>
<record>
  <date>2021-12-10T16:22:51.654331790Z</date>
  <millis>1639153371654</millis>
  <nanos>331790</nanos>
  <sequence>31</sequence>
  <logger>org.uma.jmetal.util.JMetalLogger</logger>
  <level>INFO</level>
  <class>org.uma.jmetal.util.experiment.util.ExperimentAlgorithm</class>
  <method>runAlgorithm</method>
  <thread>17</thread>
  <message>Execution time: algorithm Name[NSGAII_kroABC100_2_run0] | Total time: [349298ms]</message>
</record>
<record>
  <date>2021-12-10T16:22:51.666740637Z</date>
  <millis>1639153371666</millis>
  <nanos>740637</nanos>
  <sequence>32</sequence>
  <logger>org.uma.jmetal.util.JMetalLogger</logger>
  <level>INFO</level>
  <class>org.uma.jmetal.util.experiment.util.ExperimentAlgorithm</class>
  <method>runAlgorithm</method>
  <thread>17</thread>
  <message> Running algorithm: MOEAD, problem: kroABC100_2, run: 0, funFile: ExperimentosFinal/TSP/MultiObjective/kroABC100_2/data/MOEAD/FUN0.tsv</message>
</record>
<record>
  <date>2021-12-10T16:23:56.394562992Z</date>
  <millis>1639153436394</millis>
  <nanos>562992</nanos>
  <sequence>33</sequence>
  <logger>org.uma.jmetal.util.JMetalLogger</logger>
  <level>INFO</level>
  <class>org.uma.jmetal.util.experiment.util.ExperimentAlgorithm</class>
  <method>runAlgorithm</method>
  <thread>16</thread>
  <message>Execution time: algorithm Name[MOEAD_kroABC100_2_run3] | Total time: [449087ms]</message>
</record>
<record>
  <date>2021-12-10T16:23:56.400465392Z</date>
  <millis>1639153436400</millis>
  <nanos>465392</nanos>
  <sequence>34</sequence>
  <logger>org.uma.jmetal.util.JMetalLogger</logger>
  <level>INFO</level>
  <class>org.uma.jmetal.util.experiment.util.ExperimentAlgorithm</class>
  <method>runAlgorithm</method>
  <thread>16</thread>
  <message> Running algorithm: MOCELL, problem: kroABC100_2, run: 3, funFile: ExperimentosFinal/TSP/MultiObjective/kroABC100_2/data/MOCELL/FUN3.tsv</message>
</record>
<record>
  <date>2021-12-10T16:23:56.408386123Z</date>
  <millis>1639153436408</millis>
  <nanos>386123</nanos>
  <sequence>35</sequence>
  <logger>org.uma.jmetal.util.JMetalLogger</logger>
  <level>INFO</level>
  <class>org.uma.jmetal.util.experiment.util.ExperimentAlgorithm</class>
  <method>runAlgorithm</method>
  <thread>16</thread>
  <message> Running algorithm: MOCELL, problem: kroABC100_2, run: 2, funFile: ExperimentosFinal/TSP/MultiObjective/kroABC100_2/data/MOCELL/FUN2.tsv</message>
</record>
<record>
  <date>2021-12-10T16:23:56.414670060Z</date>
  <millis>1639153436414</millis>
  <nanos>670060</nanos>
  <sequence>36</sequence>
  <logger>org.uma.jmetal.util.JMetalLogger</logger>
  <level>INFO</level>
  <class>org.uma.jmetal.util.experiment.util.ExperimentAlgorithm</class>
  <method>runAlgorithm</method>
  <thread>16</thread>
  <message> Running algorithm: MOCELL, problem: kroABC100_2, run: 5, funFile: ExperimentosFinal/TSP/MultiObjective/kroABC100_2/data/MOCELL/FUN5.tsv</message>
</record>
<record>
  <date>2021-12-10T16:23:56.416059950Z</date>
  <millis>1639153436416</millis>
  <nanos>59950</nanos>
  <sequence>37</sequence>
  <logger>org.uma.jmetal.util.JMetalLogger</logger>
  <level>INFO</level>
  <class>org.uma.jmetal.util.experiment.util.ExperimentAlgorithm</class>
  <method>runAlgorithm</method>
  <thread>16</thread>
  <message> Running algorithm: NSGAII, problem: kroABC100_2, run: 5, funFile: ExperimentosFinal/TSP/MultiObjective/kroABC100_2/data/NSGAII/FUN5.tsv</message>
</record>
<record>
  <date>2021-12-10T16:23:57.969433208Z</date>
  <millis>1639153437969</millis>
  <nanos>433208</nanos>
  <sequence>38</sequence>
  <logger>org.uma.jmetal.util.JMetalLogger</logger>
  <level>INFO</level>
  <class>org.uma.jmetal.util.experiment.util.ExperimentAlgorithm</class>
  <method>runAlgorithm</method>
  <thread>15</thread>
  <message>Execution time: algorithm Name[MOEAD_kroABC100_2_run18] | Total time: [453390ms]</message>
</record>
<record>
  <date>2021-12-10T16:23:57.976371402Z</date>
  <millis>1639153437976</millis>
  <nanos>371402</nanos>
  <sequence>39</sequence>
  <logger>org.uma.jmetal.util.JMetalLogger</logger>
  <level>INFO</level>
  <class>org.uma.jmetal.util.experiment.util.ExperimentAlgorithm</class>
  <method>runAlgorithm</method>
  <thread>15</thread>
  <message> Running algorithm: MOCELL, problem: kroABC100_2, run: 18, funFile: ExperimentosFinal/TSP/MultiObjective/kroABC100_2/data/MOCELL/FUN18.tsv</message>
</record>
<record>
  <date>2021-12-10T16:23:57.977518628Z</date>
  <millis>1639153437977</millis>
  <nanos>518628</nanos>
  <sequence>40</sequence>
  <logger>org.uma.jmetal.util.JMetalLogger</logger>
  <level>INFO</level>
  <class>org.uma.jmetal.util.experiment.util.ExperimentAlgorithm</class>
  <method>runAlgorithm</method>
  <thread>15</thread>
  <message> Running algorithm: MOCELL, problem: kroABC100_2, run: 17, funFile: ExperimentosFinal/TSP/MultiObjective/kroABC100_2/data/MOCELL/FUN17.tsv</message>
</record>
<record>
  <date>2021-12-10T16:23:57.979271396Z</date>
  <millis>1639153437979</millis>
  <nanos>271396</nanos>
  <sequence>41</sequence>
  <logger>org.uma.jmetal.util.JMetalLogger</logger>
  <level>INFO</level>
  <class>org.uma.jmetal.util.experiment.util.ExperimentAlgorithm</class>
  <method>runAlgorithm</method>
  <thread>15</thread>
  <message> Running algorithm: MOCELL, problem: kroABC100_2, run: 15, funFile: ExperimentosFinal/TSP/MultiObjective/kroABC100_2/data/MOCELL/FUN15.tsv</message>
</record>
<record>
  <date>2021-12-10T16:23:57.980314878Z</date>
  <millis>1639153437980</millis>
  <nanos>314878</nanos>
  <sequence>42</sequence>
  <logger>org.uma.jmetal.util.JMetalLogger</logger>
  <level>INFO</level>
  <class>org.uma.jmetal.util.experiment.util.ExperimentAlgorithm</class>
  <method>runAlgorithm</method>
  <thread>15</thread>
  <message> Running algorithm: NSGAII, problem: kroABC100_2, run: 15, funFile: ExperimentosFinal/TSP/MultiObjective/kroABC100_2/data/NSGAII/FUN15.tsv</message>
</record>
<record>
  <date>2021-12-10T16:24:01.400874532Z</date>
  <millis>1639153441400</millis>
  <nanos>874532</nanos>
  <sequence>43</sequence>
  <logger>org.uma.jmetal.util.JMetalLogger</logger>
  <level>INFO</level>
  <class>org.uma.jmetal.util.experiment.util.ExperimentAlgorithm</class>
  <method>runAlgorithm</method>
  <thread>19</thread>
  <message>Execution time: algorithm Name[MOEAD_kroABC100_2_run10] | Total time: [451577ms]</message>
</record>
<record>
  <date>2021-12-10T16:24:01.906157676Z</date>
  <millis>1639153441906</millis>
  <nanos>157676</nanos>
  <sequence>44</sequence>
  <logger>org.uma.jmetal.util.JMetalLogger</logger>
  <level>INFO</level>
  <class>org.uma.jmetal.util.experiment.util.ExperimentAlgorithm</class>
  <method>runAlgorithm</method>
  <thread>1</thread>
  <message>Execution time: algorithm Name[MOEAD_kroABC100_2_run13] | Total time: [451645ms]</message>
</record>
<record>
  <date>2021-12-10T16:24:01.924483959Z</date>
  <millis>1639153441924</millis>
  <nanos>483959</nanos>
  <sequence>45</sequence>
  <logger>org.uma.jmetal.util.JMetalLogger</logger>
  <level>INFO</level>
  <class>org.uma.jmetal.util.experiment.util.ExperimentAlgorithm</class>
  <method>runAlgorithm</method>
  <thread>1</thread>
  <message> Running algorithm: MOCELL, problem: kroABC100_2, run: 13, funFile: ExperimentosFinal/TSP/MultiObjective/kroABC100_2/data/MOCELL/FUN13.tsv</message>
</record>
</log>
