<?xml version="1.0" encoding="UTF-8" standalone="no"?>
<!DOCTYPE log SYSTEM "logger.dtd">
<log>
<record>
  <date>2021-12-10T16:12:08.965095794Z</date>
  <millis>1639152728965</millis>
  <nanos>95794</nanos>
  <sequence>0</sequence>
  <logger>org.uma.jmetal.util.JMetalLogger</logger>
  <level>INFO</level>
  <class>org.uma.jmetal.util.JMetalLogger</class>
  <method>configureLoggers</method>
  <thread>1</thread>
  <message>Loggers configured with null</message>
</record>
<record>
  <date>2021-12-10T16:12:09.047048473Z</date>
  <millis>1639152729047</millis>
  <nanos>48473</nanos>
  <sequence>1</sequence>
  <logger>org.uma.jmetal.util.JMetalLogger</logger>
  <level>INFO</level>
  <class>org.uma.jmetal.util.experiment.component.ExecuteAlgorithms</class>
  <method>run</method>
  <thread>1</thread>
  <message>ExecuteAlgorithms: Preparing output directory</message>
</record>
<record>
  <date>2021-12-10T16:12:09.087640192Z</date>
  <millis>1639152729087</millis>
  <nanos>640192</nanos>
  <sequence>2</sequence>
  <logger>org.uma.jmetal.util.JMetalLogger</logger>
  <level>INFO</level>
  <class>org.uma.jmetal.util.experiment.util.ExperimentAlgorithm</class>
  <method>runAlgorithm</method>
  <thread>16</thread>
  <message> Running algorithm: NSGAII, problem: kroABC100_2, run: 3, funFile: ExperimentosFinal/TSP/MultiObjective/kroABC100_2/data/NSGAII/FUN3.tsv</message>
</record>
<record>
  <date>2021-12-10T16:12:09.106395726Z</date>
  <millis>1639152729106</millis>
  <nanos>395726</nanos>
  <sequence>3</sequence>
  <logger>org.uma.jmetal.util.JMetalLogger</logger>
  <level>INFO</level>
  <class>org.uma.jmetal.util.experiment.util.ExperimentAlgorithm</class>
  <method>runAlgorithm</method>
  <thread>1</thread>
  <message> Running algorithm: NSGAII, problem: kroABC100_2, run: 13, funFile: ExperimentosFinal/TSP/MultiObjective/kroABC100_2/data/NSGAII/FUN13.tsv</message>
</record>
<record>
  <date>2021-12-10T16:12:09.110391739Z</date>
  <millis>1639152729110</millis>
  <nanos>391739</nanos>
  <sequence>4</sequence>
  <logger>org.uma.jmetal.util.JMetalLogger</logger>
  <level>INFO</level>
  <class>org.uma.jmetal.util.experiment.util.ExperimentAlgorithm</class>
  <method>runAlgorithm</method>
  <thread>17</thread>
  <message> Running algorithm: MOEAD, problem: kroABC100_2, run: 1, funFile: ExperimentosFinal/TSP/MultiObjective/kroABC100_2/data/MOEAD/FUN1.tsv</message>
</record>
<record>
  <date>2021-12-10T16:12:09.122387946Z</date>
  <millis>1639152729122</millis>
  <nanos>387946</nanos>
  <sequence>5</sequence>
  <logger>org.uma.jmetal.util.JMetalLogger</logger>
  <level>INFO</level>
  <class>org.uma.jmetal.util.experiment.util.ExperimentAlgorithm</class>
  <method>runAlgorithm</method>
  <thread>15</thread>
  <message> Running algorithm: NSGAII, problem: kroABC100_2, run: 18, funFile: ExperimentosFinal/TSP/MultiObjective/kroABC100_2/data/NSGAII/FUN18.tsv</message>
</record>
<record>
  <date>2021-12-10T16:12:09.122496828Z</date>
  <millis>1639152729122</millis>
  <nanos>496828</nanos>
  <sequence>6</sequence>
  <logger>org.uma.jmetal.util.JMetalLogger</logger>
  <level>INFO</level>
  <class>org.uma.jmetal.util.experiment.util.ExperimentAlgorithm</class>
  <method>runAlgorithm</method>
  <thread>18</thread>
  <message> Running algorithm: MOEAD, problem: kroABC100_2, run: 16, funFile: ExperimentosFinal/TSP/MultiObjective/kroABC100_2/data/MOEAD/FUN16.tsv</message>
</record>
<record>
  <date>2021-12-10T16:12:09.130379281Z</date>
  <millis>1639152729130</millis>
  <nanos>379281</nanos>
  <sequence>7</sequence>
  <logger>org.uma.jmetal.util.JMetalLogger</logger>
  <level>INFO</level>
  <class>org.uma.jmetal.util.experiment.util.ExperimentAlgorithm</class>
  <method>runAlgorithm</method>
  <thread>14</thread>
  <message> Running algorithm: MOEAD, problem: kroABC100_2, run: 6, funFile: ExperimentosFinal/TSP/MultiObjective/kroABC100_2/data/MOEAD/FUN6.tsv</message>
</record>
<record>
  <date>2021-12-10T16:12:09.131296883Z</date>
  <millis>1639152729131</millis>
  <nanos>296883</nanos>
  <sequence>8</sequence>
  <logger>org.uma.jmetal.util.JMetalLogger</logger>
  <level>INFO</level>
  <class>org.uma.jmetal.util.experiment.util.ExperimentAlgorithm</class>
  <method>runAlgorithm</method>
  <thread>19</thread>
  <message> Running algorithm: MOEAD, problem: kroABC100_2, run: 4, funFile: ExperimentosFinal/TSP/MultiObjective/kroABC100_2/data/MOEAD/FUN4.tsv</message>
</record>
<record>
  <date>2021-12-10T16:18:42.380006477Z</date>
  <millis>1639153122380</millis>
  <nanos>6477</nanos>
  <sequence>9</sequence>
  <logger>org.uma.jmetal.util.JMetalLogger</logger>
  <level>INFO</level>
  <class>org.uma.jmetal.util.experiment.util.ExperimentAlgorithm</class>
  <method>runAlgorithm</method>
  <thread>18</thread>
  <message>Execution time: algorithm Name[MOEAD_kroABC100_2_run16] | Total time: [393240ms]</message>
</record>
<record>
  <date>2021-12-10T16:18:42.433557082Z</date>
  <millis>1639153122433</millis>
  <nanos>557082</nanos>
  <sequence>10</sequence>
  <logger>org.uma.jmetal.util.JMetalLogger</logger>
  <level>INFO</level>
  <class>org.uma.jmetal.util.experiment.util.ExperimentAlgorithm</class>
  <method>runAlgorithm</method>
  <thread>18</thread>
  <message> Running algorithm: MOCELL, problem: kroABC100_2, run: 16, funFile: ExperimentosFinal/TSP/MultiObjective/kroABC100_2/data/MOCELL/FUN16.tsv</message>
</record>
<record>
  <date>2021-12-10T16:18:42.435886236Z</date>
  <millis>1639153122435</millis>
  <nanos>886236</nanos>
  <sequence>11</sequence>
  <logger>org.uma.jmetal.util.JMetalLogger</logger>
  <level>INFO</level>
  <class>org.uma.jmetal.util.experiment.util.ExperimentAlgorithm</class>
  <method>runAlgorithm</method>
  <thread>18</thread>
  <message> Running algorithm: MOCELL, problem: kroABC100_2, run: 15, funFile: ExperimentosFinal/TSP/MultiObjective/kroABC100_2/data/MOCELL/FUN15.tsv</message>
</record>
<record>
  <date>2021-12-10T16:18:42.462641969Z</date>
  <millis>1639153122462</millis>
  <nanos>641969</nanos>
  <sequence>12</sequence>
  <logger>org.uma.jmetal.util.JMetalLogger</logger>
  <level>INFO</level>
  <class>org.uma.jmetal.util.experiment.util.ExperimentAlgorithm</class>
  <method>runAlgorithm</method>
  <thread>18</thread>
  <message> Running algorithm: NSGAII, problem: kroABC100_2, run: 15, funFile: ExperimentosFinal/TSP/MultiObjective/kroABC100_2/data/NSGAII/FUN15.tsv</message>
</record>
<record>
  <date>2021-12-10T16:18:42.891800357Z</date>
  <millis>1639153122891</millis>
  <nanos>800357</nanos>
  <sequence>13</sequence>
  <logger>org.uma.jmetal.util.JMetalLogger</logger>
  <level>INFO</level>
  <class>org.uma.jmetal.util.experiment.util.ExperimentAlgorithm</class>
  <method>runAlgorithm</method>
  <thread>17</thread>
  <message>Execution time: algorithm Name[MOEAD_kroABC100_2_run1] | Total time: [393775ms]</message>
</record>
<record>
  <date>2021-12-10T16:18:42.908048356Z</date>
  <millis>1639153122908</millis>
  <nanos>48356</nanos>
  <sequence>14</sequence>
  <logger>org.uma.jmetal.util.JMetalLogger</logger>
  <level>INFO</level>
  <class>org.uma.jmetal.util.experiment.util.ExperimentAlgorithm</class>
  <method>runAlgorithm</method>
  <thread>17</thread>
  <message> Running algorithm: MOCELL, problem: kroABC100_2, run: 1, funFile: ExperimentosFinal/TSP/MultiObjective/kroABC100_2/data/MOCELL/FUN1.tsv</message>
</record>
<record>
  <date>2021-12-10T16:18:42.909473600Z</date>
  <millis>1639153122909</millis>
  <nanos>473600</nanos>
  <sequence>15</sequence>
  <logger>org.uma.jmetal.util.JMetalLogger</logger>
  <level>INFO</level>
  <class>org.uma.jmetal.util.experiment.util.ExperimentAlgorithm</class>
  <method>runAlgorithm</method>
  <thread>17</thread>
  <message> Running algorithm: MOCELL, problem: kroABC100_2, run: 0, funFile: ExperimentosFinal/TSP/MultiObjective/kroABC100_2/data/MOCELL/FUN0.tsv</message>
</record>
<record>
  <date>2021-12-10T16:18:42.910677790Z</date>
  <millis>1639153122910</millis>
  <nanos>677790</nanos>
  <sequence>16</sequence>
  <logger>org.uma.jmetal.util.JMetalLogger</logger>
  <level>INFO</level>
  <class>org.uma.jmetal.util.experiment.util.ExperimentAlgorithm</class>
  <method>runAlgorithm</method>
  <thread>17</thread>
  <message> Running algorithm: NSGAII, problem: kroABC100_2, run: 0, funFile: ExperimentosFinal/TSP/MultiObjective/kroABC100_2/data/NSGAII/FUN0.tsv</message>
</record>
<record>
  <date>2021-12-10T16:18:44.537335147Z</date>
  <millis>1639153124537</millis>
  <nanos>335147</nanos>
  <sequence>17</sequence>
  <logger>org.uma.jmetal.util.JMetalLogger</logger>
  <level>INFO</level>
  <class>org.uma.jmetal.util.experiment.util.ExperimentAlgorithm</class>
  <method>runAlgorithm</method>
  <thread>14</thread>
  <message>Execution time: algorithm Name[MOEAD_kroABC100_2_run6] | Total time: [395406ms]</message>
</record>
<record>
  <date>2021-12-10T16:18:44.547295858Z</date>
  <millis>1639153124547</millis>
  <nanos>295858</nanos>
  <sequence>18</sequence>
  <logger>org.uma.jmetal.util.JMetalLogger</logger>
  <level>INFO</level>
  <class>org.uma.jmetal.util.experiment.util.ExperimentAlgorithm</class>
  <method>runAlgorithm</method>
  <thread>14</thread>
  <message> Running algorithm: MOCELL, problem: kroABC100_2, run: 6, funFile: ExperimentosFinal/TSP/MultiObjective/kroABC100_2/data/MOCELL/FUN6.tsv</message>
</record>
<record>
  <date>2021-12-10T16:18:44.549507980Z</date>
  <millis>1639153124549</millis>
  <nanos>507980</nanos>
  <sequence>19</sequence>
  <logger>org.uma.jmetal.util.JMetalLogger</logger>
  <level>INFO</level>
  <class>org.uma.jmetal.util.experiment.util.ExperimentAlgorithm</class>
  <method>runAlgorithm</method>
  <thread>14</thread>
  <message> Running algorithm: PAES, problem: kroABC100_2, run: 6, funFile: ExperimentosFinal/TSP/MultiObjective/kroABC100_2/data/PAES/FUN6.tsv</message>
</record>
<record>
  <date>2021-12-10T16:18:44.937704037Z</date>
  <millis>1639153124937</millis>
  <nanos>704037</nanos>
  <sequence>20</sequence>
  <logger>org.uma.jmetal.util.JMetalLogger</logger>
  <level>INFO</level>
  <class>org.uma.jmetal.util.experiment.util.ExperimentAlgorithm</class>
  <method>runAlgorithm</method>
  <thread>19</thread>
  <message>Execution time: algorithm Name[MOEAD_kroABC100_2_run4] | Total time: [395803ms]</message>
</record>
<record>
  <date>2021-12-10T16:18:44.941667701Z</date>
  <millis>1639153124941</millis>
  <nanos>667701</nanos>
  <sequence>21</sequence>
  <logger>org.uma.jmetal.util.JMetalLogger</logger>
  <level>INFO</level>
  <class>org.uma.jmetal.util.experiment.util.ExperimentAlgorithm</class>
  <method>runAlgorithm</method>
  <thread>19</thread>
  <message> Running algorithm: MOCELL, problem: kroABC100_2, run: 4, funFile: ExperimentosFinal/TSP/MultiObjective/kroABC100_2/data/MOCELL/FUN4.tsv</message>
</record>
<record>
  <date>2021-12-10T16:18:44.942824543Z</date>
  <millis>1639153124942</millis>
  <nanos>824543</nanos>
  <sequence>22</sequence>
  <logger>org.uma.jmetal.util.JMetalLogger</logger>
  <level>INFO</level>
  <class>org.uma.jmetal.util.experiment.util.ExperimentAlgorithm</class>
  <method>runAlgorithm</method>
  <thread>19</thread>
  <message> Running algorithm: PAES, problem: kroABC100_2, run: 3, funFile: ExperimentosFinal/TSP/MultiObjective/kroABC100_2/data/PAES/FUN3.tsv</message>
</record>
<record>
  <date>2021-12-10T16:18:58.138726810Z</date>
  <millis>1639153138138</millis>
  <nanos>726810</nanos>
  <sequence>23</sequence>
  <logger>org.uma.jmetal.util.JMetalLogger</logger>
  <level>INFO</level>
  <class>org.uma.jmetal.util.experiment.util.ExperimentAlgorithm</class>
  <method>runAlgorithm</method>
  <thread>1</thread>
  <message>Execution time: algorithm Name[NSGAII_kroABC100_2_run13] | Total time: [409023ms]</message>
</record>
<record>
  <date>2021-12-10T16:18:58.153534968Z</date>
  <millis>1639153138153</millis>
  <nanos>534968</nanos>
  <sequence>24</sequence>
  <logger>org.uma.jmetal.util.JMetalLogger</logger>
  <level>INFO</level>
  <class>org.uma.jmetal.util.experiment.util.ExperimentAlgorithm</class>
  <method>runAlgorithm</method>
  <thread>1</thread>
  <message> Running algorithm: MOEAD, problem: kroABC100_2, run: 13, funFile: ExperimentosFinal/TSP/MultiObjective/kroABC100_2/data/MOEAD/FUN13.tsv</message>
</record>
<record>
  <date>2021-12-10T16:19:01.155172400Z</date>
  <millis>1639153141155</millis>
  <nanos>172400</nanos>
  <sequence>25</sequence>
  <logger>org.uma.jmetal.util.JMetalLogger</logger>
  <level>INFO</level>
  <class>org.uma.jmetal.util.experiment.util.ExperimentAlgorithm</class>
  <method>runAlgorithm</method>
  <thread>16</thread>
  <message>Execution time: algorithm Name[NSGAII_kroABC100_2_run3] | Total time: [412061ms]</message>
</record>
<record>
  <date>2021-12-10T16:19:01.160508163Z</date>
  <millis>1639153141160</millis>
  <nanos>508163</nanos>
  <sequence>26</sequence>
  <logger>org.uma.jmetal.util.JMetalLogger</logger>
  <level>INFO</level>
  <class>org.uma.jmetal.util.experiment.util.ExperimentAlgorithm</class>
  <method>runAlgorithm</method>
  <thread>16</thread>
  <message> Running algorithm: MOEAD, problem: kroABC100_2, run: 3, funFile: ExperimentosFinal/TSP/MultiObjective/kroABC100_2/data/MOEAD/FUN3.tsv</message>
</record>
<record>
  <date>2021-12-10T16:19:02.682383037Z</date>
  <millis>1639153142682</millis>
  <nanos>383037</nanos>
  <sequence>27</sequence>
  <logger>org.uma.jmetal.util.JMetalLogger</logger>
  <level>INFO</level>
  <class>org.uma.jmetal.util.experiment.util.ExperimentAlgorithm</class>
  <method>runAlgorithm</method>
  <thread>15</thread>
  <message>Execution time: algorithm Name[NSGAII_kroABC100_2_run18] | Total time: [413560ms]</message>
</record>
<record>
  <date>2021-12-10T16:19:02.685073987Z</date>
  <millis>1639153142685</millis>
  <nanos>73987</nanos>
  <sequence>28</sequence>
  <logger>org.uma.jmetal.util.JMetalLogger</logger>
  <level>INFO</level>
  <class>org.uma.jmetal.util.experiment.util.ExperimentAlgorithm</class>
  <method>runAlgorithm</method>
  <thread>15</thread>
  <message> Running algorithm: MOEAD, problem: kroABC100_2, run: 18, funFile: ExperimentosFinal/TSP/MultiObjective/kroABC100_2/data/MOEAD/FUN18.tsv</message>
</record>
<record>
  <date>2021-12-10T16:20:19.807136021Z</date>
  <millis>1639153219807</millis>
  <nanos>136021</nanos>
  <sequence>29</sequence>
  <logger>org.uma.jmetal.util.JMetalLogger</logger>
  <level>INFO</level>
  <class>org.uma.jmetal.util.experiment.util.ExperimentAlgorithm</class>
  <method>runAlgorithm</method>
  <thread>19</thread>
  <message>Execution time: algorithm Name[PAES_kroABC100_2_run3] | Total time: [94849ms]</message>
</record>
<record>
  <date>2021-12-10T16:20:19.819840402Z</date>
  <millis>1639153219819</millis>
  <nanos>840402</nanos>
  <sequence>30</sequence>
  <logger>org.uma.jmetal.util.JMetalLogger</logger>
  <level>INFO</level>
  <class>org.uma.jmetal.util.experiment.util.ExperimentAlgorithm</class>
  <method>runAlgorithm</method>
  <thread>19</thread>
  <message> Running algorithm: NSGAII, problem: kroABC100_2, run: 4, funFile: ExperimentosFinal/TSP/MultiObjective/kroABC100_2/data/NSGAII/FUN4.tsv</message>
</record>
<record>
  <date>2021-12-10T16:20:20.909180662Z</date>
  <millis>1639153220909</millis>
  <nanos>180662</nanos>
  <sequence>31</sequence>
  <logger>org.uma.jmetal.util.JMetalLogger</logger>
  <level>INFO</level>
  <class>org.uma.jmetal.util.experiment.util.ExperimentAlgorithm</class>
  <method>runAlgorithm</method>
  <thread>14</thread>
  <message>Execution time: algorithm Name[PAES_kroABC100_2_run6] | Total time: [96358ms]</message>
</record>
<record>
  <date>2021-12-10T16:20:20.917645253Z</date>
  <millis>1639153220917</millis>
  <nanos>645253</nanos>
  <sequence>32</sequence>
  <logger>org.uma.jmetal.util.JMetalLogger</logger>
  <level>INFO</level>
  <class>org.uma.jmetal.util.experiment.util.ExperimentAlgorithm</class>
  <method>runAlgorithm</method>
  <thread>14</thread>
  <message> Running algorithm: NSGAII, problem: kroABC100_2, run: 7, funFile: ExperimentosFinal/TSP/MultiObjective/kroABC100_2/data/NSGAII/FUN7.tsv</message>
</record>
<record>
  <date>2021-12-10T16:24:08.395952819Z</date>
  <millis>1639153448395</millis>
  <nanos>952819</nanos>
  <sequence>33</sequence>
  <logger>org.uma.jmetal.util.JMetalLogger</logger>
  <level>INFO</level>
  <class>org.uma.jmetal.util.experiment.util.ExperimentAlgorithm</class>
  <method>runAlgorithm</method>
  <thread>18</thread>
  <message>Execution time: algorithm Name[NSGAII_kroABC100_2_run15] | Total time: [325932ms]</message>
</record>
<record>
  <date>2021-12-10T16:24:08.399224489Z</date>
  <millis>1639153448399</millis>
  <nanos>224489</nanos>
  <sequence>34</sequence>
  <logger>org.uma.jmetal.util.JMetalLogger</logger>
  <level>INFO</level>
  <class>org.uma.jmetal.util.experiment.util.ExperimentAlgorithm</class>
  <method>runAlgorithm</method>
  <thread>18</thread>
  <message> Running algorithm: MOEAD, problem: kroABC100_2, run: 15, funFile: ExperimentosFinal/TSP/MultiObjective/kroABC100_2/data/MOEAD/FUN15.tsv</message>
</record>
<record>
  <date>2021-12-10T16:24:09.290481951Z</date>
  <millis>1639153449290</millis>
  <nanos>481951</nanos>
  <sequence>35</sequence>
  <logger>org.uma.jmetal.util.JMetalLogger</logger>
  <level>INFO</level>
  <class>org.uma.jmetal.util.experiment.util.ExperimentAlgorithm</class>
  <method>runAlgorithm</method>
  <thread>1</thread>
  <message>Execution time: algorithm Name[MOEAD_kroABC100_2_run13] | Total time: [311137ms]</message>
</record>
<record>
  <date>2021-12-10T16:24:09.293880043Z</date>
  <millis>1639153449293</millis>
  <nanos>880043</nanos>
  <sequence>36</sequence>
  <logger>org.uma.jmetal.util.JMetalLogger</logger>
  <level>INFO</level>
  <class>org.uma.jmetal.util.experiment.util.ExperimentAlgorithm</class>
  <method>runAlgorithm</method>
  <thread>1</thread>
  <message> Running algorithm: MOCELL, problem: kroABC100_2, run: 13, funFile: ExperimentosFinal/TSP/MultiObjective/kroABC100_2/data/MOCELL/FUN13.tsv</message>
</record>
</log>
