<?xml version="1.0" encoding="UTF-8" standalone="no"?>
<!DOCTYPE log SYSTEM "logger.dtd">
<log>
<record>
  <date>2021-12-08T12:35:03.786812497Z</date>
  <millis>1638966903786</millis>
  <nanos>812497</nanos>
  <sequence>0</sequence>
  <logger>org.uma.jmetal.util.JMetalLogger</logger>
  <level>INFO</level>
  <class>org.uma.jmetal.util.JMetalLogger</class>
  <method>configureLoggers</method>
  <thread>1</thread>
  <message>Loggers configured with null</message>
</record>
<record>
  <date>2021-12-08T12:35:03.977429892Z</date>
  <millis>1638966903977</millis>
  <nanos>429892</nanos>
  <sequence>1</sequence>
  <logger>org.uma.jmetal.util.JMetalLogger</logger>
  <level>INFO</level>
  <class>org.uma.jmetal.util.experiment.component.ExecuteAlgorithms</class>
  <method>run</method>
  <thread>1</thread>
  <message>ExecuteAlgorithms: Preparing output directory</message>
</record>
<record>
  <date>2021-12-08T12:35:04.064921236Z</date>
  <millis>1638966904064</millis>
  <nanos>921236</nanos>
  <sequence>2</sequence>
  <logger>org.uma.jmetal.util.JMetalLogger</logger>
  <level>INFO</level>
  <class>org.uma.jmetal.util.experiment.util.ExperimentAlgorithm</class>
  <method>runAlgorithm</method>
  <thread>19</thread>
  <message>Creating Experimentos/TSP/MultiObjective/kroAB100/data/PAES_p50_e6000000</message>
</record>
<record>
  <date>2021-12-08T12:35:04.065661212Z</date>
  <millis>1638966904065</millis>
  <nanos>661212</nanos>
  <sequence>3</sequence>
  <logger>org.uma.jmetal.util.JMetalLogger</logger>
  <level>INFO</level>
  <class>org.uma.jmetal.util.experiment.util.ExperimentAlgorithm</class>
  <method>runAlgorithm</method>
  <thread>19</thread>
  <message> Running algorithm: PAES_p50_e6000000, problem: kroAB100, run: 43, funFile: Experimentos/TSP/MultiObjective/kroAB100/data/PAES_p50_e6000000/FUN43.tsv</message>
</record>
<record>
  <date>2021-12-08T12:35:04.078847403Z</date>
  <millis>1638966904078</millis>
  <nanos>847403</nanos>
  <sequence>4</sequence>
  <logger>org.uma.jmetal.util.JMetalLogger</logger>
  <level>INFO</level>
  <class>org.uma.jmetal.util.experiment.util.ExperimentAlgorithm</class>
  <method>runAlgorithm</method>
  <thread>14</thread>
  <message>Creating Experimentos/TSP/MultiObjective/kroAB100/data/MOEAD_p300_e6000000</message>
</record>
<record>
  <date>2021-12-08T12:35:04.079448364Z</date>
  <millis>1638966904079</millis>
  <nanos>448364</nanos>
  <sequence>5</sequence>
  <logger>org.uma.jmetal.util.JMetalLogger</logger>
  <level>INFO</level>
  <class>org.uma.jmetal.util.experiment.util.ExperimentAlgorithm</class>
  <method>runAlgorithm</method>
  <thread>14</thread>
  <message> Running algorithm: MOEAD_p300_e6000000, problem: kroAB100, run: 31, funFile: Experimentos/TSP/MultiObjective/kroAB100/data/MOEAD_p300_e6000000/FUN31.tsv</message>
</record>
<record>
  <date>2021-12-08T12:35:04.097000681Z</date>
  <millis>1638966904097</millis>
  <nanos>681</nanos>
  <sequence>6</sequence>
  <logger>org.uma.jmetal.util.JMetalLogger</logger>
  <level>INFO</level>
  <class>org.uma.jmetal.util.experiment.util.ExperimentAlgorithm</class>
  <method>runAlgorithm</method>
  <thread>1</thread>
  <message>Creating Experimentos/TSP/MultiObjective/kroAB100/data/MOCELL_p16_e6000000</message>
</record>
<record>
  <date>2021-12-08T12:35:04.097561779Z</date>
  <millis>1638966904097</millis>
  <nanos>561779</nanos>
  <sequence>7</sequence>
  <logger>org.uma.jmetal.util.JMetalLogger</logger>
  <level>INFO</level>
  <class>org.uma.jmetal.util.experiment.util.ExperimentAlgorithm</class>
  <method>runAlgorithm</method>
  <thread>1</thread>
  <message> Running algorithm: MOCELL_p16_e6000000, problem: kroAB100, run: 65, funFile: Experimentos/TSP/MultiObjective/kroAB100/data/MOCELL_p16_e6000000/FUN65.tsv</message>
</record>
<record>
  <date>2021-12-08T12:35:04.099408483Z</date>
  <millis>1638966904099</millis>
  <nanos>408483</nanos>
  <sequence>8</sequence>
  <logger>org.uma.jmetal.util.JMetalLogger</logger>
  <level>INFO</level>
  <class>org.uma.jmetal.util.experiment.util.ExperimentAlgorithm</class>
  <method>runAlgorithm</method>
  <thread>17</thread>
  <message>Creating Experimentos/TSP/MultiObjective/kroAB100/data/NSGAII_p20_e6000000</message>
</record>
<record>
  <date>2021-12-08T12:35:04.100489066Z</date>
  <millis>1638966904100</millis>
  <nanos>489066</nanos>
  <sequence>9</sequence>
  <logger>org.uma.jmetal.util.JMetalLogger</logger>
  <level>INFO</level>
  <class>org.uma.jmetal.util.experiment.util.ExperimentAlgorithm</class>
  <method>runAlgorithm</method>
  <thread>17</thread>
  <message> Running algorithm: NSGAII_p20_e6000000, problem: kroAB100, run: 28, funFile: Experimentos/TSP/MultiObjective/kroAB100/data/NSGAII_p20_e6000000/FUN28.tsv</message>
</record>
<record>
  <date>2021-12-08T12:35:04.109679025Z</date>
  <millis>1638966904109</millis>
  <nanos>679025</nanos>
  <sequence>10</sequence>
  <logger>org.uma.jmetal.util.JMetalLogger</logger>
  <level>INFO</level>
  <class>org.uma.jmetal.util.experiment.util.ExperimentAlgorithm</class>
  <method>runAlgorithm</method>
  <thread>21</thread>
  <message> Running algorithm: MOCELL_p16_e6000000, problem: kroAB100, run: 40, funFile: Experimentos/TSP/MultiObjective/kroAB100/data/MOCELL_p16_e6000000/FUN40.tsv</message>
</record>
<record>
  <date>2021-12-08T12:35:04.124702932Z</date>
  <millis>1638966904124</millis>
  <nanos>702932</nanos>
  <sequence>11</sequence>
  <logger>org.uma.jmetal.util.JMetalLogger</logger>
  <level>INFO</level>
  <class>org.uma.jmetal.util.experiment.util.ExperimentAlgorithm</class>
  <method>runAlgorithm</method>
  <thread>16</thread>
  <message> Running algorithm: MOCELL_p16_e6000000, problem: kroAB100, run: 15, funFile: Experimentos/TSP/MultiObjective/kroAB100/data/MOCELL_p16_e6000000/FUN15.tsv</message>
</record>
<record>
  <date>2021-12-08T12:35:04.128695606Z</date>
  <millis>1638966904128</millis>
  <nanos>695606</nanos>
  <sequence>12</sequence>
  <logger>org.uma.jmetal.util.JMetalLogger</logger>
  <level>INFO</level>
  <class>org.uma.jmetal.util.experiment.util.ExperimentAlgorithm</class>
  <method>runAlgorithm</method>
  <thread>20</thread>
  <message> Running algorithm: NSGAII_p20_e6000000, problem: kroAB100, run: 25, funFile: Experimentos/TSP/MultiObjective/kroAB100/data/NSGAII_p20_e6000000/FUN25.tsv</message>
</record>
<record>
  <date>2021-12-08T12:35:04.148778243Z</date>
  <millis>1638966904148</millis>
  <nanos>778243</nanos>
  <sequence>13</sequence>
  <logger>org.uma.jmetal.util.JMetalLogger</logger>
  <level>INFO</level>
  <class>org.uma.jmetal.util.experiment.util.ExperimentAlgorithm</class>
  <method>runAlgorithm</method>
  <thread>15</thread>
  <message> Running algorithm: MOCELL_p16_e6000000, problem: kroAB100, run: 90, funFile: Experimentos/TSP/MultiObjective/kroAB100/data/MOCELL_p16_e6000000/FUN90.tsv</message>
</record>
<record>
  <date>2021-12-08T12:35:04.160730148Z</date>
  <millis>1638966904160</millis>
  <nanos>730148</nanos>
  <sequence>14</sequence>
  <logger>org.uma.jmetal.util.JMetalLogger</logger>
  <level>INFO</level>
  <class>org.uma.jmetal.util.experiment.util.ExperimentAlgorithm</class>
  <method>runAlgorithm</method>
  <thread>18</thread>
  <message> Running algorithm: MOEAD_p300_e6000000, problem: kroAB100, run: 48, funFile: Experimentos/TSP/MultiObjective/kroAB100/data/MOEAD_p300_e6000000/FUN48.tsv</message>
</record>
<record>
  <date>2021-12-08T12:36:14.188001552Z</date>
  <millis>1638966974188</millis>
  <nanos>1552</nanos>
  <sequence>15</sequence>
  <logger>org.uma.jmetal.util.JMetalLogger</logger>
  <level>INFO</level>
  <class>org.uma.jmetal.util.experiment.util.ExperimentAlgorithm</class>
  <method>runAlgorithm</method>
  <thread>19</thread>
  <message>Execution time: algorithm Name[PAES_p50_e6000000_kroAB100_run43] | Total time: [70121ms]</message>
</record>
<record>
  <date>2021-12-08T12:36:14.252893808Z</date>
  <millis>1638966974252</millis>
  <nanos>893808</nanos>
  <sequence>16</sequence>
  <logger>org.uma.jmetal.util.JMetalLogger</logger>
  <level>INFO</level>
  <class>org.uma.jmetal.util.experiment.util.ExperimentAlgorithm</class>
  <method>runAlgorithm</method>
  <thread>19</thread>
  <message> Running algorithm: NSGAII_p20_e6000000, problem: kroAB100, run: 44, funFile: Experimentos/TSP/MultiObjective/kroAB100/data/NSGAII_p20_e6000000/FUN44.tsv</message>
</record>
<record>
  <date>2021-12-08T12:37:30.173080626Z</date>
  <millis>1638967050173</millis>
  <nanos>80626</nanos>
  <sequence>17</sequence>
  <logger>org.uma.jmetal.util.JMetalLogger</logger>
  <level>INFO</level>
  <class>org.uma.jmetal.util.experiment.util.ExperimentAlgorithm</class>
  <method>runAlgorithm</method>
  <thread>17</thread>
  <message>Execution time: algorithm Name[NSGAII_p20_e6000000_kroAB100_run28] | Total time: [146061ms]</message>
</record>
<record>
  <date>2021-12-08T12:37:30.184653815Z</date>
  <millis>1638967050184</millis>
  <nanos>653815</nanos>
  <sequence>18</sequence>
  <logger>org.uma.jmetal.util.JMetalLogger</logger>
  <level>INFO</level>
  <class>org.uma.jmetal.util.experiment.util.ExperimentAlgorithm</class>
  <method>runAlgorithm</method>
  <thread>17</thread>
  <message> Running algorithm: MOEAD_p300_e6000000, problem: kroAB100, run: 28, funFile: Experimentos/TSP/MultiObjective/kroAB100/data/MOEAD_p300_e6000000/FUN28.tsv</message>
</record>
<record>
  <date>2021-12-08T12:37:30.504211455Z</date>
  <millis>1638967050504</millis>
  <nanos>211455</nanos>
  <sequence>19</sequence>
  <logger>org.uma.jmetal.util.JMetalLogger</logger>
  <level>INFO</level>
  <class>org.uma.jmetal.util.experiment.util.ExperimentAlgorithm</class>
  <method>runAlgorithm</method>
  <thread>20</thread>
  <message>Execution time: algorithm Name[NSGAII_p20_e6000000_kroAB100_run25] | Total time: [146375ms]</message>
</record>
<record>
  <date>2021-12-08T12:37:30.509238344Z</date>
  <millis>1638967050509</millis>
  <nanos>238344</nanos>
  <sequence>20</sequence>
  <logger>org.uma.jmetal.util.JMetalLogger</logger>
  <level>INFO</level>
  <class>org.uma.jmetal.util.experiment.util.ExperimentAlgorithm</class>
  <method>runAlgorithm</method>
  <thread>20</thread>
  <message> Running algorithm: MOEAD_p300_e6000000, problem: kroAB100, run: 25, funFile: Experimentos/TSP/MultiObjective/kroAB100/data/MOEAD_p300_e6000000/FUN25.tsv</message>
</record>
<record>
  <date>2021-12-08T12:38:37.148235392Z</date>
  <millis>1638967117148</millis>
  <nanos>235392</nanos>
  <sequence>21</sequence>
  <logger>org.uma.jmetal.util.JMetalLogger</logger>
  <level>INFO</level>
  <class>org.uma.jmetal.util.experiment.util.ExperimentAlgorithm</class>
  <method>runAlgorithm</method>
  <thread>19</thread>
  <message>Execution time: algorithm Name[NSGAII_p20_e6000000_kroAB100_run44] | Total time: [142894ms]</message>
</record>
<record>
  <date>2021-12-08T12:38:37.188650084Z</date>
  <millis>1638967117188</millis>
  <nanos>650084</nanos>
  <sequence>22</sequence>
  <logger>org.uma.jmetal.util.JMetalLogger</logger>
  <level>INFO</level>
  <class>org.uma.jmetal.util.experiment.util.ExperimentAlgorithm</class>
  <method>runAlgorithm</method>
  <thread>19</thread>
  <message> Running algorithm: MOEAD_p300_e6000000, problem: kroAB100, run: 44, funFile: Experimentos/TSP/MultiObjective/kroAB100/data/MOEAD_p300_e6000000/FUN44.tsv</message>
</record>
<record>
  <date>2021-12-08T12:41:39.720068289Z</date>
  <millis>1638967299720</millis>
  <nanos>68289</nanos>
  <sequence>23</sequence>
  <logger>org.uma.jmetal.util.JMetalLogger</logger>
  <level>INFO</level>
  <class>org.uma.jmetal.util.experiment.util.ExperimentAlgorithm</class>
  <method>runAlgorithm</method>
  <thread>21</thread>
  <message>Execution time: algorithm Name[MOCELL_p16_e6000000_kroAB100_run40] | Total time: [395607ms]</message>
</record>
<record>
  <date>2021-12-08T12:41:39.743297434Z</date>
  <millis>1638967299743</millis>
  <nanos>297434</nanos>
  <sequence>24</sequence>
  <logger>org.uma.jmetal.util.JMetalLogger</logger>
  <level>INFO</level>
  <class>org.uma.jmetal.util.experiment.util.ExperimentAlgorithm</class>
  <method>runAlgorithm</method>
  <thread>21</thread>
  <message> Running algorithm: PAES_p50_e6000000, problem: kroAB100, run: 40, funFile: Experimentos/TSP/MultiObjective/kroAB100/data/PAES_p50_e6000000/FUN40.tsv</message>
</record>
<record>
  <date>2021-12-08T12:41:40.679452080Z</date>
  <millis>1638967300679</millis>
  <nanos>452080</nanos>
  <sequence>25</sequence>
  <logger>org.uma.jmetal.util.JMetalLogger</logger>
  <level>INFO</level>
  <class>org.uma.jmetal.util.experiment.util.ExperimentAlgorithm</class>
  <method>runAlgorithm</method>
  <thread>16</thread>
  <message>Execution time: algorithm Name[MOCELL_p16_e6000000_kroAB100_run15] | Total time: [396554ms]</message>
</record>
<record>
  <date>2021-12-08T12:41:40.685212791Z</date>
  <millis>1638967300685</millis>
  <nanos>212791</nanos>
  <sequence>26</sequence>
  <logger>org.uma.jmetal.util.JMetalLogger</logger>
  <level>INFO</level>
  <class>org.uma.jmetal.util.experiment.util.ExperimentAlgorithm</class>
  <method>runAlgorithm</method>
  <thread>16</thread>
  <message> Running algorithm: PAES_p50_e6000000, problem: kroAB100, run: 15, funFile: Experimentos/TSP/MultiObjective/kroAB100/data/PAES_p50_e6000000/FUN15.tsv</message>
</record>
<record>
  <date>2021-12-08T12:41:41.293497557Z</date>
  <millis>1638967301293</millis>
  <nanos>497557</nanos>
  <sequence>27</sequence>
  <logger>org.uma.jmetal.util.JMetalLogger</logger>
  <level>INFO</level>
  <class>org.uma.jmetal.util.experiment.util.ExperimentAlgorithm</class>
  <method>runAlgorithm</method>
  <thread>15</thread>
  <message>Execution time: algorithm Name[MOCELL_p16_e6000000_kroAB100_run90] | Total time: [397144ms]</message>
</record>
<record>
  <date>2021-12-08T12:41:41.294626524Z</date>
  <millis>1638967301294</millis>
  <nanos>626524</nanos>
  <sequence>28</sequence>
  <logger>org.uma.jmetal.util.JMetalLogger</logger>
  <level>INFO</level>
  <class>org.uma.jmetal.util.experiment.util.ExperimentAlgorithm</class>
  <method>runAlgorithm</method>
  <thread>15</thread>
  <message> Running algorithm: PAES_p50_e6000000, problem: kroAB100, run: 90, funFile: Experimentos/TSP/MultiObjective/kroAB100/data/PAES_p50_e6000000/FUN90.tsv</message>
</record>
<record>
  <date>2021-12-08T12:41:43.868686470Z</date>
  <millis>1638967303868</millis>
  <nanos>686470</nanos>
  <sequence>29</sequence>
  <logger>org.uma.jmetal.util.JMetalLogger</logger>
  <level>INFO</level>
  <class>org.uma.jmetal.util.experiment.util.ExperimentAlgorithm</class>
  <method>runAlgorithm</method>
  <thread>1</thread>
  <message>Execution time: algorithm Name[MOCELL_p16_e6000000_kroAB100_run65] | Total time: [399771ms]</message>
</record>
<record>
  <date>2021-12-08T12:41:43.870115799Z</date>
  <millis>1638967303870</millis>
  <nanos>115799</nanos>
  <sequence>30</sequence>
  <logger>org.uma.jmetal.util.JMetalLogger</logger>
  <level>INFO</level>
  <class>org.uma.jmetal.util.experiment.util.ExperimentAlgorithm</class>
  <method>runAlgorithm</method>
  <thread>1</thread>
  <message> Running algorithm: PAES_p50_e6000000, problem: kroAB100, run: 65, funFile: Experimentos/TSP/MultiObjective/kroAB100/data/PAES_p50_e6000000/FUN65.tsv</message>
</record>
<record>
  <date>2021-12-08T12:42:12.224131539Z</date>
  <millis>1638967332224</millis>
  <nanos>131539</nanos>
  <sequence>31</sequence>
  <logger>org.uma.jmetal.util.JMetalLogger</logger>
  <level>INFO</level>
  <class>org.uma.jmetal.util.experiment.util.ExperimentAlgorithm</class>
  <method>runAlgorithm</method>
  <thread>18</thread>
  <message>Execution time: algorithm Name[MOEAD_p300_e6000000_kroAB100_run48] | Total time: [428063ms]</message>
</record>
<record>
  <date>2021-12-08T12:42:12.296710706Z</date>
  <millis>1638967332296</millis>
  <nanos>710706</nanos>
  <sequence>32</sequence>
  <logger>org.uma.jmetal.util.JMetalLogger</logger>
  <level>INFO</level>
  <class>org.uma.jmetal.util.experiment.util.ExperimentAlgorithm</class>
  <method>runAlgorithm</method>
  <thread>18</thread>
  <message> Running algorithm: MOCELL_p16_e6000000, problem: kroAB100, run: 48, funFile: Experimentos/TSP/MultiObjective/kroAB100/data/MOCELL_p16_e6000000/FUN48.tsv</message>
</record>
<record>
  <date>2021-12-08T12:42:18.854806211Z</date>
  <millis>1638967338854</millis>
  <nanos>806211</nanos>
  <sequence>33</sequence>
  <logger>org.uma.jmetal.util.JMetalLogger</logger>
  <level>INFO</level>
  <class>org.uma.jmetal.util.experiment.util.ExperimentAlgorithm</class>
  <method>runAlgorithm</method>
  <thread>14</thread>
  <message>Execution time: algorithm Name[MOEAD_p300_e6000000_kroAB100_run31] | Total time: [434775ms]</message>
</record>
<record>
  <date>2021-12-08T12:42:18.894674353Z</date>
  <millis>1638967338894</millis>
  <nanos>674353</nanos>
  <sequence>34</sequence>
  <logger>org.uma.jmetal.util.JMetalLogger</logger>
  <level>INFO</level>
  <class>org.uma.jmetal.util.experiment.util.ExperimentAlgorithm</class>
  <method>runAlgorithm</method>
  <thread>14</thread>
  <message> Running algorithm: MOCELL_p16_e6000000, problem: kroAB100, run: 31, funFile: Experimentos/TSP/MultiObjective/kroAB100/data/MOCELL_p16_e6000000/FUN31.tsv</message>
</record>
<record>
  <date>2021-12-08T12:42:46.675366858Z</date>
  <millis>1638967366675</millis>
  <nanos>366858</nanos>
  <sequence>35</sequence>
  <logger>org.uma.jmetal.util.JMetalLogger</logger>
  <level>INFO</level>
  <class>org.uma.jmetal.util.experiment.util.ExperimentAlgorithm</class>
  <method>runAlgorithm</method>
  <thread>21</thread>
  <message>Execution time: algorithm Name[PAES_p50_e6000000_kroAB100_run40] | Total time: [66932ms]</message>
</record>
<record>
  <date>2021-12-08T12:42:46.692669491Z</date>
  <millis>1638967366692</millis>
  <nanos>669491</nanos>
  <sequence>37</sequence>
  <logger>org.uma.jmetal.util.JMetalLogger</logger>
  <level>INFO</level>
  <class>org.uma.jmetal.util.experiment.util.ExperimentAlgorithm</class>
  <method>runAlgorithm</method>
  <thread>21</thread>
  <message> Running algorithm: NSGAII_p20_e6000000, problem: kroAB100, run: 41, funFile: Experimentos/TSP/MultiObjective/kroAB100/data/NSGAII_p20_e6000000/FUN41.tsv</message>
</record>
<record>
  <date>2021-12-08T12:42:46.679236428Z</date>
  <millis>1638967366679</millis>
  <nanos>236428</nanos>
  <sequence>36</sequence>
  <logger>org.uma.jmetal.util.JMetalLogger</logger>
  <level>INFO</level>
  <class>org.uma.jmetal.util.experiment.util.ExperimentAlgorithm</class>
  <method>runAlgorithm</method>
  <thread>16</thread>
  <message>Execution time: algorithm Name[PAES_p50_e6000000_kroAB100_run15] | Total time: [65994ms]</message>
</record>
<record>
  <date>2021-12-08T12:42:46.698032002Z</date>
  <millis>1638967366698</millis>
  <nanos>32002</nanos>
  <sequence>38</sequence>
  <logger>org.uma.jmetal.util.JMetalLogger</logger>
  <level>INFO</level>
  <class>org.uma.jmetal.util.experiment.util.ExperimentAlgorithm</class>
  <method>runAlgorithm</method>
  <thread>16</thread>
  <message> Running algorithm: NSGAII_p20_e6000000, problem: kroAB100, run: 16, funFile: Experimentos/TSP/MultiObjective/kroAB100/data/NSGAII_p20_e6000000/FUN16.tsv</message>
</record>
<record>
  <date>2021-12-08T12:42:47.019758322Z</date>
  <millis>1638967367019</millis>
  <nanos>758322</nanos>
  <sequence>39</sequence>
  <logger>org.uma.jmetal.util.JMetalLogger</logger>
  <level>INFO</level>
  <class>org.uma.jmetal.util.experiment.util.ExperimentAlgorithm</class>
  <method>runAlgorithm</method>
  <thread>15</thread>
  <message>Execution time: algorithm Name[PAES_p50_e6000000_kroAB100_run90] | Total time: [65725ms]</message>
</record>
<record>
  <date>2021-12-08T12:42:47.044661967Z</date>
  <millis>1638967367044</millis>
  <nanos>661967</nanos>
  <sequence>40</sequence>
  <logger>org.uma.jmetal.util.JMetalLogger</logger>
  <level>INFO</level>
  <class>org.uma.jmetal.util.experiment.util.ExperimentAlgorithm</class>
  <method>runAlgorithm</method>
  <thread>15</thread>
  <message> Running algorithm: NSGAII_p20_e6000000, problem: kroAB100, run: 91, funFile: Experimentos/TSP/MultiObjective/kroAB100/data/NSGAII_p20_e6000000/FUN91.tsv</message>
</record>
<record>
  <date>2021-12-08T12:42:51.763479611Z</date>
  <millis>1638967371763</millis>
  <nanos>479611</nanos>
  <sequence>41</sequence>
  <logger>org.uma.jmetal.util.JMetalLogger</logger>
  <level>INFO</level>
  <class>org.uma.jmetal.util.experiment.util.ExperimentAlgorithm</class>
  <method>runAlgorithm</method>
  <thread>1</thread>
  <message>Execution time: algorithm Name[PAES_p50_e6000000_kroAB100_run65] | Total time: [67893ms]</message>
</record>
<record>
  <date>2021-12-08T12:42:51.806673845Z</date>
  <millis>1638967371806</millis>
  <nanos>673845</nanos>
  <sequence>42</sequence>
  <logger>org.uma.jmetal.util.JMetalLogger</logger>
  <level>INFO</level>
  <class>org.uma.jmetal.util.experiment.util.ExperimentAlgorithm</class>
  <method>runAlgorithm</method>
  <thread>1</thread>
  <message> Running algorithm: NSGAII_p20_e6000000, problem: kroAB100, run: 66, funFile: Experimentos/TSP/MultiObjective/kroAB100/data/NSGAII_p20_e6000000/FUN66.tsv</message>
</record>
<record>
  <date>2021-12-08T12:44:35.895026080Z</date>
  <millis>1638967475895</millis>
  <nanos>26080</nanos>
  <sequence>43</sequence>
  <logger>org.uma.jmetal.util.JMetalLogger</logger>
  <level>INFO</level>
  <class>org.uma.jmetal.util.experiment.util.ExperimentAlgorithm</class>
  <method>runAlgorithm</method>
  <thread>17</thread>
  <message>Execution time: algorithm Name[MOEAD_p300_e6000000_kroAB100_run28] | Total time: [425705ms]</message>
</record>
<record>
  <date>2021-12-08T12:44:35.936632958Z</date>
  <millis>1638967475936</millis>
  <nanos>632958</nanos>
  <sequence>44</sequence>
  <logger>org.uma.jmetal.util.JMetalLogger</logger>
  <level>INFO</level>
  <class>org.uma.jmetal.util.experiment.util.ExperimentAlgorithm</class>
  <method>runAlgorithm</method>
  <thread>17</thread>
  <message> Running algorithm: MOCELL_p16_e6000000, problem: kroAB100, run: 28, funFile: Experimentos/TSP/MultiObjective/kroAB100/data/MOCELL_p16_e6000000/FUN28.tsv</message>
</record>
<record>
  <date>2021-12-08T12:44:36.658811528Z</date>
  <millis>1638967476658</millis>
  <nanos>811528</nanos>
  <sequence>45</sequence>
  <logger>org.uma.jmetal.util.JMetalLogger</logger>
  <level>INFO</level>
  <class>org.uma.jmetal.util.experiment.util.ExperimentAlgorithm</class>
  <method>runAlgorithm</method>
  <thread>20</thread>
  <message>Execution time: algorithm Name[MOEAD_p300_e6000000_kroAB100_run25] | Total time: [426146ms]</message>
</record>
<record>
  <date>2021-12-08T12:44:36.694057586Z</date>
  <millis>1638967476694</millis>
  <nanos>57586</nanos>
  <sequence>46</sequence>
  <logger>org.uma.jmetal.util.JMetalLogger</logger>
  <level>INFO</level>
  <class>org.uma.jmetal.util.experiment.util.ExperimentAlgorithm</class>
  <method>runAlgorithm</method>
  <thread>20</thread>
  <message> Running algorithm: MOCELL_p16_e6000000, problem: kroAB100, run: 25, funFile: Experimentos/TSP/MultiObjective/kroAB100/data/MOCELL_p16_e6000000/FUN25.tsv</message>
</record>
<record>
  <date>2021-12-08T12:45:06.396341494Z</date>
  <millis>1638967506396</millis>
  <nanos>341494</nanos>
  <sequence>47</sequence>
  <logger>org.uma.jmetal.util.JMetalLogger</logger>
  <level>INFO</level>
  <class>org.uma.jmetal.util.experiment.util.ExperimentAlgorithm</class>
  <method>runAlgorithm</method>
  <thread>21</thread>
  <message>Execution time: algorithm Name[NSGAII_p20_e6000000_kroAB100_run41] | Total time: [139703ms]</message>
</record>
<record>
  <date>2021-12-08T12:45:06.424788366Z</date>
  <millis>1638967506424</millis>
  <nanos>788366</nanos>
  <sequence>48</sequence>
  <logger>org.uma.jmetal.util.JMetalLogger</logger>
  <level>INFO</level>
  <class>org.uma.jmetal.util.experiment.util.ExperimentAlgorithm</class>
  <method>runAlgorithm</method>
  <thread>21</thread>
  <message> Running algorithm: MOEAD_p300_e6000000, problem: kroAB100, run: 41, funFile: Experimentos/TSP/MultiObjective/kroAB100/data/MOEAD_p300_e6000000/FUN41.tsv</message>
</record>
<record>
  <date>2021-12-08T12:45:08.540233245Z</date>
  <millis>1638967508540</millis>
  <nanos>233245</nanos>
  <sequence>49</sequence>
  <logger>org.uma.jmetal.util.JMetalLogger</logger>
  <level>INFO</level>
  <class>org.uma.jmetal.util.experiment.util.ExperimentAlgorithm</class>
  <method>runAlgorithm</method>
  <thread>16</thread>
  <message>Execution time: algorithm Name[NSGAII_p20_e6000000_kroAB100_run16] | Total time: [141842ms]</message>
</record>
<record>
  <date>2021-12-08T12:45:08.556627130Z</date>
  <millis>1638967508556</millis>
  <nanos>627130</nanos>
  <sequence>50</sequence>
  <logger>org.uma.jmetal.util.JMetalLogger</logger>
  <level>INFO</level>
  <class>org.uma.jmetal.util.experiment.util.ExperimentAlgorithm</class>
  <method>runAlgorithm</method>
  <thread>16</thread>
  <message> Running algorithm: MOEAD_p300_e6000000, problem: kroAB100, run: 16, funFile: Experimentos/TSP/MultiObjective/kroAB100/data/MOEAD_p300_e6000000/FUN16.tsv</message>
</record>
<record>
  <date>2021-12-08T12:45:10.837177622Z</date>
  <millis>1638967510837</millis>
  <nanos>177622</nanos>
  <sequence>51</sequence>
  <logger>org.uma.jmetal.util.JMetalLogger</logger>
  <level>INFO</level>
  <class>org.uma.jmetal.util.experiment.util.ExperimentAlgorithm</class>
  <method>runAlgorithm</method>
  <thread>15</thread>
  <message>Execution time: algorithm Name[NSGAII_p20_e6000000_kroAB100_run91] | Total time: [143792ms]</message>
</record>
<record>
  <date>2021-12-08T12:45:10.840872439Z</date>
  <millis>1638967510840</millis>
  <nanos>872439</nanos>
  <sequence>52</sequence>
  <logger>org.uma.jmetal.util.JMetalLogger</logger>
  <level>INFO</level>
  <class>org.uma.jmetal.util.experiment.util.ExperimentAlgorithm</class>
  <method>runAlgorithm</method>
  <thread>15</thread>
  <message> Running algorithm: MOEAD_p300_e6000000, problem: kroAB100, run: 91, funFile: Experimentos/TSP/MultiObjective/kroAB100/data/MOEAD_p300_e6000000/FUN91.tsv</message>
</record>
<record>
  <date>2021-12-08T12:45:13.587178006Z</date>
  <millis>1638967513587</millis>
  <nanos>178006</nanos>
  <sequence>53</sequence>
  <logger>org.uma.jmetal.util.JMetalLogger</logger>
  <level>INFO</level>
  <class>org.uma.jmetal.util.experiment.util.ExperimentAlgorithm</class>
  <method>runAlgorithm</method>
  <thread>1</thread>
  <message>Execution time: algorithm Name[NSGAII_p20_e6000000_kroAB100_run66] | Total time: [141780ms]</message>
</record>
<record>
  <date>2021-12-08T12:45:13.589011635Z</date>
  <millis>1638967513589</millis>
  <nanos>11635</nanos>
  <sequence>54</sequence>
  <logger>org.uma.jmetal.util.JMetalLogger</logger>
  <level>INFO</level>
  <class>org.uma.jmetal.util.experiment.util.ExperimentAlgorithm</class>
  <method>runAlgorithm</method>
  <thread>1</thread>
  <message> Running algorithm: MOEAD_p300_e6000000, problem: kroAB100, run: 66, funFile: Experimentos/TSP/MultiObjective/kroAB100/data/MOEAD_p300_e6000000/FUN66.tsv</message>
</record>
<record>
  <date>2021-12-08T12:45:44.219566758Z</date>
  <millis>1638967544219</millis>
  <nanos>566758</nanos>
  <sequence>55</sequence>
  <logger>org.uma.jmetal.util.JMetalLogger</logger>
  <level>INFO</level>
  <class>org.uma.jmetal.util.experiment.util.ExperimentAlgorithm</class>
  <method>runAlgorithm</method>
  <thread>19</thread>
  <message>Execution time: algorithm Name[MOEAD_p300_e6000000_kroAB100_run44] | Total time: [427030ms]</message>
</record>
<record>
  <date>2021-12-08T12:45:44.264885923Z</date>
  <millis>1638967544264</millis>
  <nanos>885923</nanos>
  <sequence>56</sequence>
  <logger>org.uma.jmetal.util.JMetalLogger</logger>
  <level>INFO</level>
  <class>org.uma.jmetal.util.experiment.util.ExperimentAlgorithm</class>
  <method>runAlgorithm</method>
  <thread>19</thread>
  <message> Running algorithm: MOCELL_p16_e6000000, problem: kroAB100, run: 44, funFile: Experimentos/TSP/MultiObjective/kroAB100/data/MOCELL_p16_e6000000/FUN44.tsv</message>
</record>
<record>
  <date>2021-12-08T12:48:44.183373775Z</date>
  <millis>1638967724183</millis>
  <nanos>373775</nanos>
  <sequence>57</sequence>
  <logger>org.uma.jmetal.util.JMetalLogger</logger>
  <level>INFO</level>
  <class>org.uma.jmetal.util.experiment.util.ExperimentAlgorithm</class>
  <method>runAlgorithm</method>
  <thread>18</thread>
  <message>Execution time: algorithm Name[MOCELL_p16_e6000000_kroAB100_run48] | Total time: [391886ms]</message>
</record>
<record>
  <date>2021-12-08T12:48:44.202174022Z</date>
  <millis>1638967724202</millis>
  <nanos>174022</nanos>
  <sequence>58</sequence>
  <logger>org.uma.jmetal.util.JMetalLogger</logger>
  <level>INFO</level>
  <class>org.uma.jmetal.util.experiment.util.ExperimentAlgorithm</class>
  <method>runAlgorithm</method>
  <thread>18</thread>
  <message> Running algorithm: PAES_p50_e6000000, problem: kroAB100, run: 48, funFile: Experimentos/TSP/MultiObjective/kroAB100/data/PAES_p50_e6000000/FUN48.tsv</message>
</record>
<record>
  <date>2021-12-08T12:48:49.463840689Z</date>
  <millis>1638967729463</millis>
  <nanos>840689</nanos>
  <sequence>59</sequence>
  <logger>org.uma.jmetal.util.JMetalLogger</logger>
  <level>INFO</level>
  <class>org.uma.jmetal.util.experiment.util.ExperimentAlgorithm</class>
  <method>runAlgorithm</method>
  <thread>14</thread>
  <message>Execution time: algorithm Name[MOCELL_p16_e6000000_kroAB100_run31] | Total time: [390568ms]</message>
</record>
<record>
  <date>2021-12-08T12:48:49.464782720Z</date>
  <millis>1638967729464</millis>
  <nanos>782720</nanos>
  <sequence>60</sequence>
  <logger>org.uma.jmetal.util.JMetalLogger</logger>
  <level>INFO</level>
  <class>org.uma.jmetal.util.experiment.util.ExperimentAlgorithm</class>
  <method>runAlgorithm</method>
  <thread>14</thread>
  <message> Running algorithm: PAES_p50_e6000000, problem: kroAB100, run: 31, funFile: Experimentos/TSP/MultiObjective/kroAB100/data/PAES_p50_e6000000/FUN31.tsv</message>
</record>
<record>
  <date>2021-12-08T12:49:50.052972966Z</date>
  <millis>1638967790052</millis>
  <nanos>972966</nanos>
  <sequence>61</sequence>
  <logger>org.uma.jmetal.util.JMetalLogger</logger>
  <level>INFO</level>
  <class>org.uma.jmetal.util.experiment.util.ExperimentAlgorithm</class>
  <method>runAlgorithm</method>
  <thread>18</thread>
  <message>Execution time: algorithm Name[PAES_p50_e6000000_kroAB100_run48] | Total time: [65846ms]</message>
</record>
<record>
  <date>2021-12-08T12:49:50.085975145Z</date>
  <millis>1638967790085</millis>
  <nanos>975145</nanos>
  <sequence>62</sequence>
  <logger>org.uma.jmetal.util.JMetalLogger</logger>
  <level>INFO</level>
  <class>org.uma.jmetal.util.experiment.util.ExperimentAlgorithm</class>
  <method>runAlgorithm</method>
  <thread>18</thread>
  <message> Running algorithm: NSGAII_p20_e6000000, problem: kroAB100, run: 49, funFile: Experimentos/TSP/MultiObjective/kroAB100/data/NSGAII_p20_e6000000/FUN49.tsv</message>
</record>
<record>
  <date>2021-12-08T12:49:55.446516195Z</date>
  <millis>1638967795446</millis>
  <nanos>516195</nanos>
  <sequence>63</sequence>
  <logger>org.uma.jmetal.util.JMetalLogger</logger>
  <level>INFO</level>
  <class>org.uma.jmetal.util.experiment.util.ExperimentAlgorithm</class>
  <method>runAlgorithm</method>
  <thread>14</thread>
  <message>Execution time: algorithm Name[PAES_p50_e6000000_kroAB100_run31] | Total time: [65981ms]</message>
</record>
<record>
  <date>2021-12-08T12:49:55.455217321Z</date>
  <millis>1638967795455</millis>
  <nanos>217321</nanos>
  <sequence>64</sequence>
  <logger>org.uma.jmetal.util.JMetalLogger</logger>
  <level>INFO</level>
  <class>org.uma.jmetal.util.experiment.util.ExperimentAlgorithm</class>
  <method>runAlgorithm</method>
  <thread>14</thread>
  <message> Running algorithm: NSGAII_p20_e6000000, problem: kroAB100, run: 32, funFile: Experimentos/TSP/MultiObjective/kroAB100/data/NSGAII_p20_e6000000/FUN32.tsv</message>
</record>
<record>
  <date>2021-12-08T12:51:04.780593919Z</date>
  <millis>1638967864780</millis>
  <nanos>593919</nanos>
  <sequence>65</sequence>
  <logger>org.uma.jmetal.util.JMetalLogger</logger>
  <level>INFO</level>
  <class>org.uma.jmetal.util.experiment.util.ExperimentAlgorithm</class>
  <method>runAlgorithm</method>
  <thread>20</thread>
  <message>Execution time: algorithm Name[MOCELL_p16_e6000000_kroAB100_run25] | Total time: [388086ms]</message>
</record>
<record>
  <date>2021-12-08T12:51:04.794706945Z</date>
  <millis>1638967864794</millis>
  <nanos>706945</nanos>
  <sequence>66</sequence>
  <logger>org.uma.jmetal.util.JMetalLogger</logger>
  <level>INFO</level>
  <class>org.uma.jmetal.util.experiment.util.ExperimentAlgorithm</class>
  <method>runAlgorithm</method>
  <thread>20</thread>
  <message> Running algorithm: PAES_p50_e6000000, problem: kroAB100, run: 25, funFile: Experimentos/TSP/MultiObjective/kroAB100/data/PAES_p50_e6000000/FUN25.tsv</message>
</record>
<record>
  <date>2021-12-08T12:51:07.035645482Z</date>
  <millis>1638967867035</millis>
  <nanos>645482</nanos>
  <sequence>67</sequence>
  <logger>org.uma.jmetal.util.JMetalLogger</logger>
  <level>INFO</level>
  <class>org.uma.jmetal.util.experiment.util.ExperimentAlgorithm</class>
  <method>runAlgorithm</method>
  <thread>17</thread>
  <message>Execution time: algorithm Name[MOCELL_p16_e6000000_kroAB100_run28] | Total time: [391098ms]</message>
</record>
<record>
  <date>2021-12-08T12:51:07.051100964Z</date>
  <millis>1638967867051</millis>
  <nanos>100964</nanos>
  <sequence>68</sequence>
  <logger>org.uma.jmetal.util.JMetalLogger</logger>
  <level>INFO</level>
  <class>org.uma.jmetal.util.experiment.util.ExperimentAlgorithm</class>
  <method>runAlgorithm</method>
  <thread>17</thread>
  <message> Running algorithm: PAES_p50_e6000000, problem: kroAB100, run: 28, funFile: Experimentos/TSP/MultiObjective/kroAB100/data/PAES_p50_e6000000/FUN28.tsv</message>
</record>
<record>
  <date>2021-12-08T12:52:10.328369610Z</date>
  <millis>1638967930328</millis>
  <nanos>369610</nanos>
  <sequence>69</sequence>
  <logger>org.uma.jmetal.util.JMetalLogger</logger>
  <level>INFO</level>
  <class>org.uma.jmetal.util.experiment.util.ExperimentAlgorithm</class>
  <method>runAlgorithm</method>
  <thread>20</thread>
  <message>Execution time: algorithm Name[PAES_p50_e6000000_kroAB100_run25] | Total time: [65533ms]</message>
</record>
<record>
  <date>2021-12-08T12:52:10.362358553Z</date>
  <millis>1638967930362</millis>
  <nanos>358553</nanos>
  <sequence>70</sequence>
  <logger>org.uma.jmetal.util.JMetalLogger</logger>
  <level>INFO</level>
  <class>org.uma.jmetal.util.experiment.util.ExperimentAlgorithm</class>
  <method>runAlgorithm</method>
  <thread>20</thread>
  <message> Running algorithm: NSGAII_p20_e6000000, problem: kroAB100, run: 26, funFile: Experimentos/TSP/MultiObjective/kroAB100/data/NSGAII_p20_e6000000/FUN26.tsv</message>
</record>
<record>
  <date>2021-12-08T12:52:11.156498094Z</date>
  <millis>1638967931156</millis>
  <nanos>498094</nanos>
  <sequence>71</sequence>
  <logger>org.uma.jmetal.util.JMetalLogger</logger>
  <level>INFO</level>
  <class>org.uma.jmetal.util.experiment.util.ExperimentAlgorithm</class>
  <method>runAlgorithm</method>
  <thread>21</thread>
  <message>Execution time: algorithm Name[MOEAD_p300_e6000000_kroAB100_run41] | Total time: [424727ms]</message>
</record>
<record>
  <date>2021-12-08T12:52:11.186956211Z</date>
  <millis>1638967931186</millis>
  <nanos>956211</nanos>
  <sequence>72</sequence>
  <logger>org.uma.jmetal.util.JMetalLogger</logger>
  <level>INFO</level>
  <class>org.uma.jmetal.util.experiment.util.ExperimentAlgorithm</class>
  <method>runAlgorithm</method>
  <thread>21</thread>
  <message> Running algorithm: MOCELL_p16_e6000000, problem: kroAB100, run: 41, funFile: Experimentos/TSP/MultiObjective/kroAB100/data/MOCELL_p16_e6000000/FUN41.tsv</message>
</record>
<record>
  <date>2021-12-08T12:52:11.479186733Z</date>
  <millis>1638967931479</millis>
  <nanos>186733</nanos>
  <sequence>73</sequence>
  <logger>org.uma.jmetal.util.JMetalLogger</logger>
  <level>INFO</level>
  <class>org.uma.jmetal.util.experiment.util.ExperimentAlgorithm</class>
  <method>runAlgorithm</method>
  <thread>17</thread>
  <message>Execution time: algorithm Name[PAES_p50_e6000000_kroAB100_run28] | Total time: [64421ms]</message>
</record>
<record>
  <date>2021-12-08T12:52:11.480053816Z</date>
  <millis>1638967931480</millis>
  <nanos>53816</nanos>
  <sequence>74</sequence>
  <logger>org.uma.jmetal.util.JMetalLogger</logger>
  <level>INFO</level>
  <class>org.uma.jmetal.util.experiment.util.ExperimentAlgorithm</class>
  <method>runAlgorithm</method>
  <thread>17</thread>
  <message> Running algorithm: NSGAII_p20_e6000000, problem: kroAB100, run: 29, funFile: Experimentos/TSP/MultiObjective/kroAB100/data/NSGAII_p20_e6000000/FUN29.tsv</message>
</record>
<record>
  <date>2021-12-08T12:52:11.862229840Z</date>
  <millis>1638967931862</millis>
  <nanos>229840</nanos>
  <sequence>75</sequence>
  <logger>org.uma.jmetal.util.JMetalLogger</logger>
  <level>INFO</level>
  <class>org.uma.jmetal.util.experiment.util.ExperimentAlgorithm</class>
  <method>runAlgorithm</method>
  <thread>18</thread>
  <message>Execution time: algorithm Name[NSGAII_p20_e6000000_kroAB100_run49] | Total time: [141767ms]</message>
</record>
<record>
  <date>2021-12-08T12:52:11.863106122Z</date>
  <millis>1638967931863</millis>
  <nanos>106122</nanos>
  <sequence>76</sequence>
  <logger>org.uma.jmetal.util.JMetalLogger</logger>
  <level>INFO</level>
  <class>org.uma.jmetal.util.experiment.util.ExperimentAlgorithm</class>
  <method>runAlgorithm</method>
  <thread>18</thread>
  <message> Running algorithm: MOEAD_p300_e6000000, problem: kroAB100, run: 49, funFile: Experimentos/TSP/MultiObjective/kroAB100/data/MOEAD_p300_e6000000/FUN49.tsv</message>
</record>
<record>
  <date>2021-12-08T12:52:13.158547605Z</date>
  <millis>1638967933158</millis>
  <nanos>547605</nanos>
  <sequence>77</sequence>
  <logger>org.uma.jmetal.util.JMetalLogger</logger>
  <level>INFO</level>
  <class>org.uma.jmetal.util.experiment.util.ExperimentAlgorithm</class>
  <method>runAlgorithm</method>
  <thread>19</thread>
  <message>Execution time: algorithm Name[MOCELL_p16_e6000000_kroAB100_run44] | Total time: [388893ms]</message>
</record>
<record>
  <date>2021-12-08T12:52:13.160168088Z</date>
  <millis>1638967933160</millis>
  <nanos>168088</nanos>
  <sequence>78</sequence>
  <logger>org.uma.jmetal.util.JMetalLogger</logger>
  <level>INFO</level>
  <class>org.uma.jmetal.util.experiment.util.ExperimentAlgorithm</class>
  <method>runAlgorithm</method>
  <thread>19</thread>
  <message> Running algorithm: PAES_p50_e6000000, problem: kroAB100, run: 44, funFile: Experimentos/TSP/MultiObjective/kroAB100/data/PAES_p50_e6000000/FUN44.tsv</message>
</record>
<record>
  <date>2021-12-08T12:52:14.799221001Z</date>
  <millis>1638967934799</millis>
  <nanos>221001</nanos>
  <sequence>79</sequence>
  <logger>org.uma.jmetal.util.JMetalLogger</logger>
  <level>INFO</level>
  <class>org.uma.jmetal.util.experiment.util.ExperimentAlgorithm</class>
  <method>runAlgorithm</method>
  <thread>16</thread>
  <message>Execution time: algorithm Name[MOEAD_p300_e6000000_kroAB100_run16] | Total time: [426242ms]</message>
</record>
<record>
  <date>2021-12-08T12:52:14.831740065Z</date>
  <millis>1638967934831</millis>
  <nanos>740065</nanos>
  <sequence>80</sequence>
  <logger>org.uma.jmetal.util.JMetalLogger</logger>
  <level>INFO</level>
  <class>org.uma.jmetal.util.experiment.util.ExperimentAlgorithm</class>
  <method>runAlgorithm</method>
  <thread>16</thread>
  <message> Running algorithm: MOCELL_p16_e6000000, problem: kroAB100, run: 16, funFile: Experimentos/TSP/MultiObjective/kroAB100/data/MOCELL_p16_e6000000/FUN16.tsv</message>
</record>
<record>
  <date>2021-12-08T12:52:15.016931208Z</date>
  <millis>1638967935016</millis>
  <nanos>931208</nanos>
  <sequence>81</sequence>
  <logger>org.uma.jmetal.util.JMetalLogger</logger>
  <level>INFO</level>
  <class>org.uma.jmetal.util.experiment.util.ExperimentAlgorithm</class>
  <method>runAlgorithm</method>
  <thread>15</thread>
  <message>Execution time: algorithm Name[MOEAD_p300_e6000000_kroAB100_run91] | Total time: [424168ms]</message>
</record>
<record>
  <date>2021-12-08T12:52:15.020099658Z</date>
  <millis>1638967935020</millis>
  <nanos>99658</nanos>
  <sequence>82</sequence>
  <logger>org.uma.jmetal.util.JMetalLogger</logger>
  <level>INFO</level>
  <class>org.uma.jmetal.util.experiment.util.ExperimentAlgorithm</class>
  <method>runAlgorithm</method>
  <thread>15</thread>
  <message> Running algorithm: MOCELL_p16_e6000000, problem: kroAB100, run: 91, funFile: Experimentos/TSP/MultiObjective/kroAB100/data/MOCELL_p16_e6000000/FUN91.tsv</message>
</record>
<record>
  <date>2021-12-08T12:52:16.095721166Z</date>
  <millis>1638967936095</millis>
  <nanos>721166</nanos>
  <sequence>83</sequence>
  <logger>org.uma.jmetal.util.JMetalLogger</logger>
  <level>INFO</level>
  <class>org.uma.jmetal.util.experiment.util.ExperimentAlgorithm</class>
  <method>runAlgorithm</method>
  <thread>14</thread>
  <message>Execution time: algorithm Name[NSGAII_p20_e6000000_kroAB100_run32] | Total time: [140640ms]</message>
</record>
<record>
  <date>2021-12-08T12:52:16.126929047Z</date>
  <millis>1638967936126</millis>
  <nanos>929047</nanos>
  <sequence>84</sequence>
  <logger>org.uma.jmetal.util.JMetalLogger</logger>
  <level>INFO</level>
  <class>org.uma.jmetal.util.experiment.util.ExperimentAlgorithm</class>
  <method>runAlgorithm</method>
  <thread>14</thread>
  <message> Running algorithm: MOEAD_p300_e6000000, problem: kroAB100, run: 32, funFile: Experimentos/TSP/MultiObjective/kroAB100/data/MOEAD_p300_e6000000/FUN32.tsv</message>
</record>
<record>
  <date>2021-12-08T12:52:16.410423126Z</date>
  <millis>1638967936410</millis>
  <nanos>423126</nanos>
  <sequence>85</sequence>
  <logger>org.uma.jmetal.util.JMetalLogger</logger>
  <level>INFO</level>
  <class>org.uma.jmetal.util.experiment.util.ExperimentAlgorithm</class>
  <method>runAlgorithm</method>
  <thread>1</thread>
  <message>Execution time: algorithm Name[MOEAD_p300_e6000000_kroAB100_run66] | Total time: [422816ms]</message>
</record>
<record>
  <date>2021-12-08T12:52:16.428014780Z</date>
  <millis>1638967936428</millis>
  <nanos>14780</nanos>
  <sequence>86</sequence>
  <logger>org.uma.jmetal.util.JMetalLogger</logger>
  <level>INFO</level>
  <class>org.uma.jmetal.util.experiment.util.ExperimentAlgorithm</class>
  <method>runAlgorithm</method>
  <thread>1</thread>
  <message> Running algorithm: MOCELL_p16_e6000000, problem: kroAB100, run: 66, funFile: Experimentos/TSP/MultiObjective/kroAB100/data/MOCELL_p16_e6000000/FUN66.tsv</message>
</record>
<record>
  <date>2021-12-08T12:53:18.974595702Z</date>
  <millis>1638967998974</millis>
  <nanos>595702</nanos>
  <sequence>87</sequence>
  <logger>org.uma.jmetal.util.JMetalLogger</logger>
  <level>INFO</level>
  <class>org.uma.jmetal.util.experiment.util.ExperimentAlgorithm</class>
  <method>runAlgorithm</method>
  <thread>19</thread>
  <message>Execution time: algorithm Name[PAES_p50_e6000000_kroAB100_run44] | Total time: [65814ms]</message>
</record>
<record>
  <date>2021-12-08T12:53:18.993109791Z</date>
  <millis>1638967998993</millis>
  <nanos>109791</nanos>
  <sequence>88</sequence>
  <logger>org.uma.jmetal.util.JMetalLogger</logger>
  <level>INFO</level>
  <class>org.uma.jmetal.util.experiment.util.ExperimentAlgorithm</class>
  <method>runAlgorithm</method>
  <thread>19</thread>
  <message> Running algorithm: NSGAII_p20_e6000000, problem: kroAB100, run: 45, funFile: Experimentos/TSP/MultiObjective/kroAB100/data/NSGAII_p20_e6000000/FUN45.tsv</message>
</record>
<record>
  <date>2021-12-08T12:54:29.865339196Z</date>
  <millis>1638968069865</millis>
  <nanos>339196</nanos>
  <sequence>89</sequence>
  <logger>org.uma.jmetal.util.JMetalLogger</logger>
  <level>INFO</level>
  <class>org.uma.jmetal.util.experiment.util.ExperimentAlgorithm</class>
  <method>runAlgorithm</method>
  <thread>20</thread>
  <message>Execution time: algorithm Name[NSGAII_p20_e6000000_kroAB100_run26] | Total time: [139503ms]</message>
</record>
<record>
  <date>2021-12-08T12:54:29.905976465Z</date>
  <millis>1638968069905</millis>
  <nanos>976465</nanos>
  <sequence>90</sequence>
  <logger>org.uma.jmetal.util.JMetalLogger</logger>
  <level>INFO</level>
  <class>org.uma.jmetal.util.experiment.util.ExperimentAlgorithm</class>
  <method>runAlgorithm</method>
  <thread>20</thread>
  <message> Running algorithm: MOEAD_p300_e6000000, problem: kroAB100, run: 26, funFile: Experimentos/TSP/MultiObjective/kroAB100/data/MOEAD_p300_e6000000/FUN26.tsv</message>
</record>
<record>
  <date>2021-12-08T12:54:31.413880304Z</date>
  <millis>1638968071413</millis>
  <nanos>880304</nanos>
  <sequence>91</sequence>
  <logger>org.uma.jmetal.util.JMetalLogger</logger>
  <level>INFO</level>
  <class>org.uma.jmetal.util.experiment.util.ExperimentAlgorithm</class>
  <method>runAlgorithm</method>
  <thread>17</thread>
  <message>Execution time: algorithm Name[NSGAII_p20_e6000000_kroAB100_run29] | Total time: [139933ms]</message>
</record>
<record>
  <date>2021-12-08T12:54:31.434173152Z</date>
  <millis>1638968071434</millis>
  <nanos>173152</nanos>
  <sequence>92</sequence>
  <logger>org.uma.jmetal.util.JMetalLogger</logger>
  <level>INFO</level>
  <class>org.uma.jmetal.util.experiment.util.ExperimentAlgorithm</class>
  <method>runAlgorithm</method>
  <thread>17</thread>
  <message> Running algorithm: MOEAD_p300_e6000000, problem: kroAB100, run: 29, funFile: Experimentos/TSP/MultiObjective/kroAB100/data/MOEAD_p300_e6000000/FUN29.tsv</message>
</record>
<record>
  <date>2021-12-08T12:55:38.954442413Z</date>
  <millis>1638968138954</millis>
  <nanos>442413</nanos>
  <sequence>93</sequence>
  <logger>org.uma.jmetal.util.JMetalLogger</logger>
  <level>INFO</level>
  <class>org.uma.jmetal.util.experiment.util.ExperimentAlgorithm</class>
  <method>runAlgorithm</method>
  <thread>19</thread>
  <message>Execution time: algorithm Name[NSGAII_p20_e6000000_kroAB100_run45] | Total time: [139961ms]</message>
</record>
<record>
  <date>2021-12-08T12:55:38.962167412Z</date>
  <millis>1638968138962</millis>
  <nanos>167412</nanos>
  <sequence>94</sequence>
  <logger>org.uma.jmetal.util.JMetalLogger</logger>
  <level>INFO</level>
  <class>org.uma.jmetal.util.experiment.util.ExperimentAlgorithm</class>
  <method>runAlgorithm</method>
  <thread>19</thread>
  <message> Running algorithm: MOEAD_p300_e6000000, problem: kroAB100, run: 45, funFile: Experimentos/TSP/MultiObjective/kroAB100/data/MOEAD_p300_e6000000/FUN45.tsv</message>
</record>
<record>
  <date>2021-12-08T12:58:39.673021864Z</date>
  <millis>1638968319673</millis>
  <nanos>21864</nanos>
  <sequence>95</sequence>
  <logger>org.uma.jmetal.util.JMetalLogger</logger>
  <level>INFO</level>
  <class>org.uma.jmetal.util.experiment.util.ExperimentAlgorithm</class>
  <method>runAlgorithm</method>
  <thread>21</thread>
  <message>Execution time: algorithm Name[MOCELL_p16_e6000000_kroAB100_run41] | Total time: [388485ms]</message>
</record>
<record>
  <date>2021-12-08T12:58:39.682195659Z</date>
  <millis>1638968319682</millis>
  <nanos>195659</nanos>
  <sequence>96</sequence>
  <logger>org.uma.jmetal.util.JMetalLogger</logger>
  <level>INFO</level>
  <class>org.uma.jmetal.util.experiment.util.ExperimentAlgorithm</class>
  <method>runAlgorithm</method>
  <thread>21</thread>
  <message> Running algorithm: PAES_p50_e6000000, problem: kroAB100, run: 41, funFile: Experimentos/TSP/MultiObjective/kroAB100/data/PAES_p50_e6000000/FUN41.tsv</message>
</record>
<record>
  <date>2021-12-08T12:58:40.828394736Z</date>
  <millis>1638968320828</millis>
  <nanos>394736</nanos>
  <sequence>97</sequence>
  <logger>org.uma.jmetal.util.JMetalLogger</logger>
  <level>INFO</level>
  <class>org.uma.jmetal.util.experiment.util.ExperimentAlgorithm</class>
  <method>runAlgorithm</method>
  <thread>16</thread>
  <message>Execution time: algorithm Name[MOCELL_p16_e6000000_kroAB100_run16] | Total time: [385996ms]</message>
</record>
<record>
  <date>2021-12-08T12:58:40.829075572Z</date>
  <millis>1638968320829</millis>
  <nanos>75572</nanos>
  <sequence>98</sequence>
  <logger>org.uma.jmetal.util.JMetalLogger</logger>
  <level>INFO</level>
  <class>org.uma.jmetal.util.experiment.util.ExperimentAlgorithm</class>
  <method>runAlgorithm</method>
  <thread>16</thread>
  <message> Running algorithm: PAES_p50_e6000000, problem: kroAB100, run: 16, funFile: Experimentos/TSP/MultiObjective/kroAB100/data/PAES_p50_e6000000/FUN16.tsv</message>
</record>
<record>
  <date>2021-12-08T12:58:40.839959762Z</date>
  <millis>1638968320839</millis>
  <nanos>959762</nanos>
  <sequence>99</sequence>
  <logger>org.uma.jmetal.util.JMetalLogger</logger>
  <level>INFO</level>
  <class>org.uma.jmetal.util.experiment.util.ExperimentAlgorithm</class>
  <method>runAlgorithm</method>
  <thread>1</thread>
  <message>Execution time: algorithm Name[MOCELL_p16_e6000000_kroAB100_run66] | Total time: [384411ms]</message>
</record>
<record>
  <date>2021-12-08T12:58:40.850143802Z</date>
  <millis>1638968320850</millis>
  <nanos>143802</nanos>
  <sequence>100</sequence>
  <logger>org.uma.jmetal.util.JMetalLogger</logger>
  <level>INFO</level>
  <class>org.uma.jmetal.util.experiment.util.ExperimentAlgorithm</class>
  <method>runAlgorithm</method>
  <thread>1</thread>
  <message> Running algorithm: PAES_p50_e6000000, problem: kroAB100, run: 66, funFile: Experimentos/TSP/MultiObjective/kroAB100/data/PAES_p50_e6000000/FUN66.tsv</message>
</record>
<record>
  <date>2021-12-08T12:58:42.340881518Z</date>
  <millis>1638968322340</millis>
  <nanos>881518</nanos>
  <sequence>101</sequence>
  <logger>org.uma.jmetal.util.JMetalLogger</logger>
  <level>INFO</level>
  <class>org.uma.jmetal.util.experiment.util.ExperimentAlgorithm</class>
  <method>runAlgorithm</method>
  <thread>15</thread>
  <message>Execution time: algorithm Name[MOCELL_p16_e6000000_kroAB100_run91] | Total time: [387320ms]</message>
</record>
<record>
  <date>2021-12-08T12:58:42.360103636Z</date>
  <millis>1638968322360</millis>
  <nanos>103636</nanos>
  <sequence>102</sequence>
  <logger>org.uma.jmetal.util.JMetalLogger</logger>
  <level>INFO</level>
  <class>org.uma.jmetal.util.experiment.util.ExperimentAlgorithm</class>
  <method>runAlgorithm</method>
  <thread>15</thread>
  <message> Running algorithm: PAES_p50_e6000000, problem: kroAB100, run: 91, funFile: Experimentos/TSP/MultiObjective/kroAB100/data/PAES_p50_e6000000/FUN91.tsv</message>
</record>
<record>
  <date>2021-12-08T12:59:16.546447565Z</date>
  <millis>1638968356546</millis>
  <nanos>447565</nanos>
  <sequence>103</sequence>
  <logger>org.uma.jmetal.util.JMetalLogger</logger>
  <level>INFO</level>
  <class>org.uma.jmetal.util.experiment.util.ExperimentAlgorithm</class>
  <method>runAlgorithm</method>
  <thread>18</thread>
  <message>Execution time: algorithm Name[MOEAD_p300_e6000000_kroAB100_run49] | Total time: [424683ms]</message>
</record>
<record>
  <date>2021-12-08T12:59:16.548678095Z</date>
  <millis>1638968356548</millis>
  <nanos>678095</nanos>
  <sequence>104</sequence>
  <logger>org.uma.jmetal.util.JMetalLogger</logger>
  <level>INFO</level>
  <class>org.uma.jmetal.util.experiment.util.ExperimentAlgorithm</class>
  <method>runAlgorithm</method>
  <thread>18</thread>
  <message> Running algorithm: MOCELL_p16_e6000000, problem: kroAB100, run: 49, funFile: Experimentos/TSP/MultiObjective/kroAB100/data/MOCELL_p16_e6000000/FUN49.tsv</message>
</record>
<record>
  <date>2021-12-08T12:59:19.065762815Z</date>
  <millis>1638968359065</millis>
  <nanos>762815</nanos>
  <sequence>105</sequence>
  <logger>org.uma.jmetal.util.JMetalLogger</logger>
  <level>INFO</level>
  <class>org.uma.jmetal.util.experiment.util.ExperimentAlgorithm</class>
  <method>runAlgorithm</method>
  <thread>14</thread>
  <message>Execution time: algorithm Name[MOEAD_p300_e6000000_kroAB100_run32] | Total time: [422932ms]</message>
</record>
<record>
  <date>2021-12-08T12:59:19.106343931Z</date>
  <millis>1638968359106</millis>
  <nanos>343931</nanos>
  <sequence>106</sequence>
  <logger>org.uma.jmetal.util.JMetalLogger</logger>
  <level>INFO</level>
  <class>org.uma.jmetal.util.experiment.util.ExperimentAlgorithm</class>
  <method>runAlgorithm</method>
  <thread>14</thread>
  <message> Running algorithm: MOCELL_p16_e6000000, problem: kroAB100, run: 32, funFile: Experimentos/TSP/MultiObjective/kroAB100/data/MOCELL_p16_e6000000/FUN32.tsv</message>
</record>
<record>
  <date>2021-12-08T12:59:47.282212774Z</date>
  <millis>1638968387282</millis>
  <nanos>212774</nanos>
  <sequence>107</sequence>
  <logger>org.uma.jmetal.util.JMetalLogger</logger>
  <level>INFO</level>
  <class>org.uma.jmetal.util.experiment.util.ExperimentAlgorithm</class>
  <method>runAlgorithm</method>
  <thread>21</thread>
  <message>Execution time: algorithm Name[PAES_p50_e6000000_kroAB100_run41] | Total time: [67600ms]</message>
</record>
<record>
  <date>2021-12-08T12:59:47.286074685Z</date>
  <millis>1638968387286</millis>
  <nanos>74685</nanos>
  <sequence>108</sequence>
  <logger>org.uma.jmetal.util.JMetalLogger</logger>
  <level>INFO</level>
  <class>org.uma.jmetal.util.experiment.util.ExperimentAlgorithm</class>
  <method>runAlgorithm</method>
  <thread>21</thread>
  <message> Running algorithm: NSGAII_p20_e6000000, problem: kroAB100, run: 42, funFile: Experimentos/TSP/MultiObjective/kroAB100/data/NSGAII_p20_e6000000/FUN42.tsv</message>
</record>
<record>
  <date>2021-12-08T12:59:47.344205198Z</date>
  <millis>1638968387344</millis>
  <nanos>205198</nanos>
  <sequence>109</sequence>
  <logger>org.uma.jmetal.util.JMetalLogger</logger>
  <level>INFO</level>
  <class>org.uma.jmetal.util.experiment.util.ExperimentAlgorithm</class>
  <method>runAlgorithm</method>
  <thread>16</thread>
  <message>Execution time: algorithm Name[PAES_p50_e6000000_kroAB100_run16] | Total time: [66515ms]</message>
</record>
<record>
  <date>2021-12-08T12:59:47.358079690Z</date>
  <millis>1638968387358</millis>
  <nanos>79690</nanos>
  <sequence>110</sequence>
  <logger>org.uma.jmetal.util.JMetalLogger</logger>
  <level>INFO</level>
  <class>org.uma.jmetal.util.experiment.util.ExperimentAlgorithm</class>
  <method>runAlgorithm</method>
  <thread>16</thread>
  <message> Running algorithm: NSGAII_p20_e6000000, problem: kroAB100, run: 17, funFile: Experimentos/TSP/MultiObjective/kroAB100/data/NSGAII_p20_e6000000/FUN17.tsv</message>
</record>
<record>
  <date>2021-12-08T12:59:48.702714718Z</date>
  <millis>1638968388702</millis>
  <nanos>714718</nanos>
  <sequence>111</sequence>
  <logger>org.uma.jmetal.util.JMetalLogger</logger>
  <level>INFO</level>
  <class>org.uma.jmetal.util.experiment.util.ExperimentAlgorithm</class>
  <method>runAlgorithm</method>
  <thread>1</thread>
  <message>Execution time: algorithm Name[PAES_p50_e6000000_kroAB100_run66] | Total time: [67848ms]</message>
</record>
<record>
  <date>2021-12-08T12:59:48.711635657Z</date>
  <millis>1638968388711</millis>
  <nanos>635657</nanos>
  <sequence>112</sequence>
  <logger>org.uma.jmetal.util.JMetalLogger</logger>
  <level>INFO</level>
  <class>org.uma.jmetal.util.experiment.util.ExperimentAlgorithm</class>
  <method>runAlgorithm</method>
  <thread>1</thread>
  <message> Running algorithm: NSGAII_p20_e6000000, problem: kroAB100, run: 67, funFile: Experimentos/TSP/MultiObjective/kroAB100/data/NSGAII_p20_e6000000/FUN67.tsv</message>
</record>
<record>
  <date>2021-12-08T12:59:49.614061675Z</date>
  <millis>1638968389614</millis>
  <nanos>61675</nanos>
  <sequence>113</sequence>
  <logger>org.uma.jmetal.util.JMetalLogger</logger>
  <level>INFO</level>
  <class>org.uma.jmetal.util.experiment.util.ExperimentAlgorithm</class>
  <method>runAlgorithm</method>
  <thread>15</thread>
  <message>Execution time: algorithm Name[PAES_p50_e6000000_kroAB100_run91] | Total time: [67254ms]</message>
</record>
<record>
  <date>2021-12-08T12:59:49.620562764Z</date>
  <millis>1638968389620</millis>
  <nanos>562764</nanos>
  <sequence>114</sequence>
  <logger>org.uma.jmetal.util.JMetalLogger</logger>
  <level>INFO</level>
  <class>org.uma.jmetal.util.experiment.util.ExperimentAlgorithm</class>
  <method>runAlgorithm</method>
  <thread>15</thread>
  <message> Running algorithm: NSGAII_p20_e6000000, problem: kroAB100, run: 92, funFile: Experimentos/TSP/MultiObjective/kroAB100/data/NSGAII_p20_e6000000/FUN92.tsv</message>
</record>
<record>
  <date>2021-12-08T13:01:35.986749387Z</date>
  <millis>1638968495986</millis>
  <nanos>749387</nanos>
  <sequence>115</sequence>
  <logger>org.uma.jmetal.util.JMetalLogger</logger>
  <level>INFO</level>
  <class>org.uma.jmetal.util.experiment.util.ExperimentAlgorithm</class>
  <method>runAlgorithm</method>
  <thread>20</thread>
  <message>Execution time: algorithm Name[MOEAD_p300_e6000000_kroAB100_run26] | Total time: [426043ms]</message>
</record>
<record>
  <date>2021-12-08T13:01:36.006425215Z</date>
  <millis>1638968496006</millis>
  <nanos>425215</nanos>
  <sequence>116</sequence>
  <logger>org.uma.jmetal.util.JMetalLogger</logger>
  <level>INFO</level>
  <class>org.uma.jmetal.util.experiment.util.ExperimentAlgorithm</class>
  <method>runAlgorithm</method>
  <thread>20</thread>
  <message> Running algorithm: MOCELL_p16_e6000000, problem: kroAB100, run: 26, funFile: Experimentos/TSP/MultiObjective/kroAB100/data/MOCELL_p16_e6000000/FUN26.tsv</message>
</record>
<record>
  <date>2021-12-08T13:01:36.908504491Z</date>
  <millis>1638968496908</millis>
  <nanos>504491</nanos>
  <sequence>117</sequence>
  <logger>org.uma.jmetal.util.JMetalLogger</logger>
  <level>INFO</level>
  <class>org.uma.jmetal.util.experiment.util.ExperimentAlgorithm</class>
  <method>runAlgorithm</method>
  <thread>17</thread>
  <message>Execution time: algorithm Name[MOEAD_p300_e6000000_kroAB100_run29] | Total time: [425474ms]</message>
</record>
<record>
  <date>2021-12-08T13:01:36.936366258Z</date>
  <millis>1638968496936</millis>
  <nanos>366258</nanos>
  <sequence>118</sequence>
  <logger>org.uma.jmetal.util.JMetalLogger</logger>
  <level>INFO</level>
  <class>org.uma.jmetal.util.experiment.util.ExperimentAlgorithm</class>
  <method>runAlgorithm</method>
  <thread>17</thread>
  <message> Running algorithm: MOCELL_p16_e6000000, problem: kroAB100, run: 29, funFile: Experimentos/TSP/MultiObjective/kroAB100/data/MOCELL_p16_e6000000/FUN29.tsv</message>
</record>
<record>
  <date>2021-12-08T13:02:08.808680551Z</date>
  <millis>1638968528808</millis>
  <nanos>680551</nanos>
  <sequence>119</sequence>
  <logger>org.uma.jmetal.util.JMetalLogger</logger>
  <level>INFO</level>
  <class>org.uma.jmetal.util.experiment.util.ExperimentAlgorithm</class>
  <method>runAlgorithm</method>
  <thread>16</thread>
  <message>Execution time: algorithm Name[NSGAII_p20_e6000000_kroAB100_run17] | Total time: [141445ms]</message>
</record>
<record>
  <date>2021-12-08T13:02:08.827384874Z</date>
  <millis>1638968528827</millis>
  <nanos>384874</nanos>
  <sequence>120</sequence>
  <logger>org.uma.jmetal.util.JMetalLogger</logger>
  <level>INFO</level>
  <class>org.uma.jmetal.util.experiment.util.ExperimentAlgorithm</class>
  <method>runAlgorithm</method>
  <thread>16</thread>
  <message> Running algorithm: MOEAD_p300_e6000000, problem: kroAB100, run: 17, funFile: Experimentos/TSP/MultiObjective/kroAB100/data/MOEAD_p300_e6000000/FUN17.tsv</message>
</record>
<record>
  <date>2021-12-08T13:02:09.105324719Z</date>
  <millis>1638968529105</millis>
  <nanos>324719</nanos>
  <sequence>121</sequence>
  <logger>org.uma.jmetal.util.JMetalLogger</logger>
  <level>INFO</level>
  <class>org.uma.jmetal.util.experiment.util.ExperimentAlgorithm</class>
  <method>runAlgorithm</method>
  <thread>21</thread>
  <message>Execution time: algorithm Name[NSGAII_p20_e6000000_kroAB100_run42] | Total time: [141818ms]</message>
</record>
<record>
  <date>2021-12-08T13:02:09.130160982Z</date>
  <millis>1638968529130</millis>
  <nanos>160982</nanos>
  <sequence>122</sequence>
  <logger>org.uma.jmetal.util.JMetalLogger</logger>
  <level>INFO</level>
  <class>org.uma.jmetal.util.experiment.util.ExperimentAlgorithm</class>
  <method>runAlgorithm</method>
  <thread>21</thread>
  <message> Running algorithm: MOEAD_p300_e6000000, problem: kroAB100, run: 42, funFile: Experimentos/TSP/MultiObjective/kroAB100/data/MOEAD_p300_e6000000/FUN42.tsv</message>
</record>
<record>
  <date>2021-12-08T13:02:09.193116071Z</date>
  <millis>1638968529193</millis>
  <nanos>116071</nanos>
  <sequence>123</sequence>
  <logger>org.uma.jmetal.util.JMetalLogger</logger>
  <level>INFO</level>
  <class>org.uma.jmetal.util.experiment.util.ExperimentAlgorithm</class>
  <method>runAlgorithm</method>
  <thread>1</thread>
  <message>Execution time: algorithm Name[NSGAII_p20_e6000000_kroAB100_run67] | Total time: [140480ms]</message>
</record>
<record>
  <date>2021-12-08T13:02:09.194353236Z</date>
  <millis>1638968529194</millis>
  <nanos>353236</nanos>
  <sequence>124</sequence>
  <logger>org.uma.jmetal.util.JMetalLogger</logger>
  <level>INFO</level>
  <class>org.uma.jmetal.util.experiment.util.ExperimentAlgorithm</class>
  <method>runAlgorithm</method>
  <thread>1</thread>
  <message> Running algorithm: MOEAD_p300_e6000000, problem: kroAB100, run: 67, funFile: Experimentos/TSP/MultiObjective/kroAB100/data/MOEAD_p300_e6000000/FUN67.tsv</message>
</record>
<record>
  <date>2021-12-08T13:02:11.200945953Z</date>
  <millis>1638968531200</millis>
  <nanos>945953</nanos>
  <sequence>125</sequence>
  <logger>org.uma.jmetal.util.JMetalLogger</logger>
  <level>INFO</level>
  <class>org.uma.jmetal.util.experiment.util.ExperimentAlgorithm</class>
  <method>runAlgorithm</method>
  <thread>15</thread>
  <message>Execution time: algorithm Name[NSGAII_p20_e6000000_kroAB100_run92] | Total time: [141545ms]</message>
</record>
<record>
  <date>2021-12-08T13:02:11.216447553Z</date>
  <millis>1638968531216</millis>
  <nanos>447553</nanos>
  <sequence>126</sequence>
  <logger>org.uma.jmetal.util.JMetalLogger</logger>
  <level>INFO</level>
  <class>org.uma.jmetal.util.experiment.util.ExperimentAlgorithm</class>
  <method>runAlgorithm</method>
  <thread>15</thread>
  <message> Running algorithm: MOEAD_p300_e6000000, problem: kroAB100, run: 92, funFile: Experimentos/TSP/MultiObjective/kroAB100/data/MOEAD_p300_e6000000/FUN92.tsv</message>
</record>
<record>
  <date>2021-12-08T13:02:44.985055231Z</date>
  <millis>1638968564985</millis>
  <nanos>55231</nanos>
  <sequence>127</sequence>
  <logger>org.uma.jmetal.util.JMetalLogger</logger>
  <level>INFO</level>
  <class>org.uma.jmetal.util.experiment.util.ExperimentAlgorithm</class>
  <method>runAlgorithm</method>
  <thread>19</thread>
  <message>Execution time: algorithm Name[MOEAD_p300_e6000000_kroAB100_run45] | Total time: [426022ms]</message>
</record>
<record>
  <date>2021-12-08T13:02:45.007340078Z</date>
  <millis>1638968565007</millis>
  <nanos>340078</nanos>
  <sequence>128</sequence>
  <logger>org.uma.jmetal.util.JMetalLogger</logger>
  <level>INFO</level>
  <class>org.uma.jmetal.util.experiment.util.ExperimentAlgorithm</class>
  <method>runAlgorithm</method>
  <thread>19</thread>
  <message> Running algorithm: MOCELL_p16_e6000000, problem: kroAB100, run: 45, funFile: Experimentos/TSP/MultiObjective/kroAB100/data/MOCELL_p16_e6000000/FUN45.tsv</message>
</record>
<record>
  <date>2021-12-08T13:05:51.007919189Z</date>
  <millis>1638968751007</millis>
  <nanos>919189</nanos>
  <sequence>129</sequence>
  <logger>org.uma.jmetal.util.JMetalLogger</logger>
  <level>INFO</level>
  <class>org.uma.jmetal.util.experiment.util.ExperimentAlgorithm</class>
  <method>runAlgorithm</method>
  <thread>18</thread>
  <message>Execution time: algorithm Name[MOCELL_p16_e6000000_kroAB100_run49] | Total time: [394459ms]</message>
</record>
<record>
  <date>2021-12-08T13:05:51.030205130Z</date>
  <millis>1638968751030</millis>
  <nanos>205130</nanos>
  <sequence>130</sequence>
  <logger>org.uma.jmetal.util.JMetalLogger</logger>
  <level>INFO</level>
  <class>org.uma.jmetal.util.experiment.util.ExperimentAlgorithm</class>
  <method>runAlgorithm</method>
  <thread>18</thread>
  <message> Running algorithm: PAES_p50_e6000000, problem: kroAB100, run: 49, funFile: Experimentos/TSP/MultiObjective/kroAB100/data/PAES_p50_e6000000/FUN49.tsv</message>
</record>
<record>
  <date>2021-12-08T13:05:57.775473733Z</date>
  <millis>1638968757775</millis>
  <nanos>473733</nanos>
  <sequence>131</sequence>
  <logger>org.uma.jmetal.util.JMetalLogger</logger>
  <level>INFO</level>
  <class>org.uma.jmetal.util.experiment.util.ExperimentAlgorithm</class>
  <method>runAlgorithm</method>
  <thread>14</thread>
  <message>Execution time: algorithm Name[MOCELL_p16_e6000000_kroAB100_run32] | Total time: [398669ms]</message>
</record>
<record>
  <date>2021-12-08T13:05:57.776196515Z</date>
  <millis>1638968757776</millis>
  <nanos>196515</nanos>
  <sequence>132</sequence>
  <logger>org.uma.jmetal.util.JMetalLogger</logger>
  <level>INFO</level>
  <class>org.uma.jmetal.util.experiment.util.ExperimentAlgorithm</class>
  <method>runAlgorithm</method>
  <thread>14</thread>
  <message> Running algorithm: PAES_p50_e6000000, problem: kroAB100, run: 32, funFile: Experimentos/TSP/MultiObjective/kroAB100/data/PAES_p50_e6000000/FUN32.tsv</message>
</record>
<record>
  <date>2021-12-08T13:07:00.802050701Z</date>
  <millis>1638968820802</millis>
  <nanos>50701</nanos>
  <sequence>133</sequence>
  <logger>org.uma.jmetal.util.JMetalLogger</logger>
  <level>INFO</level>
  <class>org.uma.jmetal.util.experiment.util.ExperimentAlgorithm</class>
  <method>runAlgorithm</method>
  <thread>18</thread>
  <message>Execution time: algorithm Name[PAES_p50_e6000000_kroAB100_run49] | Total time: [69772ms]</message>
</record>
<record>
  <date>2021-12-08T13:07:00.802959491Z</date>
  <millis>1638968820802</millis>
  <nanos>959491</nanos>
  <sequence>134</sequence>
  <logger>org.uma.jmetal.util.JMetalLogger</logger>
  <level>INFO</level>
  <class>org.uma.jmetal.util.experiment.util.ExperimentAlgorithm</class>
  <method>runAlgorithm</method>
  <thread>18</thread>
  <message> Running algorithm: PAES_p50_e6000000, problem: kroAB100, run: 46, funFile: Experimentos/TSP/MultiObjective/kroAB100/data/PAES_p50_e6000000/FUN46.tsv</message>
</record>
<record>
  <date>2021-12-08T13:07:07.422444875Z</date>
  <millis>1638968827422</millis>
  <nanos>444875</nanos>
  <sequence>135</sequence>
  <logger>org.uma.jmetal.util.JMetalLogger</logger>
  <level>INFO</level>
  <class>org.uma.jmetal.util.experiment.util.ExperimentAlgorithm</class>
  <method>runAlgorithm</method>
  <thread>14</thread>
  <message>Execution time: algorithm Name[PAES_p50_e6000000_kroAB100_run32] | Total time: [69646ms]</message>
</record>
<record>
  <date>2021-12-08T13:07:07.438632519Z</date>
  <millis>1638968827438</millis>
  <nanos>632519</nanos>
  <sequence>136</sequence>
  <logger>org.uma.jmetal.util.JMetalLogger</logger>
  <level>INFO</level>
  <class>org.uma.jmetal.util.experiment.util.ExperimentAlgorithm</class>
  <method>runAlgorithm</method>
  <thread>14</thread>
  <message> Running algorithm: NSGAII_p20_e6000000, problem: kroAB100, run: 33, funFile: Experimentos/TSP/MultiObjective/kroAB100/data/NSGAII_p20_e6000000/FUN33.tsv</message>
</record>
<record>
  <date>2021-12-08T13:08:10.023677811Z</date>
  <millis>1638968890023</millis>
  <nanos>677811</nanos>
  <sequence>137</sequence>
  <logger>org.uma.jmetal.util.JMetalLogger</logger>
  <level>INFO</level>
  <class>org.uma.jmetal.util.experiment.util.ExperimentAlgorithm</class>
  <method>runAlgorithm</method>
  <thread>18</thread>
  <message>Execution time: algorithm Name[PAES_p50_e6000000_kroAB100_run46] | Total time: [69220ms]</message>
</record>
<record>
  <date>2021-12-08T13:08:10.046228793Z</date>
  <millis>1638968890046</millis>
  <nanos>228793</nanos>
  <sequence>138</sequence>
  <logger>org.uma.jmetal.util.JMetalLogger</logger>
  <level>INFO</level>
  <class>org.uma.jmetal.util.experiment.util.ExperimentAlgorithm</class>
  <method>runAlgorithm</method>
  <thread>18</thread>
  <message> Running algorithm: NSGAII_p20_e6000000, problem: kroAB100, run: 47, funFile: Experimentos/TSP/MultiObjective/kroAB100/data/NSGAII_p20_e6000000/FUN47.tsv</message>
</record>
<record>
  <date>2021-12-08T13:08:15.674108295Z</date>
  <millis>1638968895674</millis>
  <nanos>108295</nanos>
  <sequence>139</sequence>
  <logger>org.uma.jmetal.util.JMetalLogger</logger>
  <level>INFO</level>
  <class>org.uma.jmetal.util.experiment.util.ExperimentAlgorithm</class>
  <method>runAlgorithm</method>
  <thread>20</thread>
  <message>Execution time: algorithm Name[MOCELL_p16_e6000000_kroAB100_run26] | Total time: [399665ms]</message>
</record>
<record>
  <date>2021-12-08T13:08:15.674883827Z</date>
  <millis>1638968895674</millis>
  <nanos>883827</nanos>
  <sequence>140</sequence>
  <logger>org.uma.jmetal.util.JMetalLogger</logger>
  <level>INFO</level>
  <class>org.uma.jmetal.util.experiment.util.ExperimentAlgorithm</class>
  <method>runAlgorithm</method>
  <thread>20</thread>
  <message> Running algorithm: PAES_p50_e6000000, problem: kroAB100, run: 26, funFile: Experimentos/TSP/MultiObjective/kroAB100/data/PAES_p50_e6000000/FUN26.tsv</message>
</record>
<record>
  <date>2021-12-08T13:08:22.105296325Z</date>
  <millis>1638968902105</millis>
  <nanos>296325</nanos>
  <sequence>141</sequence>
  <logger>org.uma.jmetal.util.JMetalLogger</logger>
  <level>INFO</level>
  <class>org.uma.jmetal.util.experiment.util.ExperimentAlgorithm</class>
  <method>runAlgorithm</method>
  <thread>17</thread>
  <message>Execution time: algorithm Name[MOCELL_p16_e6000000_kroAB100_run29] | Total time: [405169ms]</message>
</record>
<record>
  <date>2021-12-08T13:08:22.160973488Z</date>
  <millis>1638968902160</millis>
  <nanos>973488</nanos>
  <sequence>142</sequence>
  <logger>org.uma.jmetal.util.JMetalLogger</logger>
  <level>INFO</level>
  <class>org.uma.jmetal.util.experiment.util.ExperimentAlgorithm</class>
  <method>runAlgorithm</method>
  <thread>17</thread>
  <message> Running algorithm: PAES_p50_e6000000, problem: kroAB100, run: 29, funFile: Experimentos/TSP/MultiObjective/kroAB100/data/PAES_p50_e6000000/FUN29.tsv</message>
</record>
<record>
  <date>2021-12-08T13:09:23.146538573Z</date>
  <millis>1638968963146</millis>
  <nanos>538573</nanos>
  <sequence>143</sequence>
  <logger>org.uma.jmetal.util.JMetalLogger</logger>
  <level>INFO</level>
  <class>org.uma.jmetal.util.experiment.util.ExperimentAlgorithm</class>
  <method>runAlgorithm</method>
  <thread>1</thread>
  <message>Execution time: algorithm Name[MOEAD_p300_e6000000_kroAB100_run67] | Total time: [433948ms]</message>
</record>
<record>
  <date>2021-12-08T13:09:23.158344541Z</date>
  <millis>1638968963158</millis>
  <nanos>344541</nanos>
  <sequence>144</sequence>
  <logger>org.uma.jmetal.util.JMetalLogger</logger>
  <level>INFO</level>
  <class>org.uma.jmetal.util.experiment.util.ExperimentAlgorithm</class>
  <method>runAlgorithm</method>
  <thread>1</thread>
  <message> Running algorithm: MOCELL_p16_e6000000, problem: kroAB100, run: 67, funFile: Experimentos/TSP/MultiObjective/kroAB100/data/MOCELL_p16_e6000000/FUN67.tsv</message>
</record>
<record>
  <date>2021-12-08T13:09:23.827508091Z</date>
  <millis>1638968963827</millis>
  <nanos>508091</nanos>
  <sequence>145</sequence>
  <logger>org.uma.jmetal.util.JMetalLogger</logger>
  <level>INFO</level>
  <class>org.uma.jmetal.util.experiment.util.ExperimentAlgorithm</class>
  <method>runAlgorithm</method>
  <thread>20</thread>
  <message>Execution time: algorithm Name[PAES_p50_e6000000_kroAB100_run26] | Total time: [68152ms]</message>
</record>
<record>
  <date>2021-12-08T13:09:23.828333655Z</date>
  <millis>1638968963828</millis>
  <nanos>333655</nanos>
  <sequence>146</sequence>
  <logger>org.uma.jmetal.util.JMetalLogger</logger>
  <level>INFO</level>
  <class>org.uma.jmetal.util.experiment.util.ExperimentAlgorithm</class>
  <method>runAlgorithm</method>
  <thread>20</thread>
  <message> Running algorithm: NSGAII_p20_e6000000, problem: kroAB100, run: 27, funFile: Experimentos/TSP/MultiObjective/kroAB100/data/NSGAII_p20_e6000000/FUN27.tsv</message>
</record>
<record>
  <date>2021-12-08T13:09:24.875039493Z</date>
  <millis>1638968964875</millis>
  <nanos>39493</nanos>
  <sequence>147</sequence>
  <logger>org.uma.jmetal.util.JMetalLogger</logger>
  <level>INFO</level>
  <class>org.uma.jmetal.util.experiment.util.ExperimentAlgorithm</class>
  <method>runAlgorithm</method>
  <thread>16</thread>
  <message>Execution time: algorithm Name[MOEAD_p300_e6000000_kroAB100_run17] | Total time: [436048ms]</message>
</record>
<record>
  <date>2021-12-08T13:09:24.876934626Z</date>
  <millis>1638968964876</millis>
  <nanos>934626</nanos>
  <sequence>148</sequence>
  <logger>org.uma.jmetal.util.JMetalLogger</logger>
  <level>INFO</level>
  <class>org.uma.jmetal.util.experiment.util.ExperimentAlgorithm</class>
  <method>runAlgorithm</method>
  <thread>16</thread>
  <message> Running algorithm: MOCELL_p16_e6000000, problem: kroAB100, run: 17, funFile: Experimentos/TSP/MultiObjective/kroAB100/data/MOCELL_p16_e6000000/FUN17.tsv</message>
</record>
<record>
  <date>2021-12-08T13:09:26.410574230Z</date>
  <millis>1638968966410</millis>
  <nanos>574230</nanos>
  <sequence>149</sequence>
  <logger>org.uma.jmetal.util.JMetalLogger</logger>
  <level>INFO</level>
  <class>org.uma.jmetal.util.experiment.util.ExperimentAlgorithm</class>
  <method>runAlgorithm</method>
  <thread>21</thread>
  <message>Execution time: algorithm Name[MOEAD_p300_e6000000_kroAB100_run42] | Total time: [437280ms]</message>
</record>
<record>
  <date>2021-12-08T13:09:26.412575630Z</date>
  <millis>1638968966412</millis>
  <nanos>575630</nanos>
  <sequence>150</sequence>
  <logger>org.uma.jmetal.util.JMetalLogger</logger>
  <level>INFO</level>
  <class>org.uma.jmetal.util.experiment.util.ExperimentAlgorithm</class>
  <method>runAlgorithm</method>
  <thread>21</thread>
  <message> Running algorithm: MOCELL_p16_e6000000, problem: kroAB100, run: 42, funFile: Experimentos/TSP/MultiObjective/kroAB100/data/MOCELL_p16_e6000000/FUN42.tsv</message>
</record>
<record>
  <date>2021-12-08T13:09:26.905263332Z</date>
  <millis>1638968966905</millis>
  <nanos>263332</nanos>
  <sequence>151</sequence>
  <logger>org.uma.jmetal.util.JMetalLogger</logger>
  <level>INFO</level>
  <class>org.uma.jmetal.util.experiment.util.ExperimentAlgorithm</class>
  <method>runAlgorithm</method>
  <thread>19</thread>
  <message>Execution time: algorithm Name[MOCELL_p16_e6000000_kroAB100_run45] | Total time: [401898ms]</message>
</record>
<record>
  <date>2021-12-08T13:09:26.914496146Z</date>
  <millis>1638968966914</millis>
  <nanos>496146</nanos>
  <sequence>152</sequence>
  <logger>org.uma.jmetal.util.JMetalLogger</logger>
  <level>INFO</level>
  <class>org.uma.jmetal.util.experiment.util.ExperimentAlgorithm</class>
  <method>runAlgorithm</method>
  <thread>19</thread>
  <message> Running algorithm: PAES_p50_e6000000, problem: kroAB100, run: 45, funFile: Experimentos/TSP/MultiObjective/kroAB100/data/PAES_p50_e6000000/FUN45.tsv</message>
</record>
<record>
  <date>2021-12-08T13:09:27.909221436Z</date>
  <millis>1638968967909</millis>
  <nanos>221436</nanos>
  <sequence>153</sequence>
  <logger>org.uma.jmetal.util.JMetalLogger</logger>
  <level>INFO</level>
  <class>org.uma.jmetal.util.experiment.util.ExperimentAlgorithm</class>
  <method>runAlgorithm</method>
  <thread>15</thread>
  <message>Execution time: algorithm Name[MOEAD_p300_e6000000_kroAB100_run92] | Total time: [436683ms]</message>
</record>
<record>
  <date>2021-12-08T13:09:27.932977013Z</date>
  <millis>1638968967932</millis>
  <nanos>977013</nanos>
  <sequence>154</sequence>
  <logger>org.uma.jmetal.util.JMetalLogger</logger>
  <level>INFO</level>
  <class>org.uma.jmetal.util.experiment.util.ExperimentAlgorithm</class>
  <method>runAlgorithm</method>
  <thread>15</thread>
  <message> Running algorithm: MOCELL_p16_e6000000, problem: kroAB100, run: 92, funFile: Experimentos/TSP/MultiObjective/kroAB100/data/MOCELL_p16_e6000000/FUN92.tsv</message>
</record>
<record>
  <date>2021-12-08T13:09:30.473185342Z</date>
  <millis>1638968970473</millis>
  <nanos>185342</nanos>
  <sequence>155</sequence>
  <logger>org.uma.jmetal.util.JMetalLogger</logger>
  <level>INFO</level>
  <class>org.uma.jmetal.util.experiment.util.ExperimentAlgorithm</class>
  <method>runAlgorithm</method>
  <thread>17</thread>
  <message>Execution time: algorithm Name[PAES_p50_e6000000_kroAB100_run29] | Total time: [68312ms]</message>
</record>
<record>
  <date>2021-12-08T13:09:30.486038688Z</date>
  <millis>1638968970486</millis>
  <nanos>38688</nanos>
  <sequence>156</sequence>
  <logger>org.uma.jmetal.util.JMetalLogger</logger>
  <level>INFO</level>
  <class>org.uma.jmetal.util.experiment.util.ExperimentAlgorithm</class>
  <method>runAlgorithm</method>
  <thread>17</thread>
  <message> Running algorithm: NSGAII_p20_e6000000, problem: kroAB100, run: 30, funFile: Experimentos/TSP/MultiObjective/kroAB100/data/NSGAII_p20_e6000000/FUN30.tsv</message>
</record>
<record>
  <date>2021-12-08T13:09:32.395689694Z</date>
  <millis>1638968972395</millis>
  <nanos>689694</nanos>
  <sequence>157</sequence>
  <logger>org.uma.jmetal.util.JMetalLogger</logger>
  <level>INFO</level>
  <class>org.uma.jmetal.util.experiment.util.ExperimentAlgorithm</class>
  <method>runAlgorithm</method>
  <thread>14</thread>
  <message>Execution time: algorithm Name[NSGAII_p20_e6000000_kroAB100_run33] | Total time: [144957ms]</message>
</record>
<record>
  <date>2021-12-08T13:09:32.396428472Z</date>
  <millis>1638968972396</millis>
  <nanos>428472</nanos>
  <sequence>158</sequence>
  <logger>org.uma.jmetal.util.JMetalLogger</logger>
  <level>INFO</level>
  <class>org.uma.jmetal.util.experiment.util.ExperimentAlgorithm</class>
  <method>runAlgorithm</method>
  <thread>14</thread>
  <message> Running algorithm: MOEAD_p300_e6000000, problem: kroAB100, run: 33, funFile: Experimentos/TSP/MultiObjective/kroAB100/data/MOEAD_p300_e6000000/FUN33.tsv</message>
</record>
<record>
  <date>2021-12-08T13:10:34.514744329Z</date>
  <millis>1638969034514</millis>
  <nanos>744329</nanos>
  <sequence>159</sequence>
  <logger>org.uma.jmetal.util.JMetalLogger</logger>
  <level>INFO</level>
  <class>org.uma.jmetal.util.experiment.util.ExperimentAlgorithm</class>
  <method>runAlgorithm</method>
  <thread>18</thread>
  <message>Execution time: algorithm Name[NSGAII_p20_e6000000_kroAB100_run47] | Total time: [144468ms]</message>
</record>
<record>
  <date>2021-12-08T13:10:34.528333181Z</date>
  <millis>1638969034528</millis>
  <nanos>333181</nanos>
  <sequence>160</sequence>
  <logger>org.uma.jmetal.util.JMetalLogger</logger>
  <level>INFO</level>
  <class>org.uma.jmetal.util.experiment.util.ExperimentAlgorithm</class>
  <method>runAlgorithm</method>
  <thread>18</thread>
  <message> Running algorithm: MOEAD_p300_e6000000, problem: kroAB100, run: 47, funFile: Experimentos/TSP/MultiObjective/kroAB100/data/MOEAD_p300_e6000000/FUN47.tsv</message>
</record>
<record>
  <date>2021-12-08T13:10:35.824533165Z</date>
  <millis>1638969035824</millis>
  <nanos>533165</nanos>
  <sequence>161</sequence>
  <logger>org.uma.jmetal.util.JMetalLogger</logger>
  <level>INFO</level>
  <class>org.uma.jmetal.util.experiment.util.ExperimentAlgorithm</class>
  <method>runAlgorithm</method>
  <thread>19</thread>
  <message>Execution time: algorithm Name[PAES_p50_e6000000_kroAB100_run45] | Total time: [68910ms]</message>
</record>
<record>
  <date>2021-12-08T13:10:35.839126340Z</date>
  <millis>1638969035839</millis>
  <nanos>126340</nanos>
  <sequence>162</sequence>
  <logger>org.uma.jmetal.util.JMetalLogger</logger>
  <level>INFO</level>
  <class>org.uma.jmetal.util.experiment.util.ExperimentAlgorithm</class>
  <method>runAlgorithm</method>
  <thread>19</thread>
  <message> Running algorithm: NSGAII_p20_e6000000, problem: kroAB100, run: 46, funFile: Experimentos/TSP/MultiObjective/kroAB100/data/NSGAII_p20_e6000000/FUN46.tsv</message>
</record>
<record>
  <date>2021-12-08T13:11:47.673992291Z</date>
  <millis>1638969107673</millis>
  <nanos>992291</nanos>
  <sequence>163</sequence>
  <logger>org.uma.jmetal.util.JMetalLogger</logger>
  <level>INFO</level>
  <class>org.uma.jmetal.util.experiment.util.ExperimentAlgorithm</class>
  <method>runAlgorithm</method>
  <thread>20</thread>
  <message>Execution time: algorithm Name[NSGAII_p20_e6000000_kroAB100_run27] | Total time: [143845ms]</message>
</record>
<record>
  <date>2021-12-08T13:11:47.679864833Z</date>
  <millis>1638969107679</millis>
  <nanos>864833</nanos>
  <sequence>164</sequence>
  <logger>org.uma.jmetal.util.JMetalLogger</logger>
  <level>INFO</level>
  <class>org.uma.jmetal.util.experiment.util.ExperimentAlgorithm</class>
  <method>runAlgorithm</method>
  <thread>20</thread>
  <message> Running algorithm: MOEAD_p300_e6000000, problem: kroAB100, run: 27, funFile: Experimentos/TSP/MultiObjective/kroAB100/data/MOEAD_p300_e6000000/FUN27.tsv</message>
</record>
<record>
  <date>2021-12-08T13:11:53.112666885Z</date>
  <millis>1638969113112</millis>
  <nanos>666885</nanos>
  <sequence>165</sequence>
  <logger>org.uma.jmetal.util.JMetalLogger</logger>
  <level>INFO</level>
  <class>org.uma.jmetal.util.experiment.util.ExperimentAlgorithm</class>
  <method>runAlgorithm</method>
  <thread>17</thread>
  <message>Execution time: algorithm Name[NSGAII_p20_e6000000_kroAB100_run30] | Total time: [142626ms]</message>
</record>
<record>
  <date>2021-12-08T13:11:53.126539393Z</date>
  <millis>1638969113126</millis>
  <nanos>539393</nanos>
  <sequence>166</sequence>
  <logger>org.uma.jmetal.util.JMetalLogger</logger>
  <level>INFO</level>
  <class>org.uma.jmetal.util.experiment.util.ExperimentAlgorithm</class>
  <method>runAlgorithm</method>
  <thread>17</thread>
  <message> Running algorithm: MOEAD_p300_e6000000, problem: kroAB100, run: 30, funFile: Experimentos/TSP/MultiObjective/kroAB100/data/MOEAD_p300_e6000000/FUN30.tsv</message>
</record>
<record>
  <date>2021-12-08T13:12:29.215046032Z</date>
  <millis>1638969149215</millis>
  <nanos>46032</nanos>
  <sequence>167</sequence>
  <logger>org.uma.jmetal.util.JMetalLogger</logger>
  <level>INFO</level>
  <class>org.uma.jmetal.util.experiment.util.ExperimentAlgorithm</class>
  <method>runAlgorithm</method>
  <thread>19</thread>
  <message>Execution time: algorithm Name[NSGAII_p20_e6000000_kroAB100_run46] | Total time: [113369ms]</message>
</record>
<record>
  <date>2021-12-08T13:12:29.215731316Z</date>
  <millis>1638969149215</millis>
  <nanos>731316</nanos>
  <sequence>168</sequence>
  <logger>org.uma.jmetal.util.JMetalLogger</logger>
  <level>SEVERE</level>
  <class>org.uma.jmetal.util.JMetalException</class>
  <method>&lt;init&gt;</method>
  <thread>19</thread>
  <message>Exception when calling method getFileWriter()</message>
  <exception>
    <message>java.io.FileNotFoundException: Experimentos/TSP/MultiObjective/kroAB100/data/NSGAII_p20_e6000000/FUN46.tsv (No such file or directory)</message>
    <frame>
      <class>java.io.FileOutputStream</class>
      <method>open0</method>
    </frame>
    <frame>
      <class>java.io.FileOutputStream</class>
      <method>open</method>
      <line>291</line>
    </frame>
    <frame>
      <class>java.io.FileOutputStream</class>
      <method>&lt;init&gt;</method>
      <line>234</line>
    </frame>
    <frame>
      <class>java.io.FileOutputStream</class>
      <method>&lt;init&gt;</method>
      <line>123</line>
    </frame>
    <frame>
      <class>org.uma.jmetal.util.fileoutput.impl.DefaultFileOutputContext</class>
      <method>getFileWriter</method>
      <line>32</line>
    </frame>
    <frame>
      <class>org.uma.jmetal.util.fileoutput.SolutionListOutput</class>
      <method>printObjectivesToFile</method>
      <line>90</line>
    </frame>
    <frame>
      <class>org.uma.jmetal.util.fileoutput.SolutionListOutput</class>
      <method>print</method>
      <line>60</line>
    </frame>
    <frame>
      <class>org.uma.jmetal.util.experiment.util.ExperimentAlgorithm</class>
      <method>runAlgorithm</method>
      <line>122</line>
    </frame>
    <frame>
      <class>org.uma.jmetal.util.experiment.component.ExecuteAlgorithms</class>
      <method>lambda$0</method>
      <line>42</line>
    </frame>
    <frame>
      <class>java.util.stream.ForEachOps$ForEachOp$OfRef</class>
      <method>accept</method>
      <line>183</line>
    </frame>
    <frame>
      <class>java.util.ArrayList$ArrayListSpliterator</class>
      <method>forEachRemaining</method>
      <line>1625</line>
    </frame>
    <frame>
      <class>java.util.stream.AbstractPipeline</class>
      <method>copyInto</method>
      <line>484</line>
    </frame>
    <frame>
      <class>java.util.stream.ForEachOps$ForEachTask</class>
      <method>compute</method>
      <line>290</line>
    </frame>
    <frame>
      <class>java.util.concurrent.CountedCompleter</class>
      <method>exec</method>
      <line>746</line>
    </frame>
    <frame>
      <class>java.util.concurrent.ForkJoinTask</class>
      <method>doExec</method>
      <line>295</line>
    </frame>
    <frame>
      <class>java.util.concurrent.ForkJoinPool$WorkQueue</class>
      <method>topLevelExec</method>
      <line>1016</line>
    </frame>
    <frame>
      <class>java.util.concurrent.ForkJoinPool</class>
      <method>scan</method>
      <line>1665</line>
    </frame>
    <frame>
      <class>java.util.concurrent.ForkJoinPool</class>
      <method>runWorker</method>
      <line>1598</line>
    </frame>
    <frame>
      <class>java.util.concurrent.ForkJoinWorkerThread</class>
      <method>run</method>
      <line>183</line>
    </frame>
  </exception>
</record>
<record>
  <date>2021-12-08T13:12:29.216940697Z</date>
  <millis>1638969149216</millis>
  <nanos>940697</nanos>
  <sequence>169</sequence>
  <logger>org.uma.jmetal.util.JMetalLogger</logger>
  <level>INFO</level>
  <class>org.uma.jmetal.util.experiment.util.ExperimentAlgorithm</class>
  <method>runAlgorithm</method>
  <thread>19</thread>
  <message>Creating Experimentos/TSP/MultiObjective/kroAB100/data/PAES_p50_e6000000</message>
</record>
<record>
  <date>2021-12-08T13:12:29.217127841Z</date>
  <millis>1638969149217</millis>
  <nanos>127841</nanos>
  <sequence>170</sequence>
  <logger>org.uma.jmetal.util.JMetalLogger</logger>
  <level>INFO</level>
  <class>org.uma.jmetal.util.experiment.util.ExperimentAlgorithm</class>
  <method>runAlgorithm</method>
  <thread>19</thread>
  <message> Running algorithm: PAES_p50_e6000000, problem: kroAB100, run: 35, funFile: Experimentos/TSP/MultiObjective/kroAB100/data/PAES_p50_e6000000/FUN35.tsv</message>
</record>
</log>
